{
    "serialNumber": "AP4",
    "iotHubDeviceEndpoint": "papapill-dev-iothub.azure-devices.net",
    "iotHubSharedAccessKey": "/BRwdxszhlJc/P2mM0fx+Lt8GzpwnwR9PMwsyW+5/nc=",
    "cameraMatrix": "722.049175907168, 0, 512, 0, 717.5981988127216, 384, 0, 0, 1",
    "distortionCoefficients": "-0.3927599527216845, 0.1269557457293954, 0, 0, 0",
    "rho0": 85.732,
    "imageWidth": 1024,
    "imageHeight": 768,
    "detectionsReturned": 1,
    "deadzoneRhoMinLimit": -25.0,
    "deadzoneRhoMaxLimit": 32.0,
    "deadzoneThetaIntercept": 6.0,
    "mmm": -0.00067726,
    "mmb": 0.154368356,
    "rotation": 1.075043833,
    "convergentTheta": 0,
    "convergentRho": 0,
    "convergentPixelX": 528,
    "convergentPixelY": 375,
    "binThetaMax": 10.50,
    "binThetaMin": -10.50,
    "binRhoMax": 32.0,
    "binDepth": 50.5,
    "templateSlope": 0.21,
    "absPositionOffset": 65.05,
	"templateUpperLeftXY": "0, 336, 233, 1, 336, 232, 2, 335, 232, 3, 334, 231, 4, 333, 230, 5, 332, 230, 6, 331, 229, 7, 330, 229, 8, 329, 228, 9, 329, 227, 10, 328, 226, 11, 327, 226, 12, 326, 225, 13, 325, 224, 14, 324, 224, 15, 323, 223, 16, 322, 222, 17, 321, 221, 18, 320, 221, 19, 319, 220, 20, 318, 219, 21, 317, 218, 22, 316, 218, 23, 315, 217, 24, 314, 216, 25, 313, 215, 26, 312, 215, 27, 311, 214, 28, 310, 213, 29, 309, 212, 30, 307, 211, 31, 306, 210, 32, 305, 210, 33, 304, 209, 34, 303, 208, 35, 302, 207, 36, 301, 206, 37, 299, 205, 38, 298, 204, 39, 297, 204, 40, 296, 203, 41, 294, 202, 42, 293, 201, 43, 292, 200, 44, 291, 199, 45, 289, 198, 46, 288, 197, 47, 287, 196, 48, 285, 195, 49, 284, 194, 50, 283, 193, 51, 281, 192, 52, 280, 191, 53, 278, 190, 54, 277, 189, 55, 275, 188, 56, 274, 187, 57, 272, 186, 58, 271, 184, 59, 270, 183, 60, 268, 182, 61, 266, 181, 62, 265, 180, 63, 263, 178, 64, 262, 177, 65, 260, 176, 66, 258, 175, 67, 257, 174, 68, 255, 172, 69, 253, 171, 70, 251, 170, 71, 250, 169, 72, 248, 167, 73, 246, 166, 74, 244, 164, 75, 242, 163, 76, 240, 162, 77, 239, 160, 78, 237, 159, 79, 235, 157, 80, 233, 156, 81, 231, 154, 82, 229, 153, 83, 227, 151, 84, 224, 150, 85, 222, 148, 86, 220, 147, 87, 218, 145, 88, 216, 143, 89, 213, 142, 90, 211, 140, 91, 209, 138, 92, 207, 137, 93, 204, 135, 94, 202, 133, 95, 199, 131, 96, 197, 129, 97, 194, 127, 98, 192, 125, 99, 189, 123, 100, 186, 122",
    "templateFilename": "template-035",
    "camera2TinyGRhoOffset":36.5,
    "camera2TinyGThetaOffset":0.8,
	"isCameraAvailable":true,
	"isTinyGAvailable":true,
    "bin1location":23.65,
    "bin2location":47.65,
    "bin3location":72.09,
    "bin4location":98.03,
    "bin5location":122.82,
    "bin6location":145.32,
    "bin7location":169.50,
    "bin8location":193.15,
    "bin9location":216.45,
    "bin10location":239.92,
    "bin11location":263.92,
    "bin12location":287.39,
    "bin13location":-49.67,
    "bin14location":-26.37,
    "doorThresholdHigh":20000,
    "doorThresholdLow":8000,
    "drawerThresholdHigh":12000,
    "drawerThresholdLow":4000,
    "cupThresholdHigh":3100,
    "cupThresholdLow":3100
}
