(SuperCam Ver 2.2a SPINDLE)
G92 X0 Y0 Z0 (zero table - ash)
N1 G20	( set inches mode - ash )
N5 G40 G17
N10 T1 M06
N15 G90 G0 X0 Y0 Z0
N20 S5000 M03 
N25 G00 F8.0 (was F30.0)
N30 X0.076 Y0.341
N35 G00 Z-1.000 F90.0
N40 G01 Z-1.125 F30.0
N45 G01 F10.0 (was F60.0)
N50 X0.064 Y0.326
N55 X0.060 Y0.293
N60 X0.077 Y0.267
N65 X0.111 Y0.257
N70 X0.149 Y0.252
N75 X0.188 Y0.255
N80 X0.227 Y0.268
N85 X0.257 Y0.271
N90 X0.335 Y0.265
N95 X0.412 Y0.271
N100 X0.474 Y0.287
N105 X0.491 Y0.289
N110 X0.517 Y0.273
N115 X0.544 Y0.263
N120 X0.580 Y0.261
N125 X0.595 Y0.263
N130 X0.621 Y0.274
N135 X0.659 Y0.306
N140 X0.673 Y0.335
N145 X0.679 Y0.361
N150 X0.678 Y0.389
N155 X0.670 Y0.420
N160 X0.670 Y0.446
N165 X0.680 Y0.474
N170 X0.704 Y0.497
N175 X0.732 Y0.515
N180 X0.794 Y0.535
N185 X0.872 Y0.567
N190 X0.950 Y0.604
N195 X1.031 Y0.647
N200 X1.149 Y0.722
N205 X1.308 Y0.854
N210 X1.430 Y0.984
N215 X1.447 Y0.986
N220 X1.628 Y0.822
N225 X1.732 Y0.714
N230 X2.009 Y0.381
N235 X2.116 Y0.266
N240 X2.228 Y0.157
N245 X2.280 Y0.123
N250 X2.332 Y0.094
N255 X2.423 Y0.070
N260 X2.489 Y0.065
N265 X2.557 Y0.066
N270 X2.627 Y0.084
N275 X2.693 Y0.109
N280 X2.730 Y0.133
N285 X2.805 Y0.190
N290 X2.829 Y0.216
N295 X2.880 Y0.291
N300 X2.884 Y0.300
N305 X2.898 Y0.332
N310 X2.905 Y0.367
N315 X2.910 Y0.407
N320 X2.908 Y0.446
N325 X2.901 Y0.495
N330 X2.897 Y0.495
N335 X2.890 Y0.524
N340 X2.842 Y0.604
N345 X2.814 Y0.665
N350 X2.794 Y0.750
N355 X2.791 Y0.838
N360 X2.819 Y0.976
N365 X2.837 Y1.044
N370 X2.862 Y1.112
N375 X2.877 Y1.145
N380 X2.912 Y1.217
N385 X2.917 Y1.226
N390 X2.951 Y1.281
N395 X2.970 Y1.295
N400 X2.996 Y1.295
N405 X3.013 Y1.275
N410 X3.024 Y1.254
N415 X3.070 Y1.151
N420 X3.077 Y1.134
N425 X3.125 Y1.039
N430 X3.138 Y1.019
N435 X3.205 Y0.908
N440 X3.282 Y0.797
N445 X3.361 Y0.691
N450 X3.426 Y0.592
N455 X3.456 Y0.543
N460 X3.479 Y0.493
N465 X3.494 Y0.472
N470 X3.505 Y0.446
N475 X3.518 Y0.417
N480 X3.530 Y0.391
N485 X3.564 Y0.300
N490 X3.577 Y0.253
N495 X3.568 Y0.212
N500 X3.544 Y0.176
N505 X3.541 Y0.146
N510 X3.553 Y0.119
N515 X3.576 Y0.106
N520 X3.597 Y0.102
N525 X3.618 Y0.109
N530 X3.639 Y0.129
N535 X3.650 Y0.159
N540 X3.663 Y0.178
N545 X3.678 Y0.192
N550 X3.699 Y0.197
N555 X3.723 Y0.196
N560 X3.764 Y0.179
N565 X3.805 Y0.165
N570 X3.884 Y0.159
N575 X3.949 Y0.165
N580 X3.966 Y0.175
N585 X3.978 Y0.194
N590 X3.978 Y0.223
N595 X3.960 Y0.245
N600 X3.834 Y0.311
N605 X3.762 Y0.345
N610 X3.726 Y0.389
N615 X3.703 Y0.458
N620 X3.682 Y0.530
N625 X3.679 Y0.534
N630 X3.626 Y0.681
N635 X3.568 Y0.828
N640 X3.444 Y1.080
N645 X3.405 Y1.167
N650 X3.404 Y1.167
N655 X3.387 Y1.208
N660 X3.384 Y1.208
N665 X3.365 Y1.265
N670 X3.355 Y1.285
N675 X3.348 Y1.308
N680 X3.333 Y1.350
N685 X3.321 Y1.391
N690 X3.311 Y1.428
N695 X3.339 Y1.423
N700 X3.440 Y1.406
N705 X3.510 Y1.408
N710 X3.585 Y1.421
N715 X3.611 Y1.439
N720 X3.611 Y1.441
N725 X3.615 Y1.441
N730 X3.636 Y1.488
N735 X3.634 Y1.517
N740 X3.622 Y1.543
N745 X3.605 Y1.563
N750 X3.576 Y1.575
N755 X3.544 Y1.581
N760 X3.479 Y1.592
N765 X3.451 Y1.598
N770 X3.387 Y1.626
N775 X3.390 Y1.636
N780 X3.532 Y1.602
N785 X3.601 Y1.597
N790 X3.668 Y1.598
N795 X3.782 Y1.612
N800 X3.794 Y1.618
N805 X3.868 Y1.636
N810 X3.918 Y1.655
N815 X3.945 Y1.667
N820 X3.964 Y1.685
N825 X3.967 Y1.685
N830 X3.974 Y1.699
N835 X3.984 Y1.725
N840 X3.984 Y1.758
N845 X3.970 Y1.790
N850 X3.945 Y1.817
N855 X3.918 Y1.826
N860 X3.891 Y1.827
N865 X3.842 Y1.809
N870 X3.798 Y1.784
N875 X3.746 Y1.772
N880 X3.698 Y1.764
N885 X3.635 Y1.766
N890 X3.553 Y1.785
N895 X3.478 Y1.820
N900 X3.409 Y1.864
N905 X3.345 Y1.918
N910 X3.264 Y2.023
N915 X3.248 Y2.051
N920 X3.240 Y2.081
N925 X3.316 Y2.086
N930 X3.390 Y2.104
N935 X3.414 Y2.121
N940 X3.431 Y2.153
N945 X3.433 Y2.180
N950 X3.427 Y2.205
N955 X3.413 Y2.224
N960 X3.392 Y2.242
N965 X3.335 Y2.244
N970 X3.278 Y2.236
N975 X3.256 Y2.242
N980 X3.239 Y2.251
N985 X3.211 Y2.280
N990 X3.174 Y2.356
N995 X3.159 Y2.397
N1000 X3.150 Y2.438
N1005 X3.140 Y2.481
N1010 X3.132 Y2.510
N1015 X3.118 Y2.543
N1020 X3.099 Y2.576
N1025 X3.051 Y2.631
N1030 X3.003 Y2.666
N1035 X2.957 Y2.685
N1040 X2.907 Y2.699
N1045 X2.860 Y2.711
N1050 X2.819 Y2.727
N1055 X2.768 Y2.745
N1060 X2.716 Y2.757
N1065 X2.675 Y2.757
N1070 X2.579 Y2.731
N1075 X2.570 Y2.723
N1080 X2.559 Y2.720
N1085 X2.530 Y2.701
N1090 X2.501 Y2.693
N1095 X2.471 Y2.683
N1100 X2.443 Y2.668
N1105 X2.396 Y2.634
N1110 X2.354 Y2.591
N1115 X2.352 Y2.591
N1120 X2.325 Y2.543
N1125 X2.315 Y2.521
N1130 X2.307 Y2.498
N1135 X2.296 Y2.464
N1140 X2.293 Y2.427
N1145 X2.295 Y2.366
N1150 X2.321 Y2.303
N1155 X2.358 Y2.247
N1160 X2.419 Y2.203
N1165 X2.419 Y2.179
N1170 X2.405 Y2.158
N1175 X2.362 Y2.123
N1180 X2.354 Y2.104
N1185 X2.354 Y2.091
N1190 X2.380 Y2.065
N1195 X2.410 Y2.051
N1200 X2.410 Y2.047
N1205 X2.405 Y2.028
N1210 X2.408 Y2.010
N1215 X2.416 Y1.995
N1220 X2.433 Y1.982
N1225 X2.438 Y1.963
N1230 X2.447 Y1.948
N1235 X2.461 Y1.938
N1240 X2.480 Y1.931
N1245 X2.478 Y1.899
N1250 X2.487 Y1.875
N1255 X2.504 Y1.854
N1260 X2.527 Y1.848
N1265 X2.549 Y1.849
N1270 X2.577 Y1.861
N1275 X2.604 Y1.866
N1280 X2.631 Y1.854
N1285 X2.640 Y1.827
N1290 X2.640 Y1.792
N1295 X2.629 Y1.759
N1300 X2.612 Y1.727
N1305 X2.576 Y1.694
N1310 X2.536 Y1.662
N1315 X2.470 Y1.616
N1320 X2.345 Y1.551
N1325 X2.307 Y1.521
N1330 X2.260 Y1.482
N1335 X2.243 Y1.477
N1340 X2.228 Y1.469
N1345 X2.222 Y1.448
N1350 X2.228 Y1.425
N1355 X2.254 Y1.405
N1360 X2.268 Y1.373
N1365 X2.279 Y1.342
N1370 X2.308 Y1.287
N1375 X2.340 Y1.254
N1380 X2.407 Y1.201
N1385 X2.441 Y1.156
N1390 X2.454 Y1.131
N1395 X2.460 Y1.106
N1400 X2.464 Y1.102
N1405 X2.471 Y1.036
N1410 X2.466 Y0.971
N1415 X2.451 Y0.897
N1420 X2.415 Y0.791
N1425 X2.403 Y0.767
N1430 X2.388 Y0.765
N1435 X2.306 Y0.841
N1440 X2.222 Y0.911
N1445 X2.114 Y0.995
N1450 X2.002 Y1.076
N1455 X1.905 Y1.139
N1460 X1.754 Y1.223
N1465 X1.637 Y1.278
N1470 X1.582 Y1.301
N1475 X1.558 Y1.315
N1480 X1.460 Y1.352
N1485 X1.399 Y1.360
N1490 X1.338 Y1.354
N1495 X1.287 Y1.329
N1500 X1.248 Y1.294
N1505 X1.217 Y1.254
N1510 X1.214 Y1.252
N1515 X1.172 Y1.195
N1520 X1.128 Y1.139
N1525 X1.110 Y1.117
N1530 X0.958 Y0.941
N1535 X0.891 Y0.873
N1540 X0.825 Y0.808
N1545 X0.755 Y0.747
N1550 X0.619 Y0.633
N1555 X0.477 Y0.526
N1560 X0.477 Y0.524
N1565 X0.411 Y0.476
N1570 X0.331 Y0.454
N1575 X0.278 Y0.427
N1580 X0.231 Y0.397
N1585 X0.183 Y0.379
N1590 X0.135 Y0.365
N1595 X0.076 Y0.341
N1600 G00 Z-0.875 F90.0
N1605 G00 F30.0
N1610 M05 
N1615 G90 X0 Y0 Z0 M30
(End of CNC Program)
