{
  "project_info": {
    "project_number": "782641610757",
    "firebase_url": "https://papapill-80aa0.firebaseio.com",
    "project_id": "papapill-80aa0",
    "storage_bucket": "papapill-80aa0.appspot.com"
  },
  "client": [
    {
      "client_info": {
        "mobilesdk_app_id": "1:782641610757:android:64546903fac4c9e1",
        "android_client_info": {
          "package_name": "com.logicpd.papapill"
        }
      },
      "oauth_client": [
        {
          "client_id": "782641610757-8k9pcmnej24tm875ug66boef4uqtr3ld.apps.googleusercontent.com",
          "client_type": 3
        }
      ],
      "api_key": [
        {
          "current_key": "AIzaSyCZZKPrCby1zpZXM2CiGht4cA4uglE5AYU"
        }
      ],
      "services": {
        "analytics_service": {
          "status": 1
        },
        "appinvite_service": {
          "status": 1,
          "other_platform_oauth_client": []
        },
        "ads_service": {
          "status": 2
        }
      }
    }
  ],
  "configuration_version": "1"
}