{
    "serialNumber": "AP2",
    "iotHubDeviceEndpoint": "papapill-dev-iothub.azure-devices.net",
    "iotHubSharedAccessKey": "zlVa31xNiTJsrrJ/FKQV9FKyUVCBcJQzUTWHEYnMIg0=",
    "cameraMatrix": "722.049175907168, 0, 512, 0, 717.5981988127216, 384, 0, 0, 1",
    "distortionCoefficients": "-0.3927599527216845, 0.1269557457293954, 0, 0, 0",
    "rho0": 85.732,
    "imageWidth": 1024,
    "imageHeight": 768,
    "detectionsReturned": 3,
    "deadzoneRhoMinLimit": -24.0,
    "deadzoneRhoMaxLimit": 32.0,
    "deadzoneThetaIntercept": 3.0,
    "mmm": -0.00067568,
    "mmb": 0.154808432,
    "rotation": 0.546509946,
    "convergentTheta": 0,
    "convergentRho": 0,
    "convergentPixelX": 509,
    "convergentPixelY": 384,
    "binThetaMax": 10.50,
    "binThetaMin": -10.50,
    "binRhoMax": 32.0,
    "binDepth": 50.5,
    "templateSlope": 0.21,
    "absPositionOffset": 66.02,
	"templateUpperLeftXY": "0, 317, 244, 1, 316, 244, 2, 315, 243, 3, 314, 242, 4, 313, 242, 5, 312, 241, 6, 312, 240, 7, 311, 240, 8, 310, 239, 9, 309, 238, 10, 308, 238, 11, 307, 237, 12, 306, 236, 13, 305, 236, 14, 304, 235, 15, 303, 234, 16, 302, 234, 17, 301, 233, 18, 300, 232, 19, 299, 231, 20, 298, 231, 21, 297, 230, 22, 296, 229, 23, 295, 228, 24, 294, 228, 25, 293, 227, 26, 292, 226, 27, 291, 225, 28, 290, 225, 29, 289, 224, 30, 288, 223, 31, 287, 222, 32, 286, 221, 33, 284, 220, 34, 283, 220, 35, 282, 219, 36, 281, 218, 37, 280, 217, 38, 278, 216, 39, 277, 215, 40, 276, 214, 41, 275, 214, 42, 273, 213, 43, 272, 212, 44, 271, 211, 45, 270, 210, 46, 268, 209, 47, 267, 208, 48, 266, 207, 49, 264, 206, 50, 263, 205, 51, 262, 204, 52, 260, 203, 53, 259, 202, 54, 257, 201, 55, 256, 200, 56, 254, 199, 57, 253, 198, 58, 251, 197, 59, 250, 195, 60, 248, 194, 61, 247, 193, 62, 245, 192, 63, 244, 191, 64, 242, 190, 65, 240, 189, 66, 239, 187, 67, 237, 186, 68, 235, 185, 69, 234, 184, 70, 232, 182, 71, 230, 181, 72, 228, 180, 73, 227, 179, 74, 225, 177, 75, 223, 176, 76, 221, 174, 77, 219, 173, 78, 217, 172, 79, 215, 170, 80, 213, 169, 81, 211, 167, 82, 209, 166, 83, 207, 164, 84, 205, 163, 85, 203, 161, 86, 201, 160, 87, 199, 158, 88, 197, 157, 89, 194, 155, 90, 192, 153, 91, 190, 152, 92, 187, 150, 93, 185, 148, 94, 183, 146, 95, 180, 145, 96, 178, 143, 97, 175, 141, 98, 173, 139, 99, 170, 137, 100, 168, 135",
    "templateFilename": "template-050",
    "camera2TinyGRhoOffset":39.0,
    "camera2TinyGThetaOffset":0,
	"isCameraAvailable":true,
	"isTinyGAvailable":true,
    "bin1location":24.35,
    "bin2location":48.83,
    "bin3location":71.65,
    "bin4location":97.06,
    "bin5location":120.97,
    "bin6location":143.03,
    "bin7location":166.42,
    "bin8location":191.03,
    "bin9location":214.42,
    "bin10location":237.54,
    "bin11location":262.42,
    "bin12location":287.12,
    "bin13location":-49.22,
    "bin14location":-25.76,
    "doorThresholdHigh":20000,
    "doorThresholdLow":17000,
    "drawerThresholdHigh":3818,
    "drawerThresholdLow":3152,
    "cupThresholdHigh":3450,
    "cupThresholdLow":3450
}
