
(MSG**** Test 2000: Mcodes ****)
n2000 m3
n2001 g4p1
n2002 m5
n2003 g4p1
n2004 m4
n2005 g4p1
n2006 m5
n2007 g4p1
n2008 m7
n2009 g4p1
n2010 m9
n2011 g4p1
n2012 m8
n2013 g4p1
n2014 m9
n2015 f500
n2016 g1x20
n2017 m8
n2018 y20
n2019 m3
n2020 x0
n2021 m4
n2022 y0
n2023 m5
n2024 g1x10
n2025 m7
n2026 y10
n2027 m8
n2028 x0
n2029 m9
n2030 y0
n3031 m8
n2032 g2x10y-10i10
n2033 m3
n2034 g0x0y0
n2035 m4
n2036 g3x10y-10i10
n2037 m5
n2038 g0x0y0
n2039 m7
n2040 g2x20y0i10
n2041 m8
n2042 g0x0y0
n2043 m9
n2044 g3x20y0i10
n2045 m3
n2046 g0x0y0
n2047 m4
n2048 g2x0y0i10
n2049 m5
n2050 g3x0y0i10
n2051 m8
n2052 g0x0y0
