G90F240.0
G0 X12.39 Y2.87 Z0.00
G1 X12.39 Y2.87 Z0.00
G1 X12.58 Y2.86 Z0.00
G1 X12.78 Y2.85 Z0.00
G1 X12.99 Y2.84 Z0.00
G1 X13.21 Y2.84 Z0.00
G1 X13.45 Y2.84 Z0.00
G1 X13.70 Y2.84 Z0.00
G1 X13.97 Y2.85 Z0.00
G1 X14.24 Y2.86 Z0.00
G1 X14.53 Y2.88 Z0.00
G1 X14.82 Y2.90 Z0.00
G1 X15.13 Y2.92 Z0.00
G1 X15.42 Y2.95 Z0.00
G1 X15.73 Y2.97 Z0.00
G1 X16.04 Y3.01 Z0.00
G1 X16.35 Y3.04 Z0.00
G1 X16.68 Y3.08 Z0.00
G1 X17.00 Y3.12 Z0.00
G1 X17.68 Y3.22 Z0.00
G1 X18.02 Y3.27 Z0.00
G1 X18.37 Y3.33 Z0.00
G1 X19.07 Y3.45 Z0.00
G1 X19.43 Y3.52 Z0.00
G1 X19.78 Y3.59 Z0.00
G1 X20.50 Y3.74 Z0.00
G1 X20.86 Y3.82 Z0.00
G1 X21.21 Y3.91 Z0.00
G1 X21.93 Y4.09 Z0.00
G1 X22.28 Y4.18 Z0.00
G1 X22.63 Y4.28 Z0.00
G1 X23.31 Y4.49 Z0.00
G1 X23.65 Y4.60 Z0.00
G1 X23.98 Y4.71 Z0.00
G1 X24.63 Y4.95 Z0.00
G1 X24.95 Y5.07 Z0.00
G1 X25.25 Y5.20 Z0.00
G1 X25.85 Y5.46 Z0.00
G1 X26.13 Y5.60 Z0.00
G1 X26.40 Y5.74 Z0.00
G1 X26.67 Y5.88 Z0.00
G1 X26.92 Y6.03 Z0.00
G1 X27.17 Y6.18 Z0.00
G1 X27.40 Y6.33 Z0.00
G1 X27.84 Y6.65 Z0.00
G1 X28.04 Y6.81 Z0.00
G1 X28.23 Y6.98 Z0.00
G1 X28.41 Y7.15 Z0.00
G1 X28.57 Y7.32 Z0.00
G1 X28.72 Y7.50 Z0.00
G1 X28.86 Y7.67 Z0.00
G1 X28.99 Y7.86 Z0.00
G1 X29.10 Y8.04 Z0.00
G1 X29.20 Y8.23 Z0.00
G1 X29.28 Y8.42 Z0.00
G1 X29.35 Y8.61 Z0.00
G1 X29.41 Y8.80 Z0.00
G1 X29.45 Y9.00 Z0.00
G1 X29.48 Y9.20 Z0.00
G1 X29.49 Y9.41 Z0.00
G1 X29.49 Y9.61 Z0.00
G1 X29.48 Y9.82 Z0.00
G1 X29.45 Y10.03 Z0.00
G1 X29.40 Y10.24 Z0.00
G1 X29.34 Y10.46 Z0.00
G1 X29.27 Y10.68 Z0.00
G1 X29.18 Y10.90 Z0.00
G1 X29.08 Y11.12 Z0.00
G1 X28.96 Y11.34 Z0.00
G1 X28.82 Y11.59 Z0.00
G1 X28.67 Y11.84 Z0.00
G1 X28.49 Y12.09 Z0.00
G1 X28.31 Y12.34 Z0.00
G1 X28.10 Y12.59 Z0.00
G1 X27.88 Y12.85 Z0.00
G1 X27.40 Y13.37 Z0.00
G1 X27.14 Y13.63 Z0.00
G1 X26.87 Y13.90 Z0.00
G1 X26.28 Y14.43 Z0.00
G1 X24.97 Y15.51 Z0.00
G1 X24.62 Y15.79 Z0.00
G1 X24.25 Y16.06 Z0.00
G1 X23.50 Y16.62 Z0.00
G1 X21.92 Y17.73 Z0.00
G1 X18.57 Y19.98 Z0.00
G1 X18.15 Y20.27 Z0.00
G1 X17.73 Y20.55 Z0.00
G1 X16.90 Y21.11 Z0.00
G1 X15.28 Y22.22 Z0.00
G1 X14.90 Y22.50 Z0.00
G1 X14.51 Y22.77 Z0.00
G1 X13.78 Y23.32 Z0.00
G1 X12.41 Y24.40 Z0.00
G1 X12.09 Y24.67 Z0.00
G1 X11.79 Y24.93 Z0.00
G1 X11.22 Y25.45 Z0.00
G1 X10.96 Y25.71 Z0.00
G1 X10.71 Y25.97 Z0.00
G1 X10.25 Y26.48 Z0.00
G1 X10.04 Y26.73 Z0.00
G1 X9.84 Y26.97 Z0.00
G1 X9.67 Y27.22 Z0.00
G1 X9.51 Y27.46 Z0.00
G1 X9.36 Y27.70 Z0.00
G1 X9.23 Y27.94 Z0.00
G1 X9.11 Y28.17 Z0.00
G1 X9.02 Y28.41 Z0.00
G1 X8.94 Y28.63 Z0.00
G1 X8.87 Y28.85 Z0.00
G1 X8.83 Y29.07 Z0.00
G1 X8.80 Y29.29 Z0.00
G1 X8.78 Y29.51 Z0.00
G1 X8.78 Y29.72 Z0.00
G1 X8.80 Y29.92 Z0.00
G1 X8.83 Y30.13 Z0.00
G1 X8.88 Y30.33 Z0.00
G1 X8.95 Y30.53 Z0.00
G1 X9.03 Y30.72 Z0.00
G1 X9.12 Y30.91 Z0.00
G1 X9.24 Y31.10 Z0.00
G1 X9.36 Y31.29 Z0.00
G1 X9.50 Y31.47 Z0.00
G1 X9.66 Y31.64 Z0.00
G1 X9.83 Y31.82 Z0.00
G1 X10.02 Y31.99 Z0.00
G1 X10.21 Y32.16 Z0.00
G1 X10.43 Y32.32 Z0.00
G1 X10.65 Y32.48 Z0.00
G1 X10.89 Y32.63 Z0.00
G1 X11.39 Y32.93 Z0.00
G1 X11.66 Y33.08 Z0.00
G1 X11.94 Y33.22 Z0.00
G1 X12.54 Y33.48 Z0.00
G1 X12.85 Y33.61 Z0.00
G1 X13.16 Y33.73 Z0.00
G1 X13.82 Y33.97 Z0.00
G1 X14.16 Y34.08 Z0.00
G1 X14.50 Y34.19 Z0.00
G1 X15.21 Y34.39 Z0.00
G1 X15.57 Y34.49 Z0.00
G1 X15.93 Y34.58 Z0.00
G1 X16.66 Y34.75 Z0.00
G1 X17.03 Y34.83 Z0.00
G1 X17.40 Y34.90 Z0.00
G1 X17.77 Y34.97 Z0.00
G1 X18.13 Y35.04 Z0.00
G1 X18.50 Y35.10 Z0.00
G1 X18.87 Y35.16 Z0.00
G1 X19.59 Y35.26 Z0.00
G1 X19.94 Y35.30 Z0.00
G1 X20.29 Y35.35 Z0.00
G1 X20.63 Y35.38 Z0.00
G1 X20.97 Y35.42 Z0.00
G1 X21.31 Y35.44 Z0.00
G1 X21.63 Y35.47 Z0.00
G1 X21.95 Y35.49 Z0.00
G1 X22.26 Y35.51 Z0.00
G1 X22.56 Y35.52 Z0.00
G1 X22.85 Y35.53 Z0.00
G1 X23.13 Y35.53 Z0.00
G1 X23.40 Y35.53 Z0.00
G1 X23.66 Y35.53 Z0.00
G1 X23.90 Y35.52 Z0.00
G1 X24.14 Y35.51 Z0.00
G1 X24.36 Y35.50 Z0.00
G1 X24.56 Y35.48 Z0.00
G1 X24.74 Y35.46 Z0.00
G1 X24.92 Y35.43 Z0.00
G1 X25.08 Y35.41 Z0.00
G1 X25.23 Y35.38 Z0.00
G1 X25.36 Y35.34 Z0.00
G1 X25.49 Y35.31 Z0.00
G1 X25.60 Y35.27 Z0.00
G1 X25.69 Y35.23 Z0.00
G1 X25.78 Y35.18 Z0.00
G1 X25.85 Y35.13 Z0.00
G1 X25.90 Y35.08 Z0.00
G1 X25.94 Y35.03 Z0.00
G1 X25.97 Y34.97 Z0.00
G1 X25.99 Y34.91 Z0.00
G1 X25.99 Y34.85 Z0.00
G1 X25.97 Y34.78 Z0.00
G1 X25.94 Y34.72 Z0.00
G1 X25.90 Y34.65 Z0.00
G1 X25.84 Y34.57 Z0.00
G1 X25.77 Y34.50 Z0.00
G1 X25.69 Y34.42 Z0.00
G1 X25.59 Y34.34 Z0.00
G1 X25.47 Y34.26 Z0.00
G1 X25.35 Y34.18 Z0.00
G1 X25.20 Y34.09 Z0.00
G1 X24.88 Y33.91 Z0.00
G1 X24.70 Y33.82 Z0.00
G1 X24.51 Y33.72 Z0.00
G1 X24.08 Y33.52 Z0.00
G1 X23.85 Y33.42 Z0.00
G1 X23.61 Y33.32 Z0.00
G1 X23.09 Y33.11 Z0.00
G1 X21.93 Y32.67 Z0.00
G1 X19.20 Y31.74 Z0.00
G1 X12.95 Y29.75 Z0.00
G1 X12.53 Y29.61 Z0.00
G1 X12.12 Y29.48 Z0.00
G1 X11.30 Y29.21 Z0.00
G1 X9.75 Y28.68 Z0.00
G1 X9.38 Y28.55 Z0.00
G1 X9.03 Y28.42 Z0.00
G1 X8.34 Y28.17 Z0.00
G1 X7.10 Y27.68 Z0.00
G1 X6.83 Y27.56 Z0.00
G1 X6.56 Y27.44 Z0.00
G1 X6.07 Y27.21 Z0.00
G1 X5.85 Y27.10 Z0.00
G1 X5.64 Y26.99 Z0.00
G1 X5.27 Y26.78 Z0.00
G1 X5.11 Y26.68 Z0.00
G1 X4.96 Y26.58 Z0.00
G1 X4.83 Y26.48 Z0.00
G1 X4.72 Y26.38 Z0.00
G1 X4.62 Y26.29 Z0.00
G1 X4.54 Y26.20 Z0.00
G1 X4.48 Y26.11 Z0.00
G1 X4.43 Y26.03 Z0.00
G1 X4.40 Y25.94 Z0.00
G1 X4.38 Y25.86 Z0.00
G1 X4.39 Y25.79 Z0.00
G1 X4.40 Y25.71 Z0.00
G1 X4.44 Y25.64 Z0.00
G1 X4.49 Y25.58 Z0.00
G1 X4.56 Y25.51 Z0.00
G1 X4.64 Y25.45 Z0.00
G1 X4.74 Y25.39 Z0.00
G1 X4.85 Y25.34 Z0.00
G1 X4.98 Y25.29 Z0.00
G1 X5.13 Y25.24 Z0.00
G1 X5.28 Y25.19 Z0.00
G1 X5.46 Y25.15 Z0.00
G1 X5.65 Y25.11 Z0.00
G1 X5.85 Y25.08 Z0.00
G1 X6.06 Y25.05 Z0.00
G1 X6.29 Y25.02 Z0.00
G1 X6.53 Y25.00 Z0.00
G1 X6.78 Y24.98 Z0.00
G1 X7.04 Y24.96 Z0.00
G1 X7.31 Y24.95 Z0.00
G1 X7.60 Y24.94 Z0.00
G1 X7.89 Y24.94 Z0.00
G1 X8.19 Y24.94 Z0.00
G1 X8.50 Y24.94 Z0.00
G1 X8.82 Y24.95 Z0.00
G1 X9.15 Y24.96 Z0.00
G1 X9.48 Y24.98 Z0.00
G1 X9.82 Y24.99 Z0.00
G1 X10.16 Y25.02 Z0.00
G1 X10.51 Y25.04 Z0.00
G1 X10.84 Y25.07 Z0.00
G1 X11.17 Y25.10 Z0.00
G1 X11.51 Y25.14 Z0.00
G1 X11.84 Y25.18 Z0.00
G1 X12.18 Y25.22 Z0.00
G1 X12.52 Y25.27 Z0.00
G1 X13.20 Y25.37 Z0.00
G1 X13.53 Y25.43 Z0.00
G1 X13.87 Y25.49 Z0.00
G1 X14.20 Y25.55 Z0.00
G1 X14.54 Y25.62 Z0.00
G1 X14.86 Y25.69 Z0.00
G1 X15.19 Y25.76 Z0.00
G1 X15.82 Y25.92 Z0.00
G1 X16.13 Y26.00 Z0.00
G1 X16.44 Y26.09 Z0.00
G1 X16.74 Y26.18 Z0.00
G1 X17.03 Y26.28 Z0.00
G1 X17.31 Y26.38 Z0.00
G1 X17.59 Y26.48 Z0.00
G1 X18.11 Y26.69 Z0.00
G1 X18.36 Y26.80 Z0.00
G1 X18.60 Y26.91 Z0.00
G1 X18.83 Y27.03 Z0.00
G1 X19.05 Y27.15 Z0.00
G1 X19.26 Y27.28 Z0.00
G1 X19.46 Y27.40 Z0.00
G1 X19.64 Y27.53 Z0.00
G1 X19.82 Y27.67 Z0.00
G1 X19.98 Y27.80 Z0.00
G1 X20.13 Y27.94 Z0.00
G1 X20.26 Y28.09 Z0.00
G1 X20.39 Y28.23 Z0.00
G1 X20.50 Y28.38 Z0.00
G1 X20.59 Y28.53 Z0.00
G1 X20.68 Y28.68 Z0.00
G1 X20.75 Y28.84 Z0.00
G1 X20.80 Y29.00 Z0.00
G1 X20.84 Y29.16 Z0.00
G1 X20.87 Y29.33 Z0.00
G1 X20.88 Y29.49 Z0.00
G1 X20.88 Y29.66 Z0.00
G1 X20.86 Y29.84 Z0.00
G1 X20.83 Y30.01 Z0.00
G1 X20.78 Y30.19 Z0.00
G1 X20.72 Y30.37 Z0.00
G1 X20.65 Y30.55 Z0.00
G1 X20.56 Y30.73 Z0.00
G1 X20.45 Y30.92 Z0.00
G1 X20.33 Y31.11 Z0.00
G1 X20.20 Y31.30 Z0.00
G1 X20.05 Y31.49 Z0.00
G1 X19.89 Y31.69 Z0.00
G1 X19.72 Y31.89 Z0.00
G1 X19.53 Y32.08 Z0.00
G1 X19.12 Y32.49 Z0.00
G1 X18.89 Y32.69 Z0.00
G1 X18.66 Y32.90 Z0.00
G1 X18.14 Y33.31 Z0.00
G1 X17.87 Y33.52 Z0.00
G1 X17.60 Y33.72 Z0.00
G1 X17.01 Y34.14 Z0.00
G1 X15.72 Y34.99 Z0.00
G1 X12.80 Y36.73 Z0.00
G1 X12.41 Y36.95 Z0.00
G1 X12.02 Y37.17 Z0.00
G1 X11.23 Y37.61 Z0.00
G1 X9.62 Y38.49 Z0.00
G1 X6.46 Y40.24 Z0.00
G1 X6.07 Y40.45 Z0.00
G1 X5.70 Y40.67 Z0.00
G1 X4.96 Y41.10 Z0.00
G1 X3.57 Y41.94 Z0.00
G1 X3.24 Y42.15 Z0.00
G1 X2.92 Y42.36 Z0.00
G1 X2.30 Y42.77 Z0.00
G1 X1.19 Y43.57 Z0.00
G1 X0.94 Y43.76 Z0.00
G1 X0.71 Y43.96 Z0.00
G1 X0.26 Y44.34 Z0.00
G1 X0.06 Y44.53 Z0.00
G1 X-0.13 Y44.72 Z0.00
G1 X-0.47 Y45.09 Z0.00
G1 X-0.62 Y45.27 Z0.00
G1 X-0.76 Y45.44 Z0.00
G1 X-0.88 Y45.62 Z0.00
G1 X-0.99 Y45.79 Z0.00
G1 X-1.09 Y45.97 Z0.00
G1 X-1.17 Y46.13 Z0.00
G1 X-1.24 Y46.30 Z0.00
G1 X-1.30 Y46.46 Z0.00
G1 X-1.34 Y46.64 Z0.00
G1 X-1.37 Y46.81 Z0.00
G1 X-1.38 Y46.98 Z0.00
G1 X-1.38 Y47.15 Z0.00
G1 X-1.36 Y47.31 Z0.00
G1 X-1.32 Y47.47 Z0.00
G1 X-1.27 Y47.62 Z0.00
G1 X-1.20 Y47.77 Z0.00
G1 X-1.11 Y47.92 Z0.00
G1 X-1.01 Y48.07 Z0.00
G1 X-0.90 Y48.21 Z0.00
G1 X-0.77 Y48.35 Z0.00
G1 X-0.62 Y48.48 Z0.00
G1 X-0.47 Y48.61 Z0.00
G1 X-0.29 Y48.74 Z0.00
G1 X-0.11 Y48.86 Z0.00
G1 X0.09 Y48.98 Z0.00
G1 X0.30 Y49.10 Z0.00
G1 X0.53 Y49.21 Z0.00
G1 X0.77 Y49.32 Z0.00
G1 X1.01 Y49.42 Z0.00
G1 X1.27 Y49.52 Z0.00
G1 X1.82 Y49.71 Z0.00
G1 X2.11 Y49.79 Z0.00
G1 X2.41 Y49.88 Z0.00
G1 X2.71 Y49.95 Z0.00
G1 X3.03 Y50.03 Z0.00
G1 X3.35 Y50.10 Z0.00
G1 X3.67 Y50.17 Z0.00
G1 X4.00 Y50.23 Z0.00
G1 X4.34 Y50.29 Z0.00
G1 X4.68 Y50.34 Z0.00
G1 X5.03 Y50.39 Z0.00
G1 X5.38 Y50.44 Z0.00
G1 X5.73 Y50.48 Z0.00
G1 X6.08 Y50.51 Z0.00
G1 X6.43 Y50.55 Z0.00
G1 X6.79 Y50.57 Z0.00
G1 X7.14 Y50.60 Z0.00
G1 X7.49 Y50.62 Z0.00
G1 X7.85 Y50.63 Z0.00
G1 X8.19 Y50.64 Z0.00
G1 X8.54 Y50.65 Z0.00
G1 X8.88 Y50.65 Z0.00
G1 X9.22 Y50.65 Z0.00
G1 X9.55 Y50.64 Z0.00
G1 X9.88 Y50.63 Z0.00
G1 X10.20 Y50.62 Z0.00
G1 X10.52 Y50.60 Z0.00
G1 X10.82 Y50.58 Z0.00
G1 X11.12 Y50.55 Z0.00
G1 X11.41 Y50.52 Z0.00
G1 X11.69 Y50.49 Z0.00
G1 X11.96 Y50.45 Z0.00
G1 X12.23 Y50.40 Z0.00
G1 X12.48 Y50.36 Z0.00
G1 X12.71 Y50.31 Z0.00
G1 X12.94 Y50.25 Z0.00
G1 X13.16 Y50.19 Z0.00
G1 X13.36 Y50.13 Z0.00
G1 X13.55 Y50.06 Z0.00
G1 X13.72 Y49.99 Z0.00
G1 X13.88 Y49.92 Z0.00
G1 X14.02 Y49.84 Z0.00
G1 X14.14 Y49.77 Z0.00
G1 X14.26 Y49.69 Z0.00
G1 X14.36 Y49.61 Z0.00
G1 X14.44 Y49.52 Z0.00
G1 X14.51 Y49.43 Z0.00
G1 X14.57 Y49.34 Z0.00
G1 X14.62 Y49.25 Z0.00
G1 X14.65 Y49.15 Z0.00
G1 X14.66 Y49.05 Z0.00
G1 X14.66 Y48.94 Z0.00
G1 X14.65 Y48.84 Z0.00
G1 X14.62 Y48.73 Z0.00
G1 X14.58 Y48.62 Z0.00
G1 X14.53 Y48.50 Z0.00
G1 X14.46 Y48.39 Z0.00
G1 X14.38 Y48.27 Z0.00
G1 X14.28 Y48.15 Z0.00
G1 X14.17 Y48.02 Z0.00
G1 X14.04 Y47.90 Z0.00
G1 X13.90 Y47.77 Z0.00
G1 X13.75 Y47.64 Z0.00
G1 X13.40 Y47.37 Z0.00
G1 X13.21 Y47.23 Z0.00
G1 X13.00 Y47.09 Z0.00
G1 X12.55 Y46.80 Z0.00
G1 X11.50 Y46.21 Z0.00
G1 X11.22 Y46.06 Z0.00
G1 X10.92 Y45.90 Z0.00
G1 X10.29 Y45.59 Z0.00
G1 X8.92 Y44.95 Z0.00
G1 X5.87 Y43.61 Z0.00
G1 X5.47 Y43.44 Z0.00
G1 X5.06 Y43.27 Z0.00
G1 X4.25 Y42.93 Z0.00
G1 X2.60 Y42.24 Z0.00
G1 X-0.60 Y40.87 Z0.00
G1 X-1.03 Y40.68 Z0.00
G1 X-1.44 Y40.49 Z0.00
G1 X-2.26 Y40.12 Z0.00
G1 X-3.76 Y39.38 Z0.00
G1 X-4.11 Y39.20 Z0.00
G1 X-4.45 Y39.02 Z0.00
G1 X-5.08 Y38.66 Z0.00
G1 X-5.38 Y38.49 Z0.00
G1 X-5.66 Y38.32 Z0.00
G1 X-6.18 Y37.98 Z0.00
G1 X-6.42 Y37.81 Z0.00
G1 X-6.64 Y37.65 Z0.00
G1 X-6.84 Y37.48 Z0.00
G1 X-7.03 Y37.32 Z0.00
G1 X-7.20 Y37.16 Z0.00
G1 X-7.35 Y37.01 Z0.00
G1 X-7.49 Y36.86 Z0.00
G1 X-7.61 Y36.71 Z0.00
G1 X-7.71 Y36.56 Z0.00
G1 X-7.79 Y36.41 Z0.00
G1 X-7.86 Y36.27 Z0.00
G1 X-7.90 Y36.13 Z0.00
G1 X-7.93 Y36.00 Z0.00
G1 X-7.95 Y35.86 Z0.00
G1 X-7.94 Y35.73 Z0.00
G1 X-7.92 Y35.61 Z0.00
G1 X-7.88 Y35.48 Z0.00
G1 X-7.82 Y35.36 Z0.00
G1 X-7.74 Y35.25 Z0.00
G1 X-7.65 Y35.13 Z0.00
G1 X-7.54 Y35.02 Z0.00
G1 X-7.42 Y34.92 Z0.00
G1 X-7.28 Y34.81 Z0.00
G1 X-7.12 Y34.72 Z0.00
G1 X-6.95 Y34.62 Z0.00
G1 X-6.76 Y34.53 Z0.00
G1 X-6.56 Y34.44 Z0.00
G1 X-6.34 Y34.36 Z0.00
G1 X-6.12 Y34.28 Z0.00
G1 X-5.87 Y34.20 Z0.00
G1 X-5.62 Y34.13 Z0.00
G1 X-5.35 Y34.06 Z0.00
G1 X-5.08 Y33.99 Z0.00
G1 X-4.79 Y33.93 Z0.00
G1 X-4.49 Y33.88 Z0.00
G1 X-4.18 Y33.82 Z0.00
G1 X-3.86 Y33.78 Z0.00
G1 X-3.54 Y33.73 Z0.00
G1 X-3.21 Y33.69 Z0.00
G1 X-2.87 Y33.65 Z0.00
G1 X-2.52 Y33.62 Z0.00
G1 X-2.17 Y33.60 Z0.00
G1 X-1.82 Y33.57 Z0.00
G1 X-1.46 Y33.55 Z0.00
G1 X-1.10 Y33.54 Z0.00
G1 X-0.73 Y33.53 Z0.00
G1 X-0.37 Y33.52 Z0.00
G1 X0.00 Y33.52 Z0.00
G1 X0.00 Y33.52 Z0.00
G1 X0.33 Y33.52 Z0.00
G1 X0.65 Y33.53 Z0.00
G1 X0.98 Y33.53 Z0.00
G1 X1.30 Y33.55 Z0.00
G1 X1.63 Y33.56 Z0.00
G1 X1.95 Y33.58 Z0.00
G1 X2.26 Y33.60 Z0.00
G1 X2.57 Y33.63 Z0.00
G1 X2.88 Y33.66 Z0.00
G1 X3.19 Y33.69 Z0.00
G1 X3.48 Y33.72 Z0.00
G1 X3.77 Y33.76 Z0.00
G1 X4.06 Y33.80 Z0.00
G1 X4.34 Y33.85 Z0.00
G1 X4.61 Y33.90 Z0.00
G1 X4.87 Y33.95 Z0.00
G1 X5.13 Y34.01 Z0.00
G1 X5.38 Y34.06 Z0.00
G1 X5.61 Y34.12 Z0.00
G1 X5.84 Y34.19 Z0.00
G1 X6.06 Y34.26 Z0.00
G1 X6.27 Y34.33 Z0.00
G1 X6.47 Y34.40 Z0.00
G1 X6.65 Y34.48 Z0.00
G1 X6.83 Y34.56 Z0.00
G1 X6.99 Y34.64 Z0.00
G1 X7.14 Y34.73 Z0.00
G1 X7.28 Y34.82 Z0.00
G1 X7.41 Y34.91 Z0.00
G1 X7.52 Y35.00 Z0.00
G1 X7.62 Y35.10 Z0.00
G1 X7.71 Y35.20 Z0.00
G1 X7.78 Y35.30 Z0.00
G1 X7.84 Y35.41 Z0.00
G1 X7.89 Y35.52 Z0.00
G1 X7.92 Y35.63 Z0.00
G1 X7.94 Y35.74 Z0.00
G1 X7.95 Y35.86 Z0.00
G1 X7.94 Y35.98 Z0.00
G1 X7.91 Y36.10 Z0.00
G1 X7.88 Y36.22 Z0.00
G1 X7.82 Y36.35 Z0.00
G1 X7.76 Y36.48 Z0.00
G1 X7.68 Y36.61 Z0.00
G1 X7.58 Y36.74 Z0.00
G1 X7.47 Y36.87 Z0.00
G1 X7.35 Y37.01 Z0.00
G1 X7.22 Y37.15 Z0.00
G1 X7.07 Y37.29 Z0.00
G1 X6.90 Y37.43 Z0.00
G1 X6.54 Y37.72 Z0.00
G1 X6.33 Y37.87 Z0.00
G1 X6.12 Y38.02 Z0.00
G1 X5.65 Y38.32 Z0.00
G1 X5.40 Y38.48 Z0.00
G1 X5.14 Y38.63 Z0.00
G1 X4.58 Y38.95 Z0.00
G1 X3.33 Y39.60 Z0.00
G1 X2.97 Y39.78 Z0.00
G1 X2.60 Y39.96 Z0.00
G1 X1.83 Y40.32 Z0.00
G1 X0.19 Y41.05 Z0.00
G1 X-3.30 Y42.54 Z0.00
G1 X-3.75 Y42.72 Z0.00
G1 X-4.19 Y42.91 Z0.00
G1 X-5.07 Y43.28 Z0.00
G1 X-6.80 Y44.01 Z0.00
G1 X-9.96 Y45.43 Z0.00
G1 X-10.32 Y45.60 Z0.00
G1 X-10.66 Y45.77 Z0.00
G1 X-11.31 Y46.11 Z0.00
G1 X-11.62 Y46.27 Z0.00
G1 X-11.92 Y46.43 Z0.00
G1 X-12.47 Y46.75 Z0.00
G1 X-12.72 Y46.91 Z0.00
G1 X-12.96 Y47.06 Z0.00
G1 X-13.19 Y47.21 Z0.00
G1 X-13.40 Y47.36 Z0.00
G1 X-13.59 Y47.51 Z0.00
G1 X-13.77 Y47.65 Z0.00
G1 X-13.93 Y47.80 Z0.00
G1 X-14.08 Y47.93 Z0.00
G1 X-14.21 Y48.07 Z0.00
G1 X-14.33 Y48.20 Z0.00
G1 X-14.42 Y48.33 Z0.00
G1 X-14.50 Y48.46 Z0.00
G1 X-14.57 Y48.59 Z0.00
G1 X-14.62 Y48.71 Z0.00
G1 X-14.65 Y48.83 Z0.00
G1 X-14.66 Y48.94 Z0.00
G1 X-14.66 Y49.05 Z0.00
G1 X-14.64 Y49.16 Z0.00
G1 X-14.61 Y49.26 Z0.00
G1 X-14.56 Y49.37 Z0.00
G1 X-14.49 Y49.46 Z0.00
G1 X-14.40 Y49.56 Z0.00
G1 X-14.30 Y49.65 Z0.00
G1 X-14.19 Y49.74 Z0.00
G1 X-14.07 Y49.81 Z0.00
G1 X-13.93 Y49.89 Z0.00
G1 X-13.79 Y49.96 Z0.00
G1 X-13.63 Y50.03 Z0.00
G1 X-13.46 Y50.09 Z0.00
G1 X-13.27 Y50.16 Z0.00
G1 X-13.08 Y50.21 Z0.00
G1 X-12.87 Y50.27 Z0.00
G1 X-12.65 Y50.32 Z0.00
G1 X-12.43 Y50.37 Z0.00
G1 X-12.19 Y50.41 Z0.00
G1 X-11.94 Y50.45 Z0.00
G1 X-11.69 Y50.49 Z0.00
G1 X-11.42 Y50.52 Z0.00
G1 X-11.15 Y50.55 Z0.00
G1 X-10.87 Y50.58 Z0.00
G1 X-10.58 Y50.60 Z0.00
G1 X-10.29 Y50.62 Z0.00
G1 X-9.99 Y50.63 Z0.00
G1 X-9.68 Y50.64 Z0.00
G1 X-9.37 Y50.65 Z0.00
G1 X-9.05 Y50.65 Z0.00
G1 X-8.73 Y50.65 Z0.00
G1 X-8.41 Y50.65 Z0.00
G1 X-8.08 Y50.64 Z0.00
G1 X-7.75 Y50.63 Z0.00
G1 X-7.42 Y50.61 Z0.00
G1 X-7.09 Y50.59 Z0.00
G1 X-6.75 Y50.57 Z0.00
G1 X-6.42 Y50.54 Z0.00
G1 X-6.09 Y50.51 Z0.00
G1 X-5.75 Y50.48 Z0.00
G1 X-5.42 Y50.44 Z0.00
G1 X-5.09 Y50.40 Z0.00
G1 X-4.77 Y50.35 Z0.00
G1 X-4.45 Y50.30 Z0.00
G1 X-4.13 Y50.25 Z0.00
G1 X-3.81 Y50.19 Z0.00
G1 X-3.20 Y50.07 Z0.00
G1 X-2.90 Y50.00 Z0.00
G1 X-2.61 Y49.93 Z0.00
G1 X-2.32 Y49.85 Z0.00
G1 X-2.04 Y49.77 Z0.00
G1 X-1.77 Y49.69 Z0.00
G1 X-1.51 Y49.60 Z0.00
G1 X-1.01 Y49.42 Z0.00
G1 X-0.78 Y49.32 Z0.00
G1 X-0.56 Y49.22 Z0.00
G1 X-0.34 Y49.12 Z0.00
G1 X-0.14 Y49.01 Z0.00
G1 X0.05 Y48.90 Z0.00
G1 X0.23 Y48.78 Z0.00
G1 X0.40 Y48.66 Z0.00
G1 X0.55 Y48.54 Z0.00
G1 X0.70 Y48.42 Z0.00
G1 X0.83 Y48.29 Z0.00
G1 X0.94 Y48.16 Z0.00
G1 X1.05 Y48.02 Z0.00
G1 X1.14 Y47.89 Z0.00
G1 X1.21 Y47.75 Z0.00
G1 X1.28 Y47.60 Z0.00
G1 X1.32 Y47.46 Z0.00
G1 X1.36 Y47.31 Z0.00
G1 X1.38 Y47.16 Z0.00
G1 X1.38 Y47.01 Z0.00
G1 X1.37 Y46.85 Z0.00
G1 X1.35 Y46.69 Z0.00
G1 X1.32 Y46.53 Z0.00
G1 X1.27 Y46.37 Z0.00
G1 X1.20 Y46.20 Z0.00
G1 X1.13 Y46.03 Z0.00
G1 X1.03 Y45.86 Z0.00
G1 X0.93 Y45.69 Z0.00
G1 X0.81 Y45.52 Z0.00
G1 X0.68 Y45.34 Z0.00
G1 X0.53 Y45.16 Z0.00
G1 X0.20 Y44.79 Z0.00
G1 X0.01 Y44.60 Z0.00
G1 X-0.18 Y44.42 Z0.00
G1 X-0.62 Y44.03 Z0.00
G1 X-1.62 Y43.25 Z0.00
G1 X-1.90 Y43.04 Z0.00
G1 X-2.19 Y42.84 Z0.00
G1 X-2.80 Y42.43 Z0.00
G1 X-4.12 Y41.60 Z0.00
G1 X-4.48 Y41.38 Z0.00
G1 X-4.83 Y41.17 Z0.00
G1 X-5.57 Y40.74 Z0.00
G1 X-7.10 Y39.88 Z0.00
G1 X-10.30 Y38.12 Z0.00
G1 X-10.70 Y37.90 Z0.00
G1 X-11.10 Y37.68 Z0.00
G1 X-11.89 Y37.24 Z0.00
G1 X-13.45 Y36.36 Z0.00
G1 X-13.83 Y36.14 Z0.00
G1 X-14.20 Y35.92 Z0.00
G1 X-14.92 Y35.48 Z0.00
G1 X-16.29 Y34.63 Z0.00
G1 X-16.64 Y34.39 Z0.00
G1 X-16.97 Y34.17 Z0.00
G1 X-17.61 Y33.71 Z0.00
G1 X-17.91 Y33.49 Z0.00
G1 X-18.20 Y33.26 Z0.00
G1 X-18.74 Y32.82 Z0.00
G1 X-18.99 Y32.60 Z0.00
G1 X-19.23 Y32.39 Z0.00
G1 X-19.45 Y32.17 Z0.00
G1 X-19.65 Y31.96 Z0.00
G1 X-19.84 Y31.75 Z0.00
G1 X-20.02 Y31.54 Z0.00
G1 X-20.18 Y31.33 Z0.00
G1 X-20.32 Y31.13 Z0.00
G1 X-20.45 Y30.93 Z0.00
G1 X-20.56 Y30.73 Z0.00
G1 X-20.65 Y30.53 Z0.00
G1 X-20.73 Y30.34 Z0.00
G1 X-20.79 Y30.15 Z0.00
G1 X-20.84 Y29.96 Z0.00
G1 X-20.87 Y29.78 Z0.00
G1 X-20.88 Y29.59 Z0.00
G1 X-20.87 Y29.41 Z0.00
G1 X-20.85 Y29.24 Z0.00
G1 X-20.82 Y29.06 Z0.00
G1 X-20.76 Y28.89 Z0.00
G1 X-20.70 Y28.72 Z0.00
G1 X-20.61 Y28.56 Z0.00
G1 X-20.51 Y28.40 Z0.00
G1 X-20.39 Y28.24 Z0.00
G1 X-20.26 Y28.08 Z0.00
G1 X-20.12 Y27.93 Z0.00
G1 X-19.96 Y27.78 Z0.00
G1 X-19.78 Y27.64 Z0.00
G1 X-19.59 Y27.50 Z0.00
G1 X-19.39 Y27.36 Z0.00
G1 X-19.18 Y27.23 Z0.00
G1 X-18.95 Y27.10 Z0.00
G1 X-18.71 Y26.97 Z0.00
G1 X-18.46 Y26.84 Z0.00
G1 X-18.20 Y26.73 Z0.00
G1 X-17.92 Y26.61 Z0.00
G1 X-17.64 Y26.50 Z0.00
G1 X-17.35 Y26.39 Z0.00
G1 X-16.74 Y26.18 Z0.00
G1 X-16.42 Y26.09 Z0.00
G1 X-16.09 Y25.99 Z0.00
G1 X-15.76 Y25.90 Z0.00
G1 X-15.43 Y25.82 Z0.00
G1 X-15.08 Y25.74 Z0.00
G1 X-14.74 Y25.66 Z0.00
G1 X-14.03 Y25.52 Z0.00
G1 X-13.67 Y25.45 Z0.00
G1 X-13.31 Y25.39 Z0.00
G1 X-12.95 Y25.33 Z0.00
G1 X-12.59 Y25.28 Z0.00
G1 X-12.23 Y25.23 Z0.00
G1 X-11.87 Y25.18 Z0.00
G1 X-11.51 Y25.14 Z0.00
G1 X-11.15 Y25.10 Z0.00
G1 X-10.82 Y25.07 Z0.00
G1 X-10.50 Y25.04 Z0.00
G1 X-10.17 Y25.02 Z0.00
G1 X-9.85 Y25.00 Z0.00
G1 X-9.54 Y24.98 Z0.00
G1 X-9.23 Y24.96 Z0.00
G1 X-8.92 Y24.95 Z0.00
G1 X-8.63 Y24.94 Z0.00
G1 X-8.33 Y24.94 Z0.00
G1 X-8.05 Y24.94 Z0.00
G1 X-7.77 Y24.94 Z0.00
G1 X-7.50 Y24.95 Z0.00
G1 X-7.24 Y24.95 Z0.00
G1 X-6.99 Y24.97 Z0.00
G1 X-6.75 Y24.98 Z0.00
G1 X-6.52 Y25.00 Z0.00
G1 X-6.30 Y25.02 Z0.00
G1 X-6.08 Y25.05 Z0.00
G1 X-5.88 Y25.07 Z0.00
G1 X-5.69 Y25.11 Z0.00
G1 X-5.52 Y25.14 Z0.00
G1 X-5.35 Y25.18 Z0.00
G1 X-5.20 Y25.22 Z0.00
G1 X-5.06 Y25.26 Z0.00
G1 X-4.93 Y25.31 Z0.00
G1 X-4.81 Y25.35 Z0.00
G1 X-4.71 Y25.41 Z0.00
G1 X-4.62 Y25.46 Z0.00
G1 X-4.55 Y25.52 Z0.00
G1 X-4.49 Y25.58 Z0.00
G1 X-4.44 Y25.64 Z0.00
G1 X-4.41 Y25.71 Z0.00
G1 X-4.39 Y25.77 Z0.00
G1 X-4.38 Y25.85 Z0.00
G1 X-4.39 Y25.92 Z0.00
G1 X-4.42 Y25.99 Z0.00
G1 X-4.45 Y26.07 Z0.00
G1 X-4.51 Y26.15 Z0.00
G1 X-4.57 Y26.23 Z0.00
G1 X-4.65 Y26.32 Z0.00
G1 X-4.75 Y26.41 Z0.00
G1 X-4.86 Y26.50 Z0.00
G1 X-4.98 Y26.59 Z0.00
G1 X-5.12 Y26.68 Z0.00
G1 X-5.27 Y26.78 Z0.00
G1 X-5.43 Y26.87 Z0.00
G1 X-5.80 Y27.07 Z0.00
G1 X-6.00 Y27.18 Z0.00
G1 X-6.22 Y27.28 Z0.00
G1 X-6.68 Y27.50 Z0.00
G1 X-7.75 Y27.94 Z0.00
G1 X-8.05 Y28.06 Z0.00
G1 X-8.35 Y28.17 Z0.00
G1 X-8.99 Y28.41 Z0.00
G1 X-10.36 Y28.89 Z0.00
G1 X-10.75 Y29.02 Z0.00
G1 X-11.15 Y29.16 Z0.00
G1 X-11.97 Y29.43 Z0.00
G1 X-13.66 Y29.97 Z0.00
G1 X-17.11 Y31.07 Z0.00
G1 X-17.54 Y31.20 Z0.00
G1 X-17.96 Y31.34 Z0.00
G1 X-18.79 Y31.60 Z0.00
G1 X-20.37 Y32.13 Z0.00
G1 X-20.75 Y32.26 Z0.00
G1 X-21.11 Y32.38 Z0.00
G1 X-21.82 Y32.63 Z0.00
G1 X-23.09 Y33.11 Z0.00
G1 X-23.38 Y33.23 Z0.00
G1 X-23.66 Y33.34 Z0.00
G1 X-24.16 Y33.56 Z0.00
G1 X-24.40 Y33.67 Z0.00
G1 X-24.61 Y33.77 Z0.00
G1 X-25.00 Y33.97 Z0.00
G1 X-25.18 Y34.07 Z0.00
G1 X-25.33 Y34.17 Z0.00
G1 X-25.47 Y34.26 Z0.00
G1 X-25.59 Y34.35 Z0.00
G1 X-25.70 Y34.44 Z0.00
G1 X-25.79 Y34.52 Z0.00
G1 X-25.86 Y34.60 Z0.00
G1 X-25.92 Y34.68 Z0.00
G1 X-25.96 Y34.75 Z0.00
G1 X-25.98 Y34.83 Z0.00
G1 X-25.99 Y34.90 Z0.00
G1 X-25.98 Y34.96 Z0.00
G1 X-25.95 Y35.02 Z0.00
G1 X-25.90 Y35.08 Z0.00
G1 X-25.84 Y35.14 Z0.00
G1 X-25.76 Y35.19 Z0.00
G1 X-25.67 Y35.24 Z0.00
G1 X-25.56 Y35.28 Z0.00
G1 X-25.43 Y35.33 Z0.00
G1 X-25.29 Y35.36 Z0.00
G1 X-25.13 Y35.40 Z0.00
G1 X-24.96 Y35.43 Z0.00
G1 X-24.78 Y35.45 Z0.00
G1 X-24.58 Y35.48 Z0.00
G1 X-24.37 Y35.50 Z0.00
G1 X-24.14 Y35.51 Z0.00
G1 X-23.91 Y35.52 Z0.00
G1 X-23.66 Y35.53 Z0.00
G1 X-23.40 Y35.53 Z0.00
G1 X-23.13 Y35.53 Z0.00
G1 X-22.85 Y35.53 Z0.00
G1 X-22.56 Y35.52 Z0.00
G1 X-22.26 Y35.51 Z0.00
G1 X-21.95 Y35.49 Z0.00
G1 X-21.64 Y35.47 Z0.00
G1 X-21.31 Y35.45 Z0.00
G1 X-20.98 Y35.42 Z0.00
G1 X-20.64 Y35.38 Z0.00
G1 X-20.30 Y35.35 Z0.00
G1 X-19.95 Y35.31 Z0.00
G1 X-19.60 Y35.26 Z0.00
G1 X-19.24 Y35.21 Z0.00
G1 X-18.88 Y35.16 Z0.00
G1 X-18.51 Y35.10 Z0.00
G1 X-18.14 Y35.04 Z0.00
G1 X-17.78 Y34.97 Z0.00
G1 X-17.04 Y34.83 Z0.00
G1 X-16.67 Y34.75 Z0.00
G1 X-16.31 Y34.67 Z0.00
G1 X-15.58 Y34.49 Z0.00
G1 X-15.22 Y34.40 Z0.00
G1 X-14.87 Y34.30 Z0.00
G1 X-14.17 Y34.09 Z0.00
G1 X-13.83 Y33.97 Z0.00
G1 X-13.50 Y33.86 Z0.00
G1 X-13.18 Y33.74 Z0.00
G1 X-12.86 Y33.62 Z0.00
G1 X-12.55 Y33.49 Z0.00
G1 X-12.25 Y33.36 Z0.00
G1 X-11.68 Y33.08 Z0.00
G1 X-11.40 Y32.94 Z0.00
G1 X-11.14 Y32.79 Z0.00
G1 X-10.90 Y32.64 Z0.00
G1 X-10.66 Y32.48 Z0.00
G1 X-10.43 Y32.33 Z0.00
G1 X-10.22 Y32.16 Z0.00
G1 X-10.02 Y32.00 Z0.00
G1 X-9.84 Y31.83 Z0.00
G1 X-9.67 Y31.65 Z0.00
G1 X-9.51 Y31.48 Z0.00
G1 X-9.37 Y31.30 Z0.00
G1 X-9.24 Y31.11 Z0.00
G1 X-9.13 Y30.92 Z0.00
G1 X-9.03 Y30.73 Z0.00
G1 X-8.95 Y30.54 Z0.00
G1 X-8.88 Y30.34 Z0.00
G1 X-8.83 Y30.14 Z0.00
G1 X-8.80 Y29.93 Z0.00
G1 X-8.78 Y29.73 Z0.00
G1 X-8.78 Y29.52 Z0.00
G1 X-8.79 Y29.30 Z0.00
G1 X-8.82 Y29.09 Z0.00
G1 X-8.87 Y28.87 Z0.00
G1 X-8.93 Y28.65 Z0.00
G1 X-9.01 Y28.44 Z0.00
G1 X-9.09 Y28.22 Z0.00
G1 X-9.19 Y28.01 Z0.00
G1 X-9.31 Y27.79 Z0.00
G1 X-9.44 Y27.57 Z0.00
G1 X-9.58 Y27.35 Z0.00
G1 X-9.90 Y26.90 Z0.00
G1 X-10.08 Y26.68 Z0.00
G1 X-10.27 Y26.45 Z0.00
G1 X-10.69 Y25.98 Z0.00
G1 X-10.92 Y25.75 Z0.00
G1 X-11.16 Y25.51 Z0.00
G1 X-11.68 Y25.03 Z0.00
G1 X-11.95 Y24.79 Z0.00
G1 X-12.23 Y24.55 Z0.00
G1 X-12.82 Y24.06 Z0.00
G1 X-14.11 Y23.07 Z0.00
G1 X-17.00 Y21.04 Z0.00
G1 X-17.38 Y20.78 Z0.00
G1 X-17.76 Y20.52 Z0.00
G1 X-18.53 Y20.01 Z0.00
G1 X-20.08 Y18.98 Z0.00
G1 X-20.46 Y18.72 Z0.00
G1 X-20.84 Y18.46 Z0.00
G1 X-21.60 Y17.95 Z0.00
G1 X-23.07 Y16.93 Z0.00
G1 X-23.43 Y16.67 Z0.00
G1 X-23.78 Y16.42 Z0.00
G1 X-24.45 Y15.91 Z0.00
G1 X-25.72 Y14.91 Z0.00
G1 X-26.01 Y14.66 Z0.00
G1 X-26.29 Y14.42 Z0.00
G1 X-26.83 Y13.93 Z0.00
G1 X-27.09 Y13.69 Z0.00
G1 X-27.33 Y13.45 Z0.00
G1 X-27.78 Y12.97 Z0.00
G1 X-28.00 Y12.72 Z0.00
G1 X-28.21 Y12.46 Z0.00
G1 X-28.40 Y12.21 Z0.00
G1 X-28.58 Y11.96 Z0.00
G1 X-28.75 Y11.71 Z0.00
G1 X-28.89 Y11.47 Z0.00
G1 X-29.03 Y11.23 Z0.00
G1 X-29.14 Y10.99 Z0.00
G1 X-29.24 Y10.75 Z0.00
G1 X-29.32 Y10.51 Z0.00
G1 X-29.39 Y10.28 Z0.00
G1 X-29.44 Y10.05 Z0.00
G1 X-29.47 Y9.82 Z0.00
G1 X-29.49 Y9.60 Z0.00
G1 X-29.49 Y9.38 Z0.00
G1 X-29.47 Y9.16 Z0.00
G1 X-29.44 Y8.95 Z0.00
G1 X-29.39 Y8.73 Z0.00
G1 X-29.32 Y8.53 Z0.00
G1 X-29.24 Y8.32 Z0.00
G1 X-29.14 Y8.12 Z0.00
G1 X-29.03 Y7.92 Z0.00
G1 X-28.90 Y7.72 Z0.00
G1 X-28.75 Y7.53 Z0.00
G1 X-28.59 Y7.34 Z0.00
G1 X-28.42 Y7.16 Z0.00
G1 X-28.23 Y6.97 Z0.00
G1 X-28.02 Y6.80 Z0.00
G1 X-27.80 Y6.62 Z0.00
G1 X-27.57 Y6.45 Z0.00
G1 X-27.07 Y6.12 Z0.00
G1 X-26.80 Y5.96 Z0.00
G1 X-26.52 Y5.80 Z0.00
G1 X-25.93 Y5.50 Z0.00
G1 X-25.62 Y5.36 Z0.00
G1 X-25.30 Y5.22 Z0.00
G1 X-24.63 Y4.95 Z0.00
G1 X-24.28 Y4.82 Z0.00
G1 X-23.93 Y4.69 Z0.00
G1 X-23.21 Y4.46 Z0.00
G1 X-22.84 Y4.34 Z0.00
G1 X-22.46 Y4.24 Z0.00
G1 X-21.71 Y4.03 Z0.00
G1 X-21.32 Y3.93 Z0.00
G1 X-20.94 Y3.84 Z0.00
G1 X-20.17 Y3.67 Z0.00
G1 X-19.79 Y3.59 Z0.00
G1 X-19.40 Y3.51 Z0.00
G1 X-18.64 Y3.38 Z0.00
G1 X-18.27 Y3.31 Z0.00
G1 X-17.89 Y3.25 Z0.00
G1 X-17.53 Y3.20 Z0.00
G1 X-17.16 Y3.15 Z0.00
G1 X-16.81 Y3.10 Z0.00
G1 X-16.46 Y3.05 Z0.00
G1 X-16.12 Y3.02 Z0.00
G1 X-15.78 Y2.98 Z0.00
G1 X-15.48 Y2.95 Z0.00
G1 X-15.18 Y2.92 Z0.00
G1 X-14.89 Y2.90 Z0.00
G1 X-14.61 Y2.88 Z0.00
G1 X-14.34 Y2.87 Z0.00
G1 X-14.08 Y2.85 Z0.00
G1 X-13.83 Y2.85 Z0.00
G1 X-13.59 Y2.84 Z0.00
G1 X-13.36 Y2.84 Z0.00
G1 X-13.14 Y2.84 Z0.00
G1 X-12.93 Y2.84 Z0.00
G1 X-12.73 Y2.85 Z0.00
G1 X-12.55 Y2.86 Z0.00
G1 X-12.38 Y2.87 Z0.00
G1 X-12.22 Y2.89 Z0.00
G1 X-12.07 Y2.91 Z0.00
G1 X-11.94 Y2.93 Z0.00
G1 X-11.82 Y2.95 Z0.00
G1 X-11.72 Y2.98 Z0.00
G1 X-11.63 Y3.01 Z0.00
G1 X-11.55 Y3.05 Z0.00
G1 X-11.48 Y3.08 Z0.00
G1 X-11.43 Y3.12 Z0.00
G1 X-11.40 Y3.17 Z0.00
G1 X-11.38 Y3.21 Z0.00
G1 X-11.37 Y3.26 Z0.00
G1 X-11.38 Y3.31 Z0.00
G1 X-11.40 Y3.36 Z0.00
G1 X-11.44 Y3.41 Z0.00
G1 X-11.49 Y3.47 Z0.00
G1 X-11.56 Y3.53 Z0.00
G1 X-11.64 Y3.59 Z0.00
G1 X-11.73 Y3.66 Z0.00
G1 X-11.84 Y3.72 Z0.00
G1 X-11.96 Y3.79 Z0.00
G1 X-12.09 Y3.86 Z0.00
G1 X-12.24 Y3.94 Z0.00
G1 X-12.40 Y4.01 Z0.00
G1 X-12.77 Y4.16 Z0.00
G1 X-12.97 Y4.25 Z0.00
G1 X-13.18 Y4.33 Z0.00
G1 X-13.64 Y4.50 Z0.00
G1 X-14.69 Y4.85 Z0.00
G1 X-14.98 Y4.94 Z0.00
G1 X-15.28 Y5.04 Z0.00
G1 X-15.90 Y5.23 Z0.00
G1 X-17.23 Y5.62 Z0.00
G1 X-20.15 Y6.43 Z0.00
G1 X-20.52 Y6.53 Z0.00
G1 X-20.89 Y6.63 Z0.00
G1 X-21.63 Y6.84 Z0.00
G1 X-23.11 Y7.24 Z0.00
G1 X-25.89 Y8.03 Z0.00
G1 X-26.22 Y8.12 Z0.00
G1 X-26.53 Y8.22 Z0.00
G1 X-27.14 Y8.40 Z0.00
G1 X-28.26 Y8.76 Z0.00
G1 X-28.51 Y8.85 Z0.00
G1 X-28.76 Y8.93 Z0.00
G1 X-29.21 Y9.09 Z0.00
G1 X-29.43 Y9.17 Z0.00
G1 X-29.62 Y9.25 Z0.00
G1 X-29.99 Y9.40 Z0.00
G1 X-30.15 Y9.48 Z0.00
G1 X-30.30 Y9.55 Z0.00
G1 X-30.44 Y9.62 Z0.00
G1 X-30.56 Y9.68 Z0.00
G1 X-30.67 Y9.75 Z0.00
G1 X-30.77 Y9.81 Z0.00
G1 X-30.85 Y9.87 Z0.00
G1 X-30.92 Y9.93 Z0.00
G1 X-30.97 Y9.99 Z0.00
G1 X-31.02 Y10.04 Z0.00
G1 X-31.04 Y10.09 Z0.00
G1 X-31.06 Y10.14 Z0.00
G1 X-31.06 Y10.19 Z0.00
G1 X-31.04 Y10.23 Z0.00
G1 X-31.01 Y10.27 Z0.00
G1 X-30.97 Y10.31 Z0.00
G1 X-30.92 Y10.35 Z0.00
G1 X-30.85 Y10.38 Z0.00
G1 X-30.76 Y10.41 Z0.00
G1 X-30.67 Y10.44 Z0.00
G1 X-30.56 Y10.47 Z0.00
G1 X-30.43 Y10.49 Z0.00
G1 X-30.30 Y10.51 Z0.00
G1 X-30.15 Y10.53 Z0.00
G1 X-29.98 Y10.54 Z0.00
G1 X-29.81 Y10.55 Z0.00
G1 X-29.62 Y10.56 Z0.00
G1 X-29.42 Y10.56 Z0.00
G1 X-29.21 Y10.56 Z0.00
G1 X-28.99 Y10.56 Z0.00
G1 X-28.76 Y10.56 Z0.00
G1 X-28.52 Y10.55 Z0.00
G1 X-28.24 Y10.54 Z0.00
G1 X-27.96 Y10.52 Z0.00
G1 X-27.66 Y10.50 Z0.00
G1 X-27.35 Y10.48 Z0.00
G1 X-27.03 Y10.45 Z0.00
G1 X-26.70 Y10.42 Z0.00
G1 X-26.37 Y10.38 Z0.00
G1 X-26.02 Y10.34 Z0.00
G1 X-25.67 Y10.30 Z0.00
G1 X-25.31 Y10.25 Z0.00
G1 X-24.57 Y10.15 Z0.00
G1 X-24.19 Y10.09 Z0.00
G1 X-23.81 Y10.02 Z0.00
G1 X-23.03 Y9.88 Z0.00
G1 X-22.64 Y9.81 Z0.00
G1 X-22.25 Y9.73 Z0.00
G1 X-21.45 Y9.56 Z0.00
G1 X-21.06 Y9.46 Z0.00
G1 X-20.66 Y9.37 Z0.00
G1 X-19.88 Y9.16 Z0.00
G1 X-19.49 Y9.05 Z0.00
G1 X-19.10 Y8.94 Z0.00
G1 X-18.34 Y8.70 Z0.00
G1 X-17.97 Y8.58 Z0.00
G1 X-17.61 Y8.45 Z0.00
G1 X-16.90 Y8.18 Z0.00
G1 X-16.55 Y8.04 Z0.00
G1 X-16.22 Y7.89 Z0.00
G1 X-15.57 Y7.59 Z0.00
G1 X-15.27 Y7.44 Z0.00
G1 X-14.97 Y7.28 Z0.00
G1 X-14.41 Y6.95 Z0.00
G1 X-14.15 Y6.77 Z0.00
G1 X-13.90 Y6.60 Z0.00
G1 X-13.67 Y6.42 Z0.00
G1 X-13.45 Y6.24 Z0.00
G1 X-13.24 Y6.05 Z0.00
G1 X-13.04 Y5.86 Z0.00
G1 X-12.86 Y5.67 Z0.00
G1 X-12.70 Y5.47 Z0.00
G1 X-12.55 Y5.27 Z0.00
G1 X-12.41 Y5.07 Z0.00
G1 X-12.29 Y4.86 Z0.00
G1 X-12.19 Y4.65 Z0.00
G1 X-12.10 Y4.44 Z0.00
G1 X-12.03 Y4.22 Z0.00
G1 X-11.97 Y4.00 Z0.00
G1 X-11.93 Y3.78 Z0.00
G1 X-11.91 Y3.56 Z0.00
G1 X-11.90 Y3.33 Z0.00
G1 X-11.91 Y3.10 Z0.00
G1 X-11.94 Y2.86 Z0.00
G1 X-11.98 Y2.63 Z0.00
G1 X-12.04 Y2.39 Z0.00
G1 X-12.11 Y2.14 Z0.00
G1 X-12.20 Y1.90 Z0.00
G1 X-12.30 Y1.67 Z0.00
G1 X-12.41 Y1.44 Z0.00
G1 X-12.54 Y1.20 Z0.00
G1 X-12.67 Y0.96 Z0.00
G1 X-12.83 Y0.73 Z0.00
G1 X-12.99 Y0.49 Z0.00
G1 X-13.35 Y-0.00 Z0.00
G1 X-13.56 Y-0.25 Z0.00
G1 X-13.77 Y-0.49 Z0.00
G1 X-14.23 Y-0.99 Z0.00
G1 X-15.27 Y-2.01 Z0.00
G1 X-15.55 Y-2.27 Z0.00
G1 X-15.84 Y-2.52 Z0.00
G1 X-16.45 Y-3.04 Z0.00
G1 X-17.75 Y-4.09 Z0.00
G1 X-20.57 Y-6.22 Z0.00
G1 X-20.94 Y-6.49 Z0.00
G1 X-21.30 Y-6.75 Z0.00
G1 X-22.02 Y-7.29 Z0.00
G1 X-23.46 Y-8.35 Z0.00
G1 X-23.81 Y-8.62 Z0.00
G1 X-24.15 Y-8.88 Z0.00
G1 X-24.83 Y-9.41 Z0.00
G1 X-26.13 Y-10.46 Z0.00
G1 X-26.43 Y-10.72 Z0.00
G1 X-26.73 Y-10.98 Z0.00
G1 X-27.30 Y-11.49 Z0.00
G1 X-27.57 Y-11.74 Z0.00
G1 X-27.83 Y-12.00 Z0.00
G1 X-28.32 Y-12.50 Z0.00
G1 X-28.55 Y-12.75 Z0.00
G1 X-28.77 Y-13.00 Z0.00
G1 X-28.98 Y-13.24 Z0.00
G1 X-29.17 Y-13.49 Z0.00
G1 X-29.36 Y-13.73 Z0.00
G1 X-29.53 Y-13.97 Z0.00
G1 X-29.69 Y-14.21 Z0.00
G1 X-29.83 Y-14.45 Z0.00
G1 X-29.97 Y-14.70 Z0.00
G1 X-30.10 Y-14.95 Z0.00
G1 X-30.21 Y-15.20 Z0.00
G1 X-30.31 Y-15.45 Z0.00
G1 X-30.39 Y-15.69 Z0.00
G1 X-30.45 Y-15.94 Z0.00
G1 X-30.49 Y-16.17 Z0.00
G1 X-30.52 Y-16.41 Z0.00
G1 X-30.53 Y-16.64 Z0.00
G1 X-30.53 Y-16.87 Z0.00
G1 X-30.51 Y-17.10 Z0.00
G1 X-30.47 Y-17.33 Z0.00
G1 X-30.41 Y-17.55 Z0.00
G1 X-30.34 Y-17.77 Z0.00
G1 X-30.25 Y-17.98 Z0.00
G1 X-30.14 Y-18.19 Z0.00
G1 X-30.02 Y-18.40 Z0.00
G1 X-29.88 Y-18.60 Z0.00
G1 X-29.73 Y-18.80 Z0.00
G1 X-29.56 Y-19.00 Z0.00
G1 X-29.38 Y-19.20 Z0.00
G1 X-29.18 Y-19.39 Z0.00
G1 X-28.96 Y-19.57 Z0.00
G1 X-28.73 Y-19.76 Z0.00
G1 X-28.49 Y-19.94 Z0.00
G1 X-28.23 Y-20.11 Z0.00
G1 X-27.96 Y-20.28 Z0.00
G1 X-27.68 Y-20.45 Z0.00
G1 X-27.39 Y-20.61 Z0.00
G1 X-27.08 Y-20.77 Z0.00
G1 X-26.43 Y-21.08 Z0.00
G1 X-26.10 Y-21.23 Z0.00
G1 X-25.75 Y-21.37 Z0.00
G1 X-25.03 Y-21.65 Z0.00
G1 X-24.65 Y-21.78 Z0.00
G1 X-24.27 Y-21.91 Z0.00
G1 X-23.49 Y-22.15 Z0.00
G1 X-23.09 Y-22.26 Z0.00
G1 X-22.69 Y-22.37 Z0.00
G1 X-21.88 Y-22.58 Z0.00
G1 X-21.47 Y-22.68 Z0.00
G1 X-21.05 Y-22.77 Z0.00
G1 X-20.22 Y-22.95 Z0.00
G1 X-19.81 Y-23.03 Z0.00
G1 X-19.40 Y-23.11 Z0.00
G1 X-18.58 Y-23.25 Z0.00
G1 X-18.17 Y-23.31 Z0.00
G1 X-17.77 Y-23.37 Z0.00
G1 X-16.98 Y-23.48 Z0.00
G1 X-16.59 Y-23.52 Z0.00
G1 X-16.21 Y-23.57 Z0.00
G1 X-15.84 Y-23.61 Z0.00
G1 X-15.47 Y-23.64 Z0.00
G1 X-15.12 Y-23.67 Z0.00
G1 X-14.77 Y-23.70 Z0.00
G1 X-14.43 Y-23.72 Z0.00
G1 X-14.10 Y-23.74 Z0.00
G1 X-13.79 Y-23.75 Z0.00
G1 X-13.49 Y-23.76 Z0.00
G1 X-13.20 Y-23.77 Z0.00
G1 X-12.92 Y-23.77 Z0.00
G1 X-12.66 Y-23.77 Z0.00
G1 X-12.40 Y-23.77 Z0.00
G1 X-12.16 Y-23.76 Z0.00
G1 X-11.94 Y-23.75 Z0.00
G1 X-11.72 Y-23.73 Z0.00
G1 X-11.53 Y-23.71 Z0.00
G1 X-11.34 Y-23.69 Z0.00
G1 X-11.17 Y-23.66 Z0.00
G1 X-11.02 Y-23.63 Z0.00
G1 X-10.88 Y-23.60 Z0.00
G1 X-10.75 Y-23.56 Z0.00
G1 X-10.64 Y-23.52 Z0.00
G1 X-10.55 Y-23.48 Z0.00
G1 X-10.47 Y-23.44 Z0.00
G1 X-10.41 Y-23.39 Z0.00
G1 X-10.37 Y-23.33 Z0.00
G1 X-10.34 Y-23.28 Z0.00
G1 X-10.32 Y-23.22 Z0.00
G1 X-10.33 Y-23.16 Z0.00
G1 X-10.34 Y-23.10 Z0.00
G1 X-10.38 Y-23.03 Z0.00
G1 X-10.43 Y-22.96 Z0.00
G1 X-10.50 Y-22.89 Z0.00
G1 X-10.58 Y-22.82 Z0.00
G1 X-10.68 Y-22.74 Z0.00
G1 X-10.79 Y-22.66 Z0.00
G1 X-10.92 Y-22.58 Z0.00
G1 X-11.06 Y-22.49 Z0.00
G1 X-11.22 Y-22.41 Z0.00
G1 X-11.39 Y-22.32 Z0.00
G1 X-11.77 Y-22.14 Z0.00
G1 X-11.99 Y-22.04 Z0.00
G1 X-12.21 Y-21.94 Z0.00
G1 X-12.70 Y-21.75 Z0.00
G1 X-12.96 Y-21.64 Z0.00
G1 X-13.23 Y-21.54 Z0.00
G1 X-13.81 Y-21.33 Z0.00
G1 X-15.07 Y-20.89 Z0.00
G1 X-15.40 Y-20.78 Z0.00
G1 X-15.74 Y-20.67 Z0.00
G1 X-16.44 Y-20.44 Z0.00
G1 X-17.90 Y-19.98 Z0.00
G1 X-20.87 Y-19.04 Z0.00
G1 X-21.21 Y-18.93 Z0.00
G1 X-21.55 Y-18.82 Z0.00
G1 X-22.21 Y-18.60 Z0.00
G1 X-23.47 Y-18.17 Z0.00
G1 X-23.77 Y-18.07 Z0.00
G1 X-24.07 Y-17.96 Z0.00
G1 X-24.63 Y-17.76 Z0.00
G1 X-25.65 Y-17.36 Z0.00
G1 X-25.88 Y-17.26 Z0.00
G1 X-26.10 Y-17.17 Z0.00
G1 X-26.51 Y-16.98 Z0.00
G1 X-26.70 Y-16.89 Z0.00
G1 X-26.87 Y-16.80 Z0.00
G1 X-27.18 Y-16.63 Z0.00
G1 X-27.32 Y-16.55 Z0.00
G1 X-27.45 Y-16.46 Z0.00
G1 X-27.56 Y-16.38 Z0.00
G1 X-27.66 Y-16.31 Z0.00
G1 X-27.74 Y-16.23 Z0.00
G1 X-27.81 Y-16.16 Z0.00
G1 X-27.87 Y-16.08 Z0.00
G1 X-27.92 Y-16.01 Z0.00
G1 X-27.95 Y-15.95 Z0.00
G1 X-27.96 Y-15.88 Z0.00
G1 X-27.97 Y-15.82 Z0.00
G1 X-27.95 Y-15.76 Z0.00
G1 X-27.93 Y-15.70 Z0.00
G1 X-27.89 Y-15.64 Z0.00
G1 X-27.83 Y-15.59 Z0.00
G1 X-27.76 Y-15.54 Z0.00
G1 X-27.68 Y-15.49 Z0.00
G1 X-27.58 Y-15.44 Z0.00
G1 X-27.47 Y-15.40 Z0.00
G1 X-27.35 Y-15.36 Z0.00
G1 X-27.21 Y-15.32 Z0.00
G1 X-27.06 Y-15.29 Z0.00
G1 X-26.90 Y-15.25 Z0.00
G1 X-26.72 Y-15.22 Z0.00
G1 X-26.53 Y-15.20 Z0.00
G1 X-26.33 Y-15.17 Z0.00
G1 X-26.12 Y-15.15 Z0.00
G1 X-25.89 Y-15.14 Z0.00
G1 X-25.65 Y-15.12 Z0.00
G1 X-25.41 Y-15.11 Z0.00
G1 X-25.15 Y-15.10 Z0.00
G1 X-24.87 Y-15.10 Z0.00
G1 X-24.59 Y-15.09 Z0.00
G1 X-24.30 Y-15.10 Z0.00
G1 X-24.00 Y-15.10 Z0.00
G1 X-23.69 Y-15.11 Z0.00
G1 X-23.38 Y-15.12 Z0.00
G1 X-23.05 Y-15.13 Z0.00
G1 X-22.72 Y-15.15 Z0.00
G1 X-22.38 Y-15.17 Z0.00
G1 X-22.00 Y-15.20 Z0.00
G1 X-21.61 Y-15.23 Z0.00
G1 X-21.22 Y-15.26 Z0.00
G1 X-20.82 Y-15.30 Z0.00
G1 X-20.42 Y-15.34 Z0.00
G1 X-20.01 Y-15.39 Z0.00
G1 X-19.18 Y-15.49 Z0.00
G1 X-18.76 Y-15.55 Z0.00
G1 X-18.34 Y-15.61 Z0.00
G1 X-17.49 Y-15.74 Z0.00
G1 X-17.07 Y-15.82 Z0.00
G1 X-16.64 Y-15.90 Z0.00
G1 X-15.80 Y-16.06 Z0.00
G1 X-15.38 Y-16.15 Z0.00
G1 X-14.97 Y-16.25 Z0.00
G1 X-14.15 Y-16.45 Z0.00
G1 X-13.75 Y-16.55 Z0.00
G1 X-13.35 Y-16.66 Z0.00
G1 X-12.58 Y-16.90 Z0.00
G1 X-12.21 Y-17.02 Z0.00
G1 X-11.84 Y-17.14 Z0.00
G1 X-11.14 Y-17.40 Z0.00
G1 X-10.80 Y-17.54 Z0.00
G1 X-10.48 Y-17.68 Z0.00
G1 X-9.86 Y-17.98 Z0.00
G1 X-9.57 Y-18.13 Z0.00
G1 X-9.29 Y-18.28 Z0.00
G1 X-9.02 Y-18.44 Z0.00
G1 X-8.77 Y-18.60 Z0.00
G1 X-8.53 Y-18.77 Z0.00
G1 X-8.30 Y-18.94 Z0.00
G1 X-8.09 Y-19.11 Z0.00
G1 X-7.90 Y-19.29 Z0.00
G1 X-7.72 Y-19.47 Z0.00
G1 X-7.55 Y-19.65 Z0.00
G1 X-7.40 Y-19.84 Z0.00
G1 X-7.27 Y-20.03 Z0.00
G1 X-7.15 Y-20.22 Z0.00
G1 X-7.05 Y-20.42 Z0.00
G1 X-6.96 Y-20.62 Z0.00
G1 X-6.90 Y-20.82 Z0.00
G1 X-6.84 Y-21.02 Z0.00
G1 X-6.81 Y-21.23 Z0.00
G1 X-6.79 Y-21.44 Z0.00
G1 X-6.78 Y-21.65 Z0.00
G1 X-6.80 Y-21.87 Z0.00
G1 X-6.83 Y-22.09 Z0.00
G1 X-6.87 Y-22.31 Z0.00
G1 X-6.93 Y-22.53 Z0.00
G1 X-7.01 Y-22.76 Z0.00
G1 X-7.10 Y-22.99 Z0.00
G1 X-7.21 Y-23.22 Z0.00
G1 X-7.34 Y-23.45 Z0.00
G1 X-7.48 Y-23.68 Z0.00
G1 X-7.63 Y-23.92 Z0.00
G1 X-7.98 Y-24.40 Z0.00
G1 X-8.17 Y-24.63 Z0.00
G1 X-8.36 Y-24.85 Z0.00
G1 X-8.78 Y-25.31 Z0.00
G1 X-9.75 Y-26.25 Z0.00
G1 X-10.02 Y-26.49 Z0.00
G1 X-10.29 Y-26.73 Z0.00
G1 X-10.86 Y-27.20 Z0.00
G1 X-12.09 Y-28.17 Z0.00
G1 X-12.41 Y-28.41 Z0.00
G1 X-12.73 Y-28.66 Z0.00
G1 X-13.40 Y-29.15 Z0.00
G1 X-14.75 Y-30.12 Z0.00
G1 X-17.46 Y-32.08 Z0.00
G1 X-17.78 Y-32.32 Z0.00
G1 X-18.11 Y-32.56 Z0.00
G1 X-18.74 Y-33.04 Z0.00
G1 X-19.93 Y-33.99 Z0.00
G1 X-20.21 Y-34.23 Z0.00
G1 X-20.48 Y-34.46 Z0.00
G1 X-21.00 Y-34.93 Z0.00
G1 X-21.24 Y-35.16 Z0.00
G1 X-21.47 Y-35.39 Z0.00
G1 X-21.91 Y-35.84 Z0.00
G1 X-22.11 Y-36.06 Z0.00
G1 X-22.30 Y-36.28 Z0.00
G1 X-22.48 Y-36.50 Z0.00
G1 X-22.65 Y-36.72 Z0.00
G1 X-22.80 Y-36.94 Z0.00
G1 X-22.94 Y-37.15 Z0.00
G1 X-23.07 Y-37.37 Z0.00
G1 X-23.18 Y-37.58 Z0.00
G1 X-23.28 Y-37.79 Z0.00
G1 X-23.37 Y-37.99 Z0.00
G1 X-23.45 Y-38.20 Z0.00
G1 X-23.51 Y-38.40 Z0.00
G1 X-23.55 Y-38.60 Z0.00
G1 X-23.58 Y-38.79 Z0.00
G1 X-23.60 Y-38.99 Z0.00
G1 X-23.61 Y-39.18 Z0.00
G1 X-23.59 Y-39.39 Z0.00
G1 X-23.56 Y-39.59 Z0.00
G1 X-23.52 Y-39.79 Z0.00
G1 X-23.45 Y-39.98 Z0.00
G1 X-23.37 Y-40.17 Z0.00
G1 X-23.27 Y-40.36 Z0.00
G1 X-23.16 Y-40.55 Z0.00
G1 X-23.03 Y-40.73 Z0.00
G1 X-22.88 Y-40.91 Z0.00
G1 X-22.72 Y-41.09 Z0.00
G1 X-22.54 Y-41.26 Z0.00
G1 X-22.34 Y-41.42 Z0.00
G1 X-22.13 Y-41.59 Z0.00
G1 X-21.91 Y-41.75 Z0.00
G1 X-21.67 Y-41.91 Z0.00
G1 X-21.41 Y-42.06 Z0.00
G1 X-21.14 Y-42.21 Z0.00
G1 X-20.86 Y-42.35 Z0.00
G1 X-20.57 Y-42.49 Z0.00
G1 X-20.26 Y-42.63 Z0.00
G1 X-19.94 Y-42.76 Z0.00
G1 X-19.60 Y-42.89 Z0.00
G1 X-18.91 Y-43.14 Z0.00
G1 X-18.54 Y-43.25 Z0.00
G1 X-18.17 Y-43.37 Z0.00
G1 X-17.78 Y-43.47 Z0.00
G1 X-17.39 Y-43.58 Z0.00
G1 X-16.99 Y-43.68 Z0.00
G1 X-16.59 Y-43.77 Z0.00
G1 X-15.76 Y-43.95 Z0.00
G1 X-15.34 Y-44.03 Z0.00
G1 X-14.91 Y-44.11 Z0.00
G1 X-14.48 Y-44.18 Z0.00
G1 X-14.04 Y-44.25 Z0.00
G1 X-13.61 Y-44.32 Z0.00
G1 X-13.17 Y-44.38 Z0.00
G1 X-12.29 Y-44.49 Z0.00
G1 X-11.85 Y-44.53 Z0.00
G1 X-11.41 Y-44.58 Z0.00
G1 X-10.98 Y-44.61 Z0.00
G1 X-10.55 Y-44.65 Z0.00
G1 X-10.12 Y-44.68 Z0.00
G1 X-9.69 Y-44.70 Z0.00
G1 X-9.27 Y-44.73 Z0.00
G1 X-8.86 Y-44.74 Z0.00
G1 X-8.45 Y-44.75 Z0.00
G1 X-8.04 Y-44.76 Z0.00
G1 X-7.65 Y-44.77 Z0.00
G1 X-7.26 Y-44.77 Z0.00
G1 X-6.88 Y-44.76 Z0.00
G1 X-6.52 Y-44.75 Z0.00
G1 X-6.16 Y-44.74 Z0.00
G1 X-5.81 Y-44.72 Z0.00
G1 X-5.47 Y-44.70 Z0.00
G1 X-5.14 Y-44.68 Z0.00
G1 X-4.83 Y-44.65 Z0.00
G1 X-4.53 Y-44.61 Z0.00
G1 X-4.24 Y-44.58 Z0.00
G1 X-3.96 Y-44.53 Z0.00
G1 X-3.70 Y-44.49 Z0.00
G1 X-3.46 Y-44.44 Z0.00
G1 X-3.23 Y-44.39 Z0.00
G1 X-3.01 Y-44.33 Z0.00
G1 X-2.81 Y-44.27 Z0.00
G1 X-2.63 Y-44.21 Z0.00
G1 X-2.46 Y-44.14 Z0.00
G1 X-2.31 Y-44.07 Z0.00
G1 X-2.17 Y-44.00 Z0.00
G1 X-2.04 Y-43.92 Z0.00
G1 X-1.94 Y-43.84 Z0.00
G1 X-1.85 Y-43.76 Z0.00
G1 X-1.77 Y-43.68 Z0.00
G1 X-1.71 Y-43.59 Z0.00
G1 X-1.67 Y-43.49 Z0.00
G1 X-1.65 Y-43.40 Z0.00
G1 X-1.64 Y-43.30 Z0.00
G1 X-1.64 Y-43.20 Z0.00
G1 X-1.67 Y-43.09 Z0.00
G1 X-1.71 Y-42.99 Z0.00
G1 X-1.76 Y-42.88 Z0.00
G1 X-1.83 Y-42.76 Z0.00
G1 X-1.92 Y-42.65 Z0.00
G1 X-2.02 Y-42.53 Z0.00
G1 X-2.14 Y-42.41 Z0.00
G1 X-2.27 Y-42.29 Z0.00
G1 X-2.41 Y-42.17 Z0.00
G1 X-2.57 Y-42.04 Z0.00
G1 X-2.93 Y-41.78 Z0.00
G1 X-3.13 Y-41.65 Z0.00
G1 X-3.35 Y-41.51 Z0.00
G1 X-3.81 Y-41.24 Z0.00
G1 X-4.06 Y-41.09 Z0.00
G1 X-4.32 Y-40.95 Z0.00
G1 X-4.87 Y-40.66 Z0.00
G1 X-6.08 Y-40.07 Z0.00
G1 X-8.79 Y-38.84 Z0.00
G1 X-9.14 Y-38.68 Z0.00
G1 X-9.49 Y-38.53 Z0.00
G1 X-10.21 Y-38.21 Z0.00
G1 X-11.61 Y-37.58 Z0.00
G1 X-14.22 Y-36.34 Z0.00
G1 X-14.49 Y-36.20 Z0.00
G1 X-14.76 Y-36.06 Z0.00
G1 X-15.26 Y-35.78 Z0.00
G1 X-15.50 Y-35.64 Z0.00
G1 X-15.73 Y-35.51 Z0.00
G1 X-16.16 Y-35.24 Z0.00
G1 X-16.36 Y-35.11 Z0.00
G1 X-16.55 Y-34.97 Z0.00
G1 X-16.73 Y-34.84 Z0.00
G1 X-16.90 Y-34.72 Z0.00
G1 X-17.05 Y-34.59 Z0.00
G1 X-17.19 Y-34.46 Z0.00
G1 X-17.32 Y-34.34 Z0.00
G1 X-17.43 Y-34.22 Z0.00
G1 X-17.54 Y-34.10 Z0.00
G1 X-17.63 Y-33.98 Z0.00
G1 X-17.70 Y-33.86 Z0.00
G1 X-17.76 Y-33.75 Z0.00
G1 X-17.81 Y-33.64 Z0.00
G1 X-17.85 Y-33.53 Z0.00
G1 X-17.87 Y-33.42 Z0.00
G1 X-17.87 Y-33.31 Z0.00
G1 X-17.87 Y-33.21 Z0.00
G1 X-17.85 Y-33.11 Z0.00
G1 X-17.81 Y-33.01 Z0.00
G1 X-17.76 Y-32.91 Z0.00
G1 X-17.69 Y-32.82 Z0.00
G1 X-17.62 Y-32.73 Z0.00
G1 X-17.52 Y-32.64 Z0.00
G1 X-17.42 Y-32.55 Z0.00
G1 X-17.30 Y-32.47 Z0.00
G1 X-17.16 Y-32.39 Z0.00
G1 X-17.01 Y-32.31 Z0.00
G1 X-16.85 Y-32.23 Z0.00
G1 X-16.68 Y-32.16 Z0.00
G1 X-16.49 Y-32.09 Z0.00
G1 X-16.29 Y-32.02 Z0.00
G1 X-16.07 Y-31.96 Z0.00
G1 X-15.85 Y-31.89 Z0.00
G1 X-15.61 Y-31.84 Z0.00
G1 X-15.36 Y-31.78 Z0.00
G1 X-15.10 Y-31.73 Z0.00
G1 X-14.83 Y-31.68 Z0.00
G1 X-14.54 Y-31.63 Z0.00
G1 X-14.25 Y-31.59 Z0.00
G1 X-13.95 Y-31.55 Z0.00
G1 X-13.63 Y-31.51 Z0.00
G1 X-13.31 Y-31.48 Z0.00
G1 X-12.98 Y-31.44 Z0.00
G1 X-12.64 Y-31.42 Z0.00
G1 X-12.29 Y-31.39 Z0.00
G1 X-11.93 Y-31.37 Z0.00
G1 X-11.57 Y-31.35 Z0.00
G1 X-11.20 Y-31.34 Z0.00
G1 X-10.83 Y-31.33 Z0.00
G1 X-10.44 Y-31.32 Z0.00
G1 X-10.06 Y-31.31 Z0.00
G1 X-9.67 Y-31.31 Z0.00
G1 X-9.27 Y-31.31 Z0.00
G1 X-8.87 Y-31.32 Z0.00
G1 X-8.47 Y-31.33 Z0.00
G1 X-8.07 Y-31.34 Z0.00
G1 X-7.63 Y-31.36 Z0.00
G1 X-7.19 Y-31.38 Z0.00
G1 X-6.75 Y-31.40 Z0.00
G1 X-6.30 Y-31.43 Z0.00
G1 X-5.86 Y-31.47 Z0.00
G1 X-5.42 Y-31.50 Z0.00
G1 X-4.98 Y-31.54 Z0.00
G1 X-4.55 Y-31.59 Z0.00
G1 X-4.11 Y-31.64 Z0.00
G1 X-3.68 Y-31.69 Z0.00
G1 X-3.26 Y-31.75 Z0.00
G1 X-2.84 Y-31.81 Z0.00
G1 X-2.43 Y-31.87 Z0.00
G1 X-2.02 Y-31.94 Z0.00
G1 X-1.23 Y-32.09 Z0.00
G1 X-0.85 Y-32.17 Z0.00
G1 X-0.47 Y-32.26 Z0.00
G1 X-0.11 Y-32.34 Z0.00
G1 X0.24 Y-32.43 Z0.00
G1 X0.59 Y-32.53 Z0.00
G1 X0.92 Y-32.63 Z0.00
G1 X1.55 Y-32.84 Z0.00
G1 X1.84 Y-32.95 Z0.00
G1 X2.12 Y-33.06 Z0.00
G1 X2.39 Y-33.18 Z0.00
G1 X2.65 Y-33.30 Z0.00
G1 X2.89 Y-33.42 Z0.00
G1 X3.11 Y-33.55 Z0.00
G1 X3.32 Y-33.68 Z0.00
G1 X3.52 Y-33.81 Z0.00
G1 X3.70 Y-33.95 Z0.00
G1 X3.86 Y-34.09 Z0.00
G1 X4.01 Y-34.24 Z0.00
G1 X4.14 Y-34.38 Z0.00
G1 X4.26 Y-34.53 Z0.00
G1 X4.36 Y-34.69 Z0.00
G1 X4.44 Y-34.84 Z0.00
G1 X4.50 Y-35.00 Z0.00
G1 X4.55 Y-35.16 Z0.00
G1 X4.59 Y-35.33 Z0.00
G1 X4.60 Y-35.49 Z0.00
G1 X4.60 Y-35.66 Z0.00
G1 X4.58 Y-35.83 Z0.00
G1 X4.55 Y-36.01 Z0.00
G1 X4.50 Y-36.19 Z0.00
G1 X4.43 Y-36.36 Z0.00
G1 X4.35 Y-36.55 Z0.00
G1 X4.26 Y-36.73 Z0.00
G1 X4.14 Y-36.92 Z0.00
G1 X4.01 Y-37.10 Z0.00
G1 X3.87 Y-37.29 Z0.00
G1 X3.71 Y-37.49 Z0.00
G1 X3.36 Y-37.88 Z0.00
G1 X3.16 Y-38.07 Z0.00
G1 X2.94 Y-38.27 Z0.00
G1 X2.48 Y-38.67 Z0.00
G1 X1.42 Y-39.50 Z0.00
G1 X1.15 Y-39.69 Z0.00
G1 X0.88 Y-39.88 Z0.00
G1 X0.30 Y-40.28 Z0.00
G1 X-0.93 Y-41.07 Z0.00
G1 X-3.54 Y-42.67 Z0.00
G1 X-3.87 Y-42.87 Z0.00
G1 X-4.20 Y-43.07 Z0.00
G1 X-4.86 Y-43.46 Z0.00
G1 X-6.14 Y-44.25 Z0.00
G1 X-6.44 Y-44.45 Z0.00
G1 X-6.75 Y-44.64 Z0.00
G1 X-7.34 Y-45.03 Z0.00
G1 X-8.43 Y-45.79 Z0.00
G1 X-8.68 Y-45.98 Z0.00
G1 X-8.93 Y-46.16 Z0.00
G1 X-9.38 Y-46.53 Z0.00
G1 X-9.60 Y-46.71 Z0.00
G1 X-9.80 Y-46.89 Z0.00
G1 X-10.17 Y-47.24 Z0.00
G1 X-10.34 Y-47.41 Z0.00
G1 X-10.49 Y-47.59 Z0.00
G1 X-10.64 Y-47.76 Z0.00
G1 X-10.77 Y-47.92 Z0.00
G1 X-10.88 Y-48.09 Z0.00
G1 X-10.99 Y-48.25 Z0.00
G1 X-11.08 Y-48.42 Z0.00
G1 X-11.15 Y-48.58 Z0.00
G1 X-11.22 Y-48.73 Z0.00
G1 X-11.27 Y-48.89 Z0.00
G1 X-11.30 Y-49.04 Z0.00
G1 X-11.32 Y-49.19 Z0.00
G1 X-11.33 Y-49.34 Z0.00
G1 X-11.32 Y-49.48 Z0.00
G1 X-11.30 Y-49.62 Z0.00
G1 X-11.26 Y-49.76 Z0.00
G1 X-11.21 Y-49.90 Z0.00
G1 X-11.14 Y-50.03 Z0.00
G1 X-11.06 Y-50.16 Z0.00
G1 X-10.96 Y-50.29 Z0.00
G1 X-10.85 Y-50.42 Z0.00
G1 X-10.73 Y-50.54 Z0.00
G1 X-10.59 Y-50.66 Z0.00
G1 X-10.44 Y-50.78 Z0.00
G1 X-10.28 Y-50.89 Z0.00
G1 X-10.10 Y-50.99 Z0.00
G1 X-9.91 Y-51.10 Z0.00
G1 X-9.71 Y-51.20 Z0.00
G1 X-9.50 Y-51.30 Z0.00
G1 X-9.27 Y-51.39 Z0.00
G1 X-8.78 Y-51.57 Z0.00
G1 X-8.52 Y-51.66 Z0.00
G1 X-8.25 Y-51.74 Z0.00
G1 X-7.97 Y-51.82 Z0.00
G1 X-7.67 Y-51.90 Z0.00
G1 X-7.37 Y-51.97 Z0.00
G1 X-7.06 Y-52.04 Z0.00
G1 X-6.41 Y-52.16 Z0.00
G1 X-6.07 Y-52.22 Z0.00
G1 X-5.72 Y-52.28 Z0.00
G1 X-5.37 Y-52.33 Z0.00
G1 X-5.01 Y-52.38 Z0.00
G1 X-4.64 Y-52.42 Z0.00
G1 X-4.26 Y-52.46 Z0.00
G1 X-3.89 Y-52.50 Z0.00
G1 X-3.50 Y-52.53 Z0.00
G1 X-3.11 Y-52.56 Z0.00
G1 X-2.72 Y-52.59 Z0.00
G1 X-2.32 Y-52.61 Z0.00
G1 X-1.92 Y-52.63 Z0.00
G1 X-1.52 Y-52.65 Z0.00
G1 X-1.12 Y-52.66 Z0.00
G1 X-0.71 Y-52.67 Z0.00
G1 X-0.30 Y-52.67 Z0.00
G1 X0.10 Y-52.67 Z0.00
G1 X0.51 Y-52.67 Z0.00
G1 X0.92 Y-52.66 Z0.00
G1 X1.32 Y-52.65 Z0.00
G1 X1.72 Y-52.64 Z0.00
G1 X2.13 Y-52.62 Z0.00
G1 X2.52 Y-52.60 Z0.00
G1 X2.92 Y-52.58 Z0.00
G1 X3.31 Y-52.55 Z0.00
G1 X3.70 Y-52.52 Z0.00
G1 X4.08 Y-52.48 Z0.00
G1 X4.45 Y-52.44 Z0.00
G1 X4.83 Y-52.40 Z0.00
G1 X5.19 Y-52.35 Z0.00
G1 X5.55 Y-52.30 Z0.00
G1 X5.90 Y-52.25 Z0.00
G1 X6.24 Y-52.19 Z0.00
G1 X6.58 Y-52.13 Z0.00
G1 X6.90 Y-52.07 Z0.00
G1 X7.22 Y-52.00 Z0.00
G1 X7.53 Y-51.93 Z0.00
G1 X7.82 Y-51.86 Z0.00
G1 X8.39 Y-51.70 Z0.00
G1 X8.66 Y-51.62 Z0.00
G1 X8.91 Y-51.53 Z0.00
G1 X9.15 Y-51.44 Z0.00
G1 X9.39 Y-51.35 Z0.00
G1 X9.61 Y-51.25 Z0.00
G1 X9.81 Y-51.15 Z0.00
G1 X10.01 Y-51.05 Z0.00
G1 X10.19 Y-50.94 Z0.00
G1 X10.37 Y-50.82 Z0.00
G1 X10.54 Y-50.70 Z0.00
G1 X10.69 Y-50.57 Z0.00
G1 X10.83 Y-50.44 Z0.00
G1 X10.95 Y-50.31 Z0.00
G1 X11.05 Y-50.18 Z0.00
G1 X11.14 Y-50.04 Z0.00
G1 X11.21 Y-49.89 Z0.00
G1 X11.26 Y-49.75 Z0.00
G1 X11.30 Y-49.60 Z0.00
G1 X11.32 Y-49.45 Z0.00
G1 X11.33 Y-49.29 Z0.00
G1 X11.32 Y-49.14 Z0.00
G1 X11.29 Y-48.98 Z0.00
G1 X11.24 Y-48.81 Z0.00
G1 X11.18 Y-48.65 Z0.00
G1 X11.11 Y-48.48 Z0.00
G1 X11.02 Y-48.31 Z0.00
G1 X10.91 Y-48.13 Z0.00
G1 X10.79 Y-47.96 Z0.00
G1 X10.65 Y-47.78 Z0.00
G1 X10.50 Y-47.60 Z0.00
G1 X10.16 Y-47.23 Z0.00
G1 X9.97 Y-47.04 Z0.00
G1 X9.76 Y-46.85 Z0.00
G1 X9.31 Y-46.47 Z0.00
G1 X8.28 Y-45.68 Z0.00
G1 X8.00 Y-45.48 Z0.00
G1 X7.71 Y-45.28 Z0.00
G1 X7.10 Y-44.87 Z0.00
G1 X5.80 Y-44.04 Z0.00
G1 X3.01 Y-42.35 Z0.00
G1 X2.66 Y-42.14 Z0.00
G1 X2.31 Y-41.93 Z0.00
G1 X1.62 Y-41.50 Z0.00
G1 X0.27 Y-40.65 Z0.00
G1 X-0.05 Y-40.44 Z0.00
G1 X-0.37 Y-40.23 Z0.00
G1 X-0.97 Y-39.82 Z0.00
G1 X-2.09 Y-38.99 Z0.00
G1 X-2.32 Y-38.81 Z0.00
G1 X-2.55 Y-38.62 Z0.00
G1 X-2.97 Y-38.24 Z0.00
G1 X-3.17 Y-38.06 Z0.00
G1 X-3.35 Y-37.88 Z0.00
G1 X-3.69 Y-37.52 Z0.00
G1 X-3.84 Y-37.34 Z0.00
G1 X-3.97 Y-37.16 Z0.00
G1 X-4.10 Y-36.99 Z0.00
G1 X-4.21 Y-36.81 Z0.00
G1 X-4.30 Y-36.64 Z0.00
G1 X-4.39 Y-36.47 Z0.00
G1 X-4.46 Y-36.31 Z0.00
G1 X-4.52 Y-36.14 Z0.00
G1 X-4.56 Y-35.98 Z0.00
G1 X-4.59 Y-35.81 Z0.00
G1 X-4.60 Y-35.66 Z0.00
G1 X-4.60 Y-35.50 Z0.00
G1 X-4.59 Y-35.34 Z0.00
G1 X-4.56 Y-35.19 Z0.00
G1 X-4.52 Y-35.04 Z0.00
G1 X-4.46 Y-34.89 Z0.00
G1 X-4.39 Y-34.75 Z0.00
G1 X-4.31 Y-34.61 Z0.00
G1 X-4.21 Y-34.46 Z0.00
G1 X-4.09 Y-34.33 Z0.00
G1 X-3.97 Y-34.19 Z0.00
G1 X-3.83 Y-34.06 Z0.00
G1 X-3.67 Y-33.93 Z0.00
G1 X-3.50 Y-33.80 Z0.00
G1 X-3.32 Y-33.68 Z0.00
G1 X-3.13 Y-33.56 Z0.00
G1 X-2.92 Y-33.44 Z0.00
G1 X-2.70 Y-33.32 Z0.00
G1 X-2.47 Y-33.21 Z0.00
G1 X-2.22 Y-33.10 Z0.00
G1 X-1.70 Y-32.89 Z0.00
G1 X-1.42 Y-32.79 Z0.00
G1 X-1.13 Y-32.70 Z0.00
G1 X-0.83 Y-32.60 Z0.00
G1 X-0.52 Y-32.51 Z0.00
G1 X-0.20 Y-32.42 Z0.00
G1 X0.13 Y-32.34 Z0.00
G1 X0.81 Y-32.18 Z0.00
G1 X1.17 Y-32.10 Z0.00
G1 X1.53 Y-32.03 Z0.00
G1 X1.90 Y-31.96 Z0.00
G1 X2.27 Y-31.90 Z0.00
G1 X2.65 Y-31.84 Z0.00
G1 X3.04 Y-31.78 Z0.00
G1 X3.82 Y-31.67 Z0.00
G1 X4.22 Y-31.63 Z0.00
G1 X4.62 Y-31.58 Z0.00
G1 X5.03 Y-31.54 Z0.00
G1 X5.43 Y-31.50 Z0.00
G1 X5.84 Y-31.47 Z0.00
G1 X6.25 Y-31.44 Z0.00
G1 X6.66 Y-31.41 Z0.00
G1 X7.07 Y-31.39 Z0.00
G1 X7.52 Y-31.36 Z0.00
G1 X7.96 Y-31.35 Z0.00
G1 X8.40 Y-31.33 Z0.00
G1 X8.83 Y-31.32 Z0.00
G1 X9.27 Y-31.32 Z0.00
G1 X9.70 Y-31.31 Z0.00
G1 X10.12 Y-31.31 Z0.00
G1 X10.54 Y-31.32 Z0.00
G1 X10.96 Y-31.33 Z0.00
G1 X11.36 Y-31.34 Z0.00
G1 X11.76 Y-31.36 Z0.00
G1 X12.15 Y-31.38 Z0.00
G1 X12.53 Y-31.41 Z0.00
G1 X12.91 Y-31.44 Z0.00
G1 X13.27 Y-31.47 Z0.00
G1 X13.62 Y-31.51 Z0.00
G1 X13.96 Y-31.55 Z0.00
G1 X14.29 Y-31.59 Z0.00
G1 X14.61 Y-31.64 Z0.00
G1 X14.92 Y-31.69 Z0.00
G1 X15.21 Y-31.75 Z0.00
G1 X15.49 Y-31.81 Z0.00
G1 X15.75 Y-31.87 Z0.00
G1 X16.00 Y-31.94 Z0.00
G1 X16.24 Y-32.01 Z0.00
G1 X16.46 Y-32.08 Z0.00
G1 X16.67 Y-32.16 Z0.00
G1 X16.86 Y-32.23 Z0.00
G1 X17.03 Y-32.32 Z0.00
G1 X17.19 Y-32.40 Z0.00
G1 X17.33 Y-32.49 Z0.00
G1 X17.46 Y-32.59 Z0.00
G1 X17.57 Y-32.68 Z0.00
G1 X17.66 Y-32.78 Z0.00
G1 X17.74 Y-32.88 Z0.00
G1 X17.80 Y-32.99 Z0.00
G1 X17.84 Y-33.09 Z0.00
G1 X17.87 Y-33.20 Z0.00
G1 X17.87 Y-33.32 Z0.00
G1 X17.87 Y-33.43 Z0.00
G1 X17.84 Y-33.55 Z0.00
G1 X17.80 Y-33.67 Z0.00
G1 X17.74 Y-33.79 Z0.00
G1 X17.67 Y-33.92 Z0.00
G1 X17.58 Y-34.05 Z0.00
G1 X17.47 Y-34.18 Z0.00
G1 X17.35 Y-34.31 Z0.00
G1 X17.21 Y-34.44 Z0.00
G1 X17.06 Y-34.58 Z0.00
G1 X16.90 Y-34.72 Z0.00
G1 X16.52 Y-35.00 Z0.00
G1 X16.31 Y-35.14 Z0.00
G1 X16.09 Y-35.29 Z0.00
G1 X15.61 Y-35.58 Z0.00
G1 X15.36 Y-35.73 Z0.00
G1 X15.09 Y-35.88 Z0.00
G1 X14.52 Y-36.18 Z0.00
G1 X13.28 Y-36.81 Z0.00
G1 X12.96 Y-36.96 Z0.00
G1 X12.63 Y-37.12 Z0.00
G1 X11.95 Y-37.43 Z0.00
G1 X10.56 Y-38.05 Z0.00
G1 X7.75 Y-39.30 Z0.00
G1 X7.40 Y-39.46 Z0.00
G1 X7.07 Y-39.61 Z0.00
G1 X6.41 Y-39.91 Z0.00
G1 X5.17 Y-40.51 Z0.00
G1 X4.88 Y-40.66 Z0.00
G1 X4.60 Y-40.80 Z0.00
G1 X4.07 Y-41.09 Z0.00
G1 X3.83 Y-41.23 Z0.00
G1 X3.59 Y-41.37 Z0.00
G1 X3.15 Y-41.64 Z0.00
G1 X2.95 Y-41.77 Z0.00
G1 X2.76 Y-41.90 Z0.00
G1 X2.59 Y-42.03 Z0.00
G1 X2.42 Y-42.16 Z0.00
G1 X2.28 Y-42.28 Z0.00
G1 X2.15 Y-42.40 Z0.00
G1 X2.03 Y-42.52 Z0.00
G1 X1.93 Y-42.64 Z0.00
G1 X1.84 Y-42.75 Z0.00
G1 X1.77 Y-42.87 Z0.00
G1 X1.71 Y-42.98 Z0.00
G1 X1.67 Y-43.08 Z0.00
G1 X1.65 Y-43.19 Z0.00
G1 X1.64 Y-43.29 Z0.00
G1 X1.65 Y-43.39 Z0.00
G1 X1.67 Y-43.48 Z0.00
G1 X1.71 Y-43.58 Z0.00
G1 X1.77 Y-43.67 Z0.00
G1 X1.84 Y-43.75 Z0.00
G1 X1.93 Y-43.83 Z0.00
G1 X2.03 Y-43.91 Z0.00
G1 X2.15 Y-43.99 Z0.00
G1 X2.29 Y-44.07 Z0.00
G1 X2.44 Y-44.14 Z0.00
G1 X2.60 Y-44.20 Z0.00
G1 X2.79 Y-44.26 Z0.00
G1 X2.98 Y-44.32 Z0.00
G1 X3.20 Y-44.38 Z0.00
G1 X3.42 Y-44.43 Z0.00
G1 X3.66 Y-44.48 Z0.00
G1 X3.91 Y-44.53 Z0.00
G1 X4.18 Y-44.57 Z0.00
G1 X4.44 Y-44.60 Z0.00
G1 X4.71 Y-44.63 Z0.00
G1 X5.00 Y-44.66 Z0.00
G1 X5.29 Y-44.69 Z0.00
G1 X5.59 Y-44.71 Z0.00
G1 X5.90 Y-44.73 Z0.00
G1 X6.22 Y-44.74 Z0.00
G1 X6.55 Y-44.75 Z0.00
G1 X6.89 Y-44.76 Z0.00
G1 X7.23 Y-44.77 Z0.00
G1 X7.59 Y-44.77 Z0.00
G1 X7.95 Y-44.76 Z0.00
G1 X8.31 Y-44.76 Z0.00
G1 X8.68 Y-44.75 Z0.00
G1 X9.06 Y-44.73 Z0.00
G1 X9.44 Y-44.72 Z0.00
G1 X9.83 Y-44.70 Z0.00
G1 X10.22 Y-44.67 Z0.00
G1 X10.61 Y-44.64 Z0.00
G1 X11.00 Y-44.61 Z0.00
G1 X11.40 Y-44.58 Z0.00
G1 X11.80 Y-44.54 Z0.00
G1 X12.60 Y-44.45 Z0.00
G1 X13.00 Y-44.40 Z0.00
G1 X13.40 Y-44.35 Z0.00
G1 X13.80 Y-44.29 Z0.00
G1 X14.20 Y-44.23 Z0.00
G1 X14.60 Y-44.16 Z0.00
G1 X14.99 Y-44.10 Z0.00
G1 X15.77 Y-43.95 Z0.00
G1 X16.15 Y-43.87 Z0.00
G1 X16.52 Y-43.79 Z0.00
G1 X17.26 Y-43.61 Z0.00
G1 X17.62 Y-43.52 Z0.00
G1 X17.98 Y-43.42 Z0.00
G1 X18.66 Y-43.22 Z0.00
G1 X18.99 Y-43.11 Z0.00
G1 X19.31 Y-43.00 Z0.00
G1 X19.63 Y-42.88 Z0.00
G1 X19.93 Y-42.77 Z0.00
G1 X20.22 Y-42.65 Z0.00
G1 X20.51 Y-42.52 Z0.00
G1 X21.04 Y-42.26 Z0.00
G1 X21.29 Y-42.13 Z0.00
G1 X21.53 Y-41.99 Z0.00
G1 X21.76 Y-41.85 Z0.00
G1 X21.97 Y-41.70 Z0.00
G1 X22.18 Y-41.56 Z0.00
G1 X22.37 Y-41.41 Z0.00
G1 X22.54 Y-41.25 Z0.00
G1 X22.71 Y-41.10 Z0.00
G1 X22.86 Y-40.94 Z0.00
G1 X23.00 Y-40.77 Z0.00
G1 X23.12 Y-40.61 Z0.00
G1 X23.23 Y-40.44 Z0.00
G1 X23.33 Y-40.27 Z0.00
G1 X23.41 Y-40.10 Z0.00
G1 X23.48 Y-39.92 Z0.00
G1 X23.53 Y-39.74 Z0.00
G1 X23.57 Y-39.54 Z0.00
G1 X23.60 Y-39.34 Z0.00
G1 X23.61 Y-39.14 Z0.00
G1 X23.60 Y-38.93 Z0.00
G1 X23.57 Y-38.72 Z0.00
G1 X23.53 Y-38.51 Z0.00
G1 X23.48 Y-38.29 Z0.00
G1 X23.40 Y-38.08 Z0.00
G1 X23.32 Y-37.85 Z0.00
G1 X23.21 Y-37.63 Z0.00
G1 X23.09 Y-37.41 Z0.00
G1 X22.96 Y-37.18 Z0.00
G1 X22.81 Y-36.95 Z0.00
G1 X22.64 Y-36.72 Z0.00
G1 X22.27 Y-36.24 Z0.00
G1 X22.06 Y-36.01 Z0.00
G1 X21.84 Y-35.76 Z0.00
G1 X21.36 Y-35.28 Z0.00
G1 X20.27 Y-34.28 Z0.00
G1 X19.98 Y-34.03 Z0.00
G1 X19.67 Y-33.78 Z0.00
G1 X19.03 Y-33.27 Z0.00
G1 X17.67 Y-32.23 Z0.00
G1 X17.32 Y-31.97 Z0.00
G1 X16.96 Y-31.71 Z0.00
G1 X16.24 Y-31.19 Z0.00
G1 X14.77 Y-30.14 Z0.00
G1 X14.40 Y-29.88 Z0.00
G1 X14.04 Y-29.61 Z0.00
G1 X13.32 Y-29.09 Z0.00
G1 X11.92 Y-28.04 Z0.00
G1 X11.59 Y-27.78 Z0.00
G1 X11.26 Y-27.52 Z0.00
G1 X10.63 Y-27.01 Z0.00
G1 X10.32 Y-26.75 Z0.00
G1 X10.03 Y-26.50 Z0.00
G1 X9.47 Y-25.99 Z0.00
G1 X9.20 Y-25.74 Z0.00
G1 X8.95 Y-25.49 Z0.00
G1 X8.48 Y-24.99 Z0.00
G1 X8.27 Y-24.75 Z0.00
G1 X8.06 Y-24.50 Z0.00
G1 X7.70 Y-24.02 Z0.00
G1 X7.55 Y-23.80 Z0.00
G1 X7.41 Y-23.58 Z0.00
G1 X7.29 Y-23.36 Z0.00
G1 X7.18 Y-23.14 Z0.00
G1 X7.08 Y-22.93 Z0.00
G1 X6.99 Y-22.71 Z0.00
G1 X6.92 Y-22.50 Z0.00
G1 X6.87 Y-22.30 Z0.00
G1 X6.83 Y-22.09 Z0.00
G1 X6.80 Y-21.88 Z0.00
G1 X6.78 Y-21.68 Z0.00
G1 X6.78 Y-21.48 Z0.00
G1 X6.80 Y-21.29 Z0.00
G1 X6.83 Y-21.09 Z0.00
G1 X6.87 Y-20.90 Z0.00
G1 X6.93 Y-20.71 Z0.00
G1 X7.00 Y-20.52 Z0.00
G1 X7.09 Y-20.34 Z0.00
G1 X7.19 Y-20.15 Z0.00
G1 X7.31 Y-19.98 Z0.00
G1 X7.43 Y-19.80 Z0.00
G1 X7.58 Y-19.62 Z0.00
G1 X7.73 Y-19.45 Z0.00
G1 X7.90 Y-19.29 Z0.00
G1 X8.09 Y-19.12 Z0.00
G1 X8.28 Y-18.96 Z0.00
G1 X8.49 Y-18.80 Z0.00
G1 X8.71 Y-18.64 Z0.00
G1 X8.94 Y-18.49 Z0.00
G1 X9.19 Y-18.34 Z0.00
G1 X9.71 Y-18.05 Z0.00
G1 X9.99 Y-17.91 Z0.00
G1 X10.28 Y-17.77 Z0.00
G1 X10.88 Y-17.51 Z0.00
G1 X11.20 Y-17.38 Z0.00
G1 X11.53 Y-17.26 Z0.00
G1 X12.20 Y-17.02 Z0.00
G1 X12.55 Y-16.91 Z0.00
G1 X12.91 Y-16.79 Z0.00
G1 X13.64 Y-16.58 Z0.00
G1 X14.01 Y-16.48 Z0.00
G1 X14.39 Y-16.39 Z0.00
G1 X15.16 Y-16.20 Z0.00
G1 X15.55 Y-16.12 Z0.00
G1 X15.94 Y-16.03 Z0.00
G1 X16.73 Y-15.88 Z0.00
G1 X17.13 Y-15.81 Z0.00
G1 X17.52 Y-15.74 Z0.00
G1 X18.31 Y-15.61 Z0.00
G1 X18.71 Y-15.55 Z0.00
G1 X19.10 Y-15.50 Z0.00
G1 X19.49 Y-15.45 Z0.00
G1 X19.88 Y-15.40 Z0.00
G1 X20.26 Y-15.36 Z0.00
G1 X20.64 Y-15.32 Z0.00
G1 X21.02 Y-15.28 Z0.00
G1 X21.39 Y-15.25 Z0.00
G1 X21.74 Y-15.22 Z0.00
G1 X22.10 Y-15.19 Z0.00
G1 X22.44 Y-15.17 Z0.00
G1 X22.78 Y-15.15 Z0.00
G1 X23.11 Y-15.13 Z0.00
G1 X23.43 Y-15.12 Z0.00
G1 X23.75 Y-15.11 Z0.00
G1 X24.05 Y-15.10 Z0.00
G1 X24.35 Y-15.10 Z0.00
G1 X24.64 Y-15.09 Z0.00
G1 X24.91 Y-15.10 Z0.00
G1 X25.18 Y-15.10 Z0.00
G1 X25.44 Y-15.11 Z0.00
G1 X25.68 Y-15.12 Z0.00
G1 X25.92 Y-15.14 Z0.00
G1 X26.14 Y-15.16 Z0.00
G1 X26.35 Y-15.18 Z0.00
G1 X26.55 Y-15.20 Z0.00
G1 X26.74 Y-15.23 Z0.00
G1 X26.91 Y-15.26 Z0.00
G1 X27.08 Y-15.29 Z0.00
G1 X27.22 Y-15.32 Z0.00
G1 X27.36 Y-15.36 Z0.00
G1 X27.48 Y-15.40 Z0.00
G1 X27.59 Y-15.44 Z0.00
G1 X27.69 Y-15.49 Z0.00
G1 X27.77 Y-15.54 Z0.00
G1 X27.83 Y-15.59 Z0.00
G1 X27.89 Y-15.64 Z0.00
G1 X27.93 Y-15.70 Z0.00
G1 X27.95 Y-15.76 Z0.00
G1 X27.97 Y-15.82 Z0.00
G1 X27.96 Y-15.88 Z0.00
G1 X27.95 Y-15.95 Z0.00
G1 X27.92 Y-16.01 Z0.00
G1 X27.87 Y-16.08 Z0.00
G1 X27.82 Y-16.16 Z0.00
G1 X27.74 Y-16.23 Z0.00
G1 X27.66 Y-16.30 Z0.00
G1 X27.56 Y-16.38 Z0.00
G1 X27.45 Y-16.46 Z0.00
G1 X27.33 Y-16.54 Z0.00
G1 X27.04 Y-16.71 Z0.00
G1 X26.88 Y-16.80 Z0.00
G1 X26.71 Y-16.89 Z0.00
G1 X26.33 Y-17.07 Z0.00
G1 X26.12 Y-17.16 Z0.00
G1 X25.90 Y-17.26 Z0.00
G1 X25.43 Y-17.45 Z0.00
G1 X24.39 Y-17.85 Z0.00
G1 X21.93 Y-18.69 Z0.00
G1 X21.58 Y-18.81 Z0.00
G1 X21.21 Y-18.93 Z0.00
G1 X20.47 Y-19.16 Z0.00
G1 X18.98 Y-19.64 Z0.00
G1 X16.04 Y-20.57 Z0.00
G1 X15.69 Y-20.69 Z0.00
G1 X15.35 Y-20.80 Z0.00
G1 X14.68 Y-21.02 Z0.00
G1 X13.46 Y-21.46 Z0.00
G1 X13.18 Y-21.56 Z0.00
G1 X12.90 Y-21.67 Z0.00
G1 X12.40 Y-21.87 Z0.00
G1 X12.16 Y-21.97 Z0.00
G1 X11.94 Y-22.06 Z0.00
G1 X11.53 Y-22.25 Z0.00
G1 X11.35 Y-22.34 Z0.00
G1 X11.18 Y-22.43 Z0.00
G1 X11.02 Y-22.52 Z0.00
G1 X10.88 Y-22.60 Z0.00
G1 X10.76 Y-22.68 Z0.00
G1 X10.65 Y-22.76 Z0.00
G1 X10.55 Y-22.84 Z0.00
G1 X10.48 Y-22.91 Z0.00
G1 X10.41 Y-22.98 Z0.00
G1 X10.37 Y-23.05 Z0.00
G1 X10.34 Y-23.12 Z0.00
G1 X10.32 Y-23.18 Z0.00
G1 X10.33 Y-23.24 Z0.00
G1 X10.34 Y-23.30 Z0.00
G1 X10.38 Y-23.35 Z0.00
G1 X10.43 Y-23.40 Z0.00
G1 X10.50 Y-23.45 Z0.00
G1 X10.58 Y-23.50 Z0.00
G1 X10.68 Y-23.54 Z0.00
G1 X10.79 Y-23.58 Z0.00
G1 X10.93 Y-23.61 Z0.00
G1 X11.07 Y-23.64 Z0.00
G1 X11.23 Y-23.67 Z0.00
G1 X11.41 Y-23.70 Z0.00
G1 X11.60 Y-23.72 Z0.00
G1 X11.81 Y-23.74 Z0.00
G1 X12.03 Y-23.75 Z0.00
G1 X12.26 Y-23.76 Z0.00
G1 X12.51 Y-23.77 Z0.00
G1 X12.77 Y-23.77 Z0.00
G1 X13.04 Y-23.77 Z0.00
G1 X13.32 Y-23.77 Z0.00
G1 X13.60 Y-23.76 Z0.00
G1 X13.89 Y-23.75 Z0.00
G1 X14.18 Y-23.73 Z0.00
G1 X14.49 Y-23.72 Z0.00
G1 X14.80 Y-23.70 Z0.00
G1 X15.12 Y-23.67 Z0.00
G1 X15.45 Y-23.64 Z0.00
G1 X15.78 Y-23.61 Z0.00
G1 X16.13 Y-23.58 Z0.00
G1 X16.47 Y-23.54 Z0.00
G1 X16.83 Y-23.50 Z0.00
G1 X17.19 Y-23.45 Z0.00
G1 X17.55 Y-23.40 Z0.00
G1 X17.92 Y-23.35 Z0.00
G1 X18.67 Y-23.23 Z0.00
G1 X19.04 Y-23.17 Z0.00
G1 X19.42 Y-23.10 Z0.00
G1 X20.19 Y-22.96 Z0.00
G1 X20.57 Y-22.88 Z0.00
G1 X20.95 Y-22.80 Z0.00
G1 X21.71 Y-22.62 Z0.00
G1 X22.09 Y-22.53 Z0.00
G1 X22.47 Y-22.43 Z0.00
G1 X23.21 Y-22.23 Z0.00
G1 X23.57 Y-22.13 Z0.00
G1 X23.93 Y-22.01 Z0.00
G1 X24.64 Y-21.78 Z0.00
G1 X24.99 Y-21.66 Z0.00
G1 X25.32 Y-21.54 Z0.00
G1 X25.98 Y-21.28 Z0.00
G1 X26.29 Y-21.14 Z0.00
G1 X26.60 Y-21.01 Z0.00
G1 X27.19 Y-20.72 Z0.00
G1 X27.47 Y-20.57 Z0.00
G1 X27.73 Y-20.42 Z0.00
G1 X27.99 Y-20.26 Z0.00
G1 X28.24 Y-20.11 Z0.00
G1 X28.48 Y-19.94 Z0.00
G1 X28.70 Y-19.78 Z0.00
G1 X29.12 Y-19.44 Z0.00
G1 X29.31 Y-19.27 Z0.00
G1 X29.48 Y-19.09 Z0.00
G1 X29.64 Y-18.91 Z0.00
G1 X29.79 Y-18.72 Z0.00
G1 X29.93 Y-18.54 Z0.00
G1 X30.05 Y-18.35 Z0.00
G1 X30.16 Y-18.16 Z0.00
G1 X30.26 Y-17.96 Z0.00
G1 X30.34 Y-17.76 Z0.00
G1 X30.41 Y-17.56 Z0.00
G1 X30.46 Y-17.36 Z0.00
G1 X30.50 Y-17.15 Z0.00
G1 X30.52 Y-16.94 Z0.00
G1 X30.53 Y-16.73 Z0.00
G1 X30.53 Y-16.52 Z0.00
G1 X30.51 Y-16.30 Z0.00
G1 X30.47 Y-16.07 Z0.00
G1 X30.42 Y-15.83 Z0.00
G1 X30.35 Y-15.58 Z0.00
G1 X30.27 Y-15.34 Z0.00
G1 X30.16 Y-15.09 Z0.00
G1 X30.05 Y-14.84 Z0.00
G1 X29.91 Y-14.59 Z0.00
G1 X29.76 Y-14.33 Z0.00
G1 X29.60 Y-14.07 Z0.00
G1 X29.42 Y-13.81 Z0.00
G1 X29.01 Y-13.29 Z0.00
G1 X28.79 Y-13.02 Z0.00
G1 X28.56 Y-12.75 Z0.00
G1 X28.04 Y-12.21 Z0.00
G1 X27.77 Y-11.94 Z0.00
G1 X27.48 Y-11.66 Z0.00
G1 X26.88 Y-11.11 Z0.00
G1 X25.55 Y-9.98 Z0.00
G1 X22.57 Y-7.69 Z0.00
G1 X22.18 Y-7.40 Z0.00
G1 X21.79 Y-7.12 Z0.00
G1 X21.00 Y-6.54 Z0.00
G1 X19.44 Y-5.38 Z0.00
G1 X19.06 Y-5.09 Z0.00
G1 X18.68 Y-4.81 Z0.00
G1 X17.93 Y-4.23 Z0.00
G1 X16.51 Y-3.09 Z0.00
G1 X16.18 Y-2.81 Z0.00
G1 X15.85 Y-2.53 Z0.00
G1 X15.23 Y-1.97 Z0.00
G1 X14.93 Y-1.70 Z0.00
G1 X14.65 Y-1.42 Z0.00
G1 X14.12 Y-0.88 Z0.00
G1 X13.87 Y-0.61 Z0.00
G1 X13.63 Y-0.34 Z0.00
G1 X13.41 Y-0.07 Z0.00
G1 X13.20 Y0.19 Z0.00
G1 X13.01 Y0.46 Z0.00
G1 X12.83 Y0.72 Z0.00
G1 X12.67 Y0.98 Z0.00
G1 X12.52 Y1.23 Z0.00
G1 X12.40 Y1.47 Z0.00
G1 X12.28 Y1.70 Z0.00
G1 X12.19 Y1.94 Z0.00
G1 X12.10 Y2.17 Z0.00
G1 X12.04 Y2.39 Z0.00
G1 X11.98 Y2.62 Z0.00
G1 X11.94 Y2.84 Z0.00
G1 X11.92 Y3.07 Z0.00
G1 X11.90 Y3.28 Z0.00
G1 X11.91 Y3.50 Z0.00
G1 X11.93 Y3.71 Z0.00
G1 X11.96 Y3.92 Z0.00
G1 X12.01 Y4.13 Z0.00
G1 X12.07 Y4.34 Z0.00
G1 X12.14 Y4.54 Z0.00
G1 X12.23 Y4.74 Z0.00
G1 X12.34 Y4.94 Z0.00
G1 X12.45 Y5.13 Z0.00
G1 X12.58 Y5.32 Z0.00
G1 X12.73 Y5.51 Z0.00
G1 X12.89 Y5.69 Z0.00
G1 X13.06 Y5.88 Z0.00
G1 X13.24 Y6.06 Z0.00
G1 X13.44 Y6.23 Z0.00
G1 X13.65 Y6.40 Z0.00
G1 X13.87 Y6.57 Z0.00
G1 X14.10 Y6.74 Z0.00
G1 X14.34 Y6.90 Z0.00
G1 X14.60 Y7.06 Z0.00
G1 X14.86 Y7.22 Z0.00
G1 X15.42 Y7.52 Z0.00
G1 X15.72 Y7.66 Z0.00
G1 X16.02 Y7.81 Z0.00
G1 X16.65 Y8.08 Z0.00
G1 X16.98 Y8.21 Z0.00
G1 X17.31 Y8.34 Z0.00
G1 X17.99 Y8.59 Z0.00
G1 X18.34 Y8.70 Z0.00
G1 X18.70 Y8.82 Z0.00
G1 X19.42 Y9.04 Z0.00
G1 X20.90 Y9.43 Z0.00
G1 X21.28 Y9.51 Z0.00
G1 X21.65 Y9.60 Z0.00
G1 X22.40 Y9.76 Z0.00
G1 X22.77 Y9.83 Z0.00
G1 X23.14 Y9.90 Z0.00
G1 X23.87 Y10.03 Z0.00
G1 X24.23 Y10.09 Z0.00
G1 X24.58 Y10.15 Z0.00
G1 X24.94 Y10.20 Z0.00
G1 X25.28 Y10.25 Z0.00
G1 X25.62 Y10.29 Z0.00
G1 X25.96 Y10.34 Z0.00
G1 X26.60 Y10.41 Z0.00
G1 X26.91 Y10.44 Z0.00
G1 X27.21 Y10.47 Z0.00
G1 X27.50 Y10.49 Z0.00
G1 X27.78 Y10.51 Z0.00
G1 X28.05 Y10.53 Z0.00
G1 X28.31 Y10.54 Z0.00
G1 X28.56 Y10.55 Z0.00
G1 X28.81 Y10.56 Z0.00
G1 X29.04 Y10.56 Z0.00
G1 X29.26 Y10.56 Z0.00
G1 X29.47 Y10.56 Z0.00
G1 X29.66 Y10.56 Z0.00
G1 X29.85 Y10.55 Z0.00
G1 X30.02 Y10.54 Z0.00
G1 X30.18 Y10.52 Z0.00
G1 X30.33 Y10.50 Z0.00
G1 X30.46 Y10.48 Z0.00
G1 X30.58 Y10.46 Z0.00
G1 X30.69 Y10.43 Z0.00
G1 X30.78 Y10.41 Z0.00
G1 X30.86 Y10.37 Z0.00
G1 X30.93 Y10.34 Z0.00
G1 X30.98 Y10.30 Z0.00
G1 X31.02 Y10.26 Z0.00
G1 X31.05 Y10.22 Z0.00
G1 X31.06 Y10.18 Z0.00
G1 X31.05 Y10.13 Z0.00
G1 X31.04 Y10.08 Z0.00
G1 X31.01 Y10.03 Z0.00
G1 X30.96 Y9.97 Z0.00
G1 X30.90 Y9.91 Z0.00
G1 X30.83 Y9.86 Z0.00
G1 X30.74 Y9.79 Z0.00
G1 X30.64 Y9.73 Z0.00
G1 X30.52 Y9.66 Z0.00
G1 X30.40 Y9.60 Z0.00
G1 X30.25 Y9.53 Z0.00
G1 X30.10 Y9.45 Z0.00
G1 X29.75 Y9.31 Z0.00
G1 X29.56 Y9.23 Z0.00
G1 X29.36 Y9.15 Z0.00
G1 X28.92 Y8.99 Z0.00
G1 X27.90 Y8.64 Z0.00
G1 X27.62 Y8.55 Z0.00
G1 X27.34 Y8.46 Z0.00
G1 X26.73 Y8.28 Z0.00
G1 X25.44 Y7.90 Z0.00
G1 X22.59 Y7.10 Z0.00
G1 X22.19 Y6.99 Z0.00
G1 X21.79 Y6.88 Z0.00
G1 X20.98 Y6.66 Z0.00
G1 X19.37 Y6.22 Z0.00
G1 X18.98 Y6.11 Z0.00
G1 X18.58 Y6.00 Z0.00
G1 X17.81 Y5.78 Z0.00
G1 X16.35 Y5.36 Z0.00
G1 X16.00 Y5.26 Z0.00
G1 X15.66 Y5.15 Z0.00
G1 X15.02 Y4.95 Z0.00
G1 X14.71 Y4.86 Z0.00
G1 X14.41 Y4.76 Z0.00
G1 X13.85 Y4.57 Z0.00
G1 X13.59 Y4.48 Z0.00
G1 X13.34 Y4.39 Z0.00
G1 X12.88 Y4.21 Z0.00
G1 X12.68 Y4.13 Z0.00
G1 X12.48 Y4.04 Z0.00
G1 X12.14 Y3.89 Z0.00
G1 X11.99 Y3.81 Z0.00
G1 X11.86 Y3.74 Z0.00
G1 X11.74 Y3.67 Z0.00
G1 X11.64 Y3.60 Z0.00
G1 X11.55 Y3.53 Z0.00
G1 X11.49 Y3.47 Z0.00
G1 X11.43 Y3.41 Z0.00
G1 X11.40 Y3.35 Z0.00
G1 X11.38 Y3.29 Z0.00
G1 X11.37 Y3.24 Z0.00
G1 X11.39 Y3.19 Z0.00
G1 X11.42 Y3.14 Z0.00
G1 X11.46 Y3.10 Z0.00
G1 X11.52 Y3.06 Z0.00
G1 X11.60 Y3.02 Z0.00
G1 X11.69 Y2.99 Z0.00
G1 X11.80 Y2.96 Z0.00
G1 X11.93 Y2.93 Z0.00
G1 X12.07 Y2.91 Z0.00
G1 X12.22 Y2.89 Z0.00
G1 X12.39 Y2.87 Z0.00
G0 X-39.73 Y-0.20 Z0.00
G1 X-39.73 Y-0.20 Z0.00
G1 X-39.74 Y0.68 Z0.00
G1 X-39.64 Y0.98 Z0.00
G1 X-39.55 Y1.08 Z0.00
G1 X-39.35 Y1.18 Z0.00
G1 X-39.15 Y1.18 Z0.00
G1 X-38.96 Y1.08 Z0.00
G1 X-38.86 Y0.99 Z0.00
G1 X-38.76 Y0.69 Z0.00
G1 X-38.75 Y-0.19 Z0.00
G1 X-40.81 Y-0.21 Z0.00
G0 X-39.74 Y0.49 Z0.00
G1 X-39.74 Y0.49 Z0.00
G1 X-40.82 Y1.16 Z0.00
G0 X-40.82 Y1.55 Z0.00
G1 X-40.82 Y1.55 Z0.00
G1 X-38.77 Y2.36 Z0.00
G1 X-40.84 Y3.12 Z0.00
G0 X-40.14 Y1.85 Z0.00
G1 X-40.14 Y1.85 Z0.00
G1 X-40.15 Y2.83 Z0.00
G0 X-38.79 Y3.63 Z0.00
G1 X-38.79 Y3.63 Z0.00
G1 X-40.84 Y3.61 Z0.00
G1 X-40.85 Y4.30 Z0.00
G1 X-40.76 Y4.59 Z0.00
G1 X-40.56 Y4.79 Z0.00
G1 X-40.37 Y4.89 Z0.00
G1 X-40.07 Y4.99 Z0.00
G1 X-39.58 Y4.99 Z0.00
G1 X-39.29 Y4.90 Z0.00
G1 X-39.09 Y4.80 Z0.00
G1 X-38.90 Y4.61 Z0.00
G1 X-38.79 Y4.32 Z0.00
G1 X-38.79 Y3.63 Z0.00
G1 X-38.79 Y3.63 Z0.00
G0 X-38.81 Y5.69 Z0.00
G1 X-38.81 Y5.69 Z0.00
G1 X-40.86 Y5.67 Z0.00
G0 X-40.87 Y6.16 Z0.00
G1 X-40.87 Y6.16 Z0.00
G1 X-38.82 Y6.96 Z0.00
G1 X-40.89 Y7.72 Z0.00
G0 X-40.20 Y7.44 Z0.00
G1 X-40.20 Y7.44 Z0.00
G1 X-40.19 Y6.46 Z0.00
G0 X-38.83 Y8.23 Z0.00
G1 X-38.83 Y8.23 Z0.00
G1 X-40.89 Y8.21 Z0.00
G1 X-40.90 Y9.39 Z0.00
G0 X-40.24 Y11.40 Z0.00
G1 X-40.24 Y11.40 Z0.00
G1 X-40.43 Y11.40 Z0.00
G1 X-40.73 Y11.50 Z0.00
G1 X-40.83 Y11.59 Z0.00
G1 X-40.93 Y11.79 Z0.00
G1 X-40.93 Y11.98 Z0.00
G1 X-40.83 Y12.18 Z0.00
G1 X-40.74 Y12.28 Z0.00
G1 X-40.44 Y12.38 Z0.00
G1 X-38.88 Y12.40 Z0.00
G0 X-40.16 Y13.07 Z0.00
G1 X-40.16 Y13.07 Z0.00
G1 X-40.45 Y13.16 Z0.00
G1 X-40.65 Y13.26 Z0.00
G1 X-40.85 Y13.45 Z0.00
G1 X-40.95 Y13.65 Z0.00
G1 X-40.95 Y14.04 Z0.00
G1 X-40.85 Y14.24 Z0.00
G1 X-40.66 Y14.43 Z0.00
G1 X-40.46 Y14.53 Z0.00
G1 X-40.17 Y14.63 Z0.00
G1 X-39.68 Y14.64 Z0.00
G1 X-39.39 Y14.54 Z0.00
G1 X-39.19 Y14.45 Z0.00
G1 X-38.99 Y14.25 Z0.00
G1 X-38.89 Y14.06 Z0.00
G1 X-38.89 Y13.67 Z0.00
G1 X-38.89 Y13.67 Z0.00
G1 X-38.98 Y13.47 Z0.00
G1 X-39.18 Y13.27 Z0.00
G1 X-39.37 Y13.17 Z0.00
G1 X-39.67 Y13.07 Z0.00
G1 X-40.16 Y13.07 Z0.00
G0 X-38.90 Y15.04 Z0.00
G1 X-38.90 Y15.04 Z0.00
G1 X-39.89 Y15.81 Z0.00
G1 X-40.97 Y15.80 Z0.00
G0 X-39.89 Y15.81 Z0.00
G1 X-39.89 Y15.81 Z0.00
G1 X-38.92 Y16.61 Z0.00
G1 X-39.89 Y15.81 Z0.00
G1 X-38.92 Y16.61 Z0.00
G0 X-40.74 Y-7.01 Z0.00
G1 X-40.74 Y-7.01 Z0.00
G1 X-38.68 Y-6.99 Z0.00
G0 X-39.67 Y-5.83 Z0.00
G1 X-39.67 Y-5.83 Z0.00
G1 X-39.68 Y-5.05 Z0.00
G0 X-38.69 Y-6.31 Z0.00
G1 X-38.69 Y-6.31 Z0.00
G1 X-38.67 Y-7.68 Z0.00
G0 X-38.96 Y-8.07 Z0.00
G1 X-38.96 Y-8.07 Z0.00
G1 X-38.77 Y-8.27 Z0.00
G1 X-38.66 Y-8.56 Z0.00
G1 X-38.66 Y-8.95 Z0.00
G1 X-38.76 Y-9.25 Z0.00
G1 X-38.95 Y-9.45 Z0.00
G1 X-39.15 Y-9.45 Z0.00
G1 X-39.34 Y-9.35 Z0.00
G1 X-39.44 Y-9.25 Z0.00
G1 X-39.54 Y-9.06 Z0.00
G1 X-39.74 Y-8.47 Z0.00
G1 X-39.84 Y-8.28 Z0.00
G1 X-39.94 Y-8.18 Z0.00
G1 X-40.14 Y-8.09 Z0.00
G1 X-40.43 Y-8.09 Z0.00
G1 X-40.63 Y-8.29 Z0.00
G1 X-40.72 Y-8.58 Z0.00
G1 X-40.72 Y-8.97 Z0.00
G1 X-40.62 Y-9.27 Z0.00
G1 X-40.42 Y-9.46 Z0.00
G0 X-38.65 Y-10.13 Z0.00
G1 X-38.65 Y-10.13 Z0.00
G1 X-40.71 Y-10.15 Z0.00
G0 X-38.64 Y-10.72 Z0.00
G1 X-38.64 Y-10.72 Z0.00
G1 X-40.69 Y-11.23 Z0.00
G1 X-38.63 Y-11.69 Z0.00
G1 X-40.68 Y-12.20 Z0.00
G1 X-38.62 Y-12.67 Z0.00
G0 X-38.62 Y-12.97 Z0.00
G1 X-38.62 Y-12.97 Z0.00
G1 X-38.61 Y-14.34 Z0.00
G0 X-38.61 Y-13.65 Z0.00
G1 X-38.61 Y-13.65 Z0.00
G1 X-40.67 Y-13.67 Z0.00
G0 X-40.76 Y-4.57 Z0.00
G1 X-40.76 Y-4.57 Z0.00
G1 X-40.75 Y-5.84 Z0.00
G1 X-38.69 Y-5.82 Z0.00
G1 X-38.71 Y-4.55 Z0.00
G0 X-40.77 Y-3.98 Z0.00
G1 X-40.77 Y-3.98 Z0.00
G1 X-38.71 Y-3.96 Z0.00
G1 X-38.72 Y-3.08 Z0.00
G1 X-38.82 Y-2.78 Z0.00
G1 X-38.92 Y-2.69 Z0.00
G1 X-39.12 Y-2.59 Z0.00
G1 X-39.31 Y-2.59 Z0.00
G1 X-39.51 Y-2.69 Z0.00
G1 X-39.60 Y-2.79 Z0.00
G1 X-39.70 Y-3.09 Z0.00
G1 X-39.69 Y-3.97 Z0.00
G0 X-39.70 Y-3.28 Z0.00
G1 X-39.70 Y-3.28 Z0.00
G1 X-40.78 Y-2.61 Z0.00
G0 X37.56 Y-12.33 Z0.00
G1 X37.56 Y-12.33 Z0.00
G1 X37.56 Y-0.88 Z0.00
G0 X37.56 Y-0.88 Z0.00
G1 X37.56 Y-0.88 Z0.00
G1 X49.01 Y-0.88 Z0.00
G1 X49.01 Y-0.88 Z0.00
G1 X37.56 Y-0.88 Z0.00
G1 X37.56 Y10.58 Z0.00
G1 X49.01 Y10.58 Z0.00
G1 X49.01 Y-0.88 Z0.00
G1 X49.01 Y10.58 Z0.00
G0 X49.01 Y-0.88 Z0.00
G1 X49.01 Y-0.88 Z0.00
G1 X52.08 Y-6.21 Z0.00
G1 X52.08 Y-6.21 Z0.00
G1 X52.08 Y2.59 Z0.00
G1 X49.01 Y10.58 Z0.00
G0 X49.01 Y-12.33 Z0.00
G1 X49.01 Y-12.33 Z0.00
G1 X37.56 Y-12.33 Z0.00
G1 X37.56 Y-12.33 Z0.00
G1 X43.29 Y-15.01 Z0.00
G1 X52.08 Y-15.01 Z0.00
G0 X49.01 Y-12.33 Z0.00
G1 X49.01 Y-12.33 Z0.00
G1 X52.08 Y-15.01 Z0.00
G1 X49.01 Y-12.33 Z0.00
G1 X49.01 Y-0.88 Z0.00
G1 X52.08 Y-6.21 Z0.00
G1 X52.08 Y-15.01 Z0.00
