G20 (inches)
F25 (F40)
G90
M3
S1000
G00 X0.000 Y0.000 Z0.800
G00 X0.000 Y0.000 Z0.100
G01 X0.000 Y0.000 Z-0.15
X3.000 Y0.000
X3.000 Y3.000
X0.000 Y3.000
X0.000 Y0.000
X0.000 Y0.000 Z0.400
X2.875 Y1.500
X2.875 Y1.500 Z0.100
G01 X2.875 Y1.500 Z-0.15
G03 X2.875 Y1.500 I-1.375 J0.000
G00 X2.875 Y1.500 Z0.400
G00 X2.000 Y1.500
G00 X2.000 Y1.500 Z0.100
G01 X2.000 Y1.500 Z-0.15
G03 X2.000 Y1.500 I-0.500 J0.000
G00 X2.000 Y1.500 Z1.600
m5
M30
