X0.6796Y9.1444
X1.1509Y9.1444
X1.6223Y9.1444
X2.0936Y9.1444
X2.5650Y9.1444
X3.0365Y9.1444
X3.5081Y9.1445
X3.9797Y9.1444
X4.4514Y9.1445
X4.4514Y9.1445
X4.4514Y9.0629
X4.4514Y8.9813
X4.4514Y8.8996
X4.4514Y8.8178
X4.4514Y8.7360
X4.4514Y8.6541
X4.4514Y8.5722
X4.4514Y8.4903
X4.4514Y8.4083
X4.4514Y8.4083
X3.9800Y8.4080
X3.5086Y8.4078
X3.0371Y8.4077
X2.5656Y8.4078
X2.0941Y8.4079
X1.6226Y8.4080
X1.1511Y8.4082
X0.6797Y8.4083
X0.2083Y8.4083
X0.2083Y8.4083
X0.2083Y8.4902
X0.2082Y8.5720
X0.2080Y8.6538
X0.2079Y8.7355
X0.2078Y8.8172
X0.2077Y8.8990
X0.2078Y8.9807
X0.2080Y9.0626
X0.2083Y9.1444
Z0.05
G00X3.4000Y8.9431Z0.05
G01Z-0.0050
X3.4000Y8.9431
X3.4055Y8.9268
X3.4109Y8.9105
X3.4163Y8.8941
X3.4216Y8.8777
X3.4270Y8.8612
X3.4323Y8.8448
X3.4377Y8.8284
X3.4431Y8.8121
X3.4486Y8.7958
X3.4486Y8.7958
X3.4657Y8.7958
X3.4827Y8.7958
X3.4996Y8.7958
X3.5166Y8.7957
X3.5334Y8.7956
X3.5504Y8.7954
X3.5673Y8.7952
X3.5843Y8.7949
X3.6014Y8.7944
X3.6014Y8.7944
X3.5879Y8.7839
X3.5743Y8.7735
X3.5607Y8.7633
X3.5470Y8.7533
X3.5332Y8.7433
X3.5194Y8.7334
X3.5055Y8.7236
X3.4917Y8.7139
X3.4778Y8.7042
X3.4778Y8.7042
X3.4829Y8.6875
X3.4881Y8.6710
X3.4934Y8.6546
X3.4987Y8.6382
X3.5040Y8.6219
X3.5094Y8.6056
X3.5146Y8.5894
X3.5199Y8.5732
X3.5250Y8.5569
X3.5250Y8.5569
X3.5111Y8.5667
X3.4972Y8.5766
X3.4833Y8.5865
X3.4695Y8.5964
X3.4556Y8.6064
X3.4417Y8.6163
X3.4278Y8.6262
X3.4139Y8.6361
X3.4000Y8.6458
X3.4000Y8.6458
X3.3861Y8.6361
X3.3722Y8.6262
X3.3583Y8.6163
X3.3444Y8.6062
X3.3306Y8.5962
X3.3167Y8.5861
X3.3028Y8.5759
X3.2889Y8.5657
X3.2750Y8.5556
X3.2750Y8.5556
X3.2801Y8.5722
X3.2852Y8.5887
X3.2903Y8.6052
X3.2955Y8.6216
X3.3007Y8.6381
X3.3060Y8.6545
X3.3113Y8.6710
X3.3167Y8.6876
X3.3222Y8.7042
X3.3222Y8.7042
X3.3083Y8.7139
X3.2945Y8.7238
X3.2805Y8.7337
X3.2667Y8.7438
X3.2528Y8.7538
X3.2389Y8.7639
X3.2250Y8.7741
X3.2111Y8.7843
X3.1972Y8.7944
X3.1972Y8.7944
X3.2144Y8.7948
X3.2317Y8.7950
X3.2490Y8.7951
X3.2663Y8.7951
X3.2837Y8.7951
X3.3010Y8.7952
X3.3183Y8.7953
X3.3356Y8.7955
X3.3528Y8.7958
X3.3528Y8.7958
X3.3579Y8.8121
X3.3630Y8.8284
X3.3681Y8.8448
X3.3733Y8.8612
X3.3785Y8.8777
X3.3837Y8.8941
X3.3891Y8.9105
X3.3945Y8.9268
X3.4000Y8.9431
Z0.05
G00X1.2111Y8.7958Z0.05
G01Z-0.0050
X1.2111Y8.7958
X1.2162Y8.8120
X1.2213Y8.8282
X1.2264Y8.8445
X1.2316Y8.8606
X1.2368Y8.8769
X1.2421Y8.8930
X1.2474Y8.9093
X1.2528Y8.9255
X1.2583Y8.9417
X1.2583Y8.9417
X1.2642Y8.9255
X1.2700Y8.9093
X1.2756Y8.8930
X1.2810Y8.8769
X1.2863Y8.8606
X1.2916Y8.8444
X1.2967Y8.8282
X1.3019Y8.8120
X1.3069Y8.7958
X1.3070Y8.7958
X1.3241Y8.7958
X1.3412Y8.7958
X1.3583Y8.7958
X1.3755Y8.7957
X1.3926Y8.7956
X1.4097Y8.7954
X1.4268Y8.7952
X1.4440Y8.7949
X1.4611Y8.7945
X1.4611Y8.7944
X1.4476Y8.7839
X1.4341Y8.7735
X1.4204Y8.7633
X1.4067Y8.7533
X1.3929Y8.7433
X1.3791Y8.7334
X1.3653Y8.7236
X1.3514Y8.7139
X1.3375Y8.7042
X1.3375Y8.7042
X1.3426Y8.6876
X1.3478Y8.6710
X1.3531Y8.6546
X1.3583Y8.6382
X1.3635Y8.6219
X1.3687Y8.6056
X1.3737Y8.5894
X1.3786Y8.5732
X1.3833Y8.5569
X1.3833Y8.5569
X1.3694Y8.5667
X1.3555Y8.5766
X1.3417Y8.5865
X1.3278Y8.5964
X1.3139Y8.6064
X1.3000Y8.6163
X1.2861Y8.6262
X1.2722Y8.6361
X1.2583Y8.6458
X1.2583Y8.6458
X1.2444Y8.6360
X1.2305Y8.6260
X1.2166Y8.6159
X1.2027Y8.6057
X1.1886Y8.5954
X1.1746Y8.5850
X1.1605Y8.5747
X1.1463Y8.5644
X1.1319Y8.5542
X1.1319Y8.5542
X1.1375Y8.5708
X1.1430Y8.5875
X1.1486Y8.6042
X1.1540Y8.6208
X1.1595Y8.6375
X1.1649Y8.6542
X1.1702Y8.6708
X1.1754Y8.6875
X1.1806Y8.7042
X1.1806Y8.7042
X1.1667Y8.7139
X1.1528Y8.7237
X1.1389Y8.7334
X1.1251Y8.7433
X1.1114Y8.7533
X1.0976Y8.7633
X1.0840Y8.7735
X1.0704Y8.7839
X1.0569Y8.7944
X1.0569Y8.7944
X1.0741Y8.7949
X1.0912Y8.7952
X1.1083Y8.7954
X1.1255Y8.7956
X1.1426Y8.7957
X1.1597Y8.7958
X1.1769Y8.7958
X1.1940Y8.7958
X1.2111Y8.7958
Z0.05
G00X2.3292Y8.9417Z0.05
G01Z-0.0050
X2.3292Y8.9417
X2.3347Y8.9255
X2.3401Y8.9093
X2.3455Y8.8931
X2.3508Y8.8768
X2.3561Y8.8606
X2.3615Y8.8444
X2.3668Y8.8282
X2.3723Y8.8120
X2.3778Y8.7958
X2.3778Y8.7958
X2.3949Y8.7958
X2.4120Y8.7958
X2.4291Y8.7958
X2.4462Y8.7957
X2.4632Y8.7956
X2.4801Y8.7954
X2.4970Y8.7952
X2.5138Y8.7949
X2.5306Y8.7944
X2.5306Y8.7944
X2.5171Y8.7839
X2.5037Y8.7735
X2.4902Y8.7633
X2.4767Y8.7533
X2.4632Y8.7433
X2.4496Y8.7334
X2.4359Y8.7236
X2.4222Y8.7139
X2.4083Y8.7042
X2.4083Y8.7042
X2.4135Y8.6875
X2.4187Y8.6710
X2.4239Y8.6546
X2.4292Y8.6382
X2.4344Y8.6219
X2.4395Y8.6056
X2.4446Y8.5894
X2.4494Y8.5732
X2.4542Y8.5569
X2.4542Y8.5569
X2.4403Y8.5667
X2.4264Y8.5766
X2.4125Y8.5865
X2.3986Y8.5964
X2.3847Y8.6064
X2.3708Y8.6163
X2.3569Y8.6262
X2.3431Y8.6361
X2.3292Y8.6458
X2.3292Y8.6458
X2.3153Y8.6361
X2.3014Y8.6262
X2.2875Y8.6163
X2.2736Y8.6062
X2.2597Y8.5962
X2.2458Y8.5861
X2.2319Y8.5759
X2.2181Y8.5657
X2.2042Y8.5556
X2.2042Y8.5556
X2.2093Y8.5722
X2.2145Y8.5887
X2.2198Y8.6051
X2.2251Y8.6215
X2.2305Y8.6378
X2.2357Y8.6541
X2.2410Y8.6704
X2.2462Y8.6866
X2.2514Y8.7028
X2.2514Y8.7028
X2.2375Y8.7130
X2.2236Y8.7231
X2.2098Y8.7333
X2.1960Y8.7435
X2.1822Y8.7537
X2.1685Y8.7639
X2.1548Y8.7741
X2.1413Y8.7843
X2.1278Y8.7944
X2.1278Y8.7944
X2.1449Y8.7948
X2.1620Y8.7950
X2.1792Y8.7951
X2.1963Y8.7951
X2.2134Y8.7951
X2.2306Y8.7952
X2.2477Y8.7953
X2.2648Y8.7955
X2.2819Y8.7958
X2.2819Y8.7958
X2.2870Y8.8120
X2.2921Y8.8282
X2.2973Y8.8444
X2.3024Y8.8607
X2.3076Y8.8768
X2.3129Y8.8931
X2.3182Y8.9093
X2.3237Y8.9255
X2.3292Y8.9417
Z0.05
G00X0.2083Y7.9792Z0.05
G01Z-0.0050
X0.2083Y7.9792
X0.6796Y7.9792
X1.1509Y7.9792
X1.6223Y7.9792
X2.0936Y7.9792
X2.5651Y7.9792
X3.0365Y7.9792
X3.5081Y7.9792
X3.9797Y7.9792
X4.4514Y7.9792
X4.4514Y7.9792
X4.4514Y7.9555
X4.4514Y7.9318
X4.4514Y7.9080
X4.4514Y7.8841
X4.4514Y7.8603
X4.4514Y7.8365
X4.4514Y7.8127
X4.4514Y7.7889
X4.4514Y7.7653
X4.4514Y7.7653
X3.9797Y7.7653
X3.5081Y7.7653
X3.0365Y7.7653
X2.5651Y7.7653
X2.0936Y7.7653
X1.6223Y7.7653
X1.1509Y7.7653
X0.6796Y7.7653
X0.2083Y7.7653
X0.2083Y7.7653
X0.2083Y7.7889
X0.2083Y7.8127
X0.2083Y7.8365
X0.2083Y7.8603
X0.2083Y7.8841
X0.2083Y7.9080
X0.2083Y7.9318
X0.2083Y7.9555
X0.2083Y7.9792
Z0.05
G00X0.2083Y7.3361Z0.05
G01Z-0.0050
X0.2083Y7.3361
X0.2157Y7.3361
X0.2232Y7.3361
X0.2306Y7.3361
X0.2381Y7.3361
X0.2456Y7.3361
X0.2532Y7.3361
X0.2608Y7.3361
X0.2686Y7.3361
X0.2764Y7.3361
X0.2764Y7.3361
X0.2689Y7.3273
X0.2614Y7.3185
X0.2538Y7.3097
X0.2462Y7.3009
X0.2385Y7.2921
X0.2309Y7.2833
X0.2233Y7.2745
X0.2158Y7.2657
X0.2083Y7.2569
X0.2083Y7.2569
X0.2083Y7.2657
X0.2083Y7.2745
X0.2083Y7.2833
X0.2083Y7.2921
X0.2083Y7.3009
X0.2083Y7.3097
X0.2083Y7.3185
X0.2083Y7.3273
X0.2083Y7.3361
Z0.05
G00X0.4139Y7.3083Z0.05
G01Z-0.0050
X0.4139Y7.3083
X0.4253Y7.3187
X0.4379Y7.3262
X0.4516Y7.3313
X0.4661Y7.3343
X0.4812Y7.3358
X0.4965Y7.3363
X0.5119Y7.3362
X0.5270Y7.3360
X0.5417Y7.3361
X0.5417Y7.3361
X0.5725Y7.3355
X0.6038Y7.3360
X0.6352Y7.3368
X0.6668Y7.3371
X0.6981Y7.3361
X0.7291Y7.3331
X0.7596Y7.3273
X0.7893Y7.3179
X0.8181Y7.3042
X0.8181Y7.3042
X0.8678Y7.2608
X0.9134Y7.2135
X0.9548Y7.1626
X0.9922Y7.1086
X1.0255Y7.0519
X1.0549Y6.9930
X1.0803Y6.9322
X1.1018Y6.8700
X1.1194Y6.8069
X1.1194Y6.8069
X1.1098Y6.7948
X1.1004Y6.7823
X1.0913Y6.7696
X1.0824Y6.7566
X1.0739Y6.7434
X1.0656Y6.7300
X1.0577Y6.7164
X1.0502Y6.7027
X1.0431Y6.6889
X1.0431Y6.6889
X0.9998Y6.7286
X0.9542Y6.7659
X0.9065Y6.8005
X0.8568Y6.8318
X0.8052Y6.8596
X0.7518Y6.8833
X0.6967Y6.9027
X0.6401Y6.9172
X0.5819Y6.9264
X0.5820Y6.9264
X0.5389Y6.9298
X0.4958Y6.9298
X0.4530Y6.9267
X0.4105Y6.9206
X0.3685Y6.9117
X0.3271Y6.9002
X0.2865Y6.8861
X0.2469Y6.8698
X0.2083Y6.8514
X0.2083Y6.8514
X0.2085Y6.8736
X0.2083Y6.8958
X0.2078Y6.9181
X0.2073Y6.9403
X0.2070Y6.9625
X0.2070Y6.9847
X0.2076Y7.0069
X0.2089Y7.0292
X0.2111Y7.0514
X0.2111Y7.0514
X0.2297Y7.0829
X0.2494Y7.1137
X0.2702Y7.1436
X0.2919Y7.1728
X0.3146Y7.2013
X0.3382Y7.2291
X0.3626Y7.2561
X0.3879Y7.2826
X0.4139Y7.3083
Z0.05
G00X0.9264Y7.3347Z0.05
G01Z-0.0050
X0.9264Y7.3347
X0.9782Y7.3355
X1.0299Y7.3360
X1.0816Y7.3363
X1.1332Y7.3364
X1.1848Y7.3364
X1.2365Y7.3364
X1.2881Y7.3362
X1.3399Y7.3362
X1.3917Y7.3361
X1.3917Y7.3361
X1.4027Y7.2987
X1.4091Y7.2605
X1.4114Y7.2219
X1.4102Y7.1830
X1.4058Y7.1441
X1.3988Y7.1055
X1.3896Y7.0672
X1.3787Y7.0297
X1.3667Y6.9931
X1.3667Y6.9931
X1.3603Y6.9772
X1.3508Y6.9645
X1.3389Y6.9542
X1.3251Y6.9459
X1.3101Y6.9388
X1.2944Y6.9324
X1.2788Y6.9260
X1.2638Y6.9191
X1.2500Y6.9111
X1.2500Y6.9111
X1.2283Y6.9671
X1.2032Y7.0220
X1.1744Y7.0753
X1.1421Y7.1264
X1.1063Y7.1750
X1.0668Y7.2206
X1.0236Y7.2627
X0.9769Y7.3009
X0.9264Y7.3347
Z0.05
G00X1.4667Y7.3361Z0.05
G01Z-0.0050
X1.4667Y7.3361
X1.5019Y7.3362
X1.5372Y7.3363
X1.5726Y7.3364
X1.6080Y7.3366
X1.6434Y7.3367
X1.6788Y7.3367
X1.7142Y7.3367
X1.7495Y7.3365
X1.7847Y7.3361
X1.7847Y7.3361
X1.7752Y7.2922
X1.7617Y7.2493
X1.7445Y7.2078
X1.7238Y7.1677
X1.7001Y7.1293
X1.6736Y7.0927
X1.6446Y7.0582
X1.6135Y7.0258
X1.5806Y6.9958
X1.5806Y6.9958
X1.5708Y6.9946
X1.5611Y6.9936
X1.5514Y6.9928
X1.5418Y6.9923
X1.5322Y6.9918
X1.5226Y6.9914
X1.5131Y6.9911
X1.5038Y6.9907
X1.4944Y6.9903
X1.4944Y6.9903
X1.4999Y7.0289
X1.5033Y7.0678
X1.5045Y7.1068
X1.5037Y7.1458
X1.5007Y7.1847
X1.4955Y7.2233
X1.4881Y7.2615
X1.4785Y7.2991
X1.4667Y7.3361
Z0.05
G00X1.8542Y7.3361Z0.05
G01Z-0.0050
X1.8542Y7.3361
X1.8852Y7.3361
X1.9164Y7.3361
X1.9476Y7.3361
X1.9790Y7.3361
X2.0103Y7.3361
X2.0417Y7.3361
X2.0732Y7.3361
X2.1046Y7.3361
X2.1361Y7.3361
X2.1361Y7.3361
X2.1384Y7.3038
X2.1378Y7.2710
X2.1342Y7.2383
X2.1274Y7.2060
X2.1173Y7.1748
X2.1038Y7.1451
X2.0868Y7.1173
X2.0661Y7.0919
X2.0417Y7.0695
X2.0417Y7.0694
X2.0153Y7.0499
X1.9882Y7.0311
X1.9603Y7.0134
X1.9316Y6.9969
X1.9022Y6.9819
X1.8721Y6.9685
X1.8413Y6.9570
X1.8099Y6.9475
X1.7778Y6.9403
X1.7778Y6.9403
X1.7708Y6.9427
X1.7639Y6.9453
X1.7569Y6.9480
X1.7500Y6.9508
X1.7431Y6.9537
X1.7361Y6.9566
X1.7292Y6.9596
X1.7222Y6.9625
X1.7153Y6.9653
X1.7153Y6.9653
X1.7367Y7.0039
X1.7579Y7.0429
X1.7784Y7.0824
X1.7977Y7.1226
X1.8150Y7.1634
X1.8299Y7.2051
X1.8418Y7.2477
X1.8500Y7.2913
X1.8542Y7.3361
Z0.05
G00X2.3347Y7.3361Z0.05
G01Z-0.0050
X2.3347Y7.3361
X2.5569Y7.3361
X2.7790Y7.3361
X3.0010Y7.3361
X3.2229Y7.3361
X3.4448Y7.3361
X3.6666Y7.3361
X3.8884Y7.3361
X4.1102Y7.3361
X4.3319Y7.3361
X4.3319Y7.3361
X4.3421Y7.2573
X4.3505Y7.1784
X4.3569Y7.0993
X4.3616Y7.0201
X4.3644Y6.9410
X4.3653Y6.8618
X4.3644Y6.7828
X4.3616Y6.7038
X4.3569Y6.6250
X4.3569Y6.6250
X4.3468Y6.5342
X4.3321Y6.4443
X4.3133Y6.3553
X4.2905Y6.2673
X4.2642Y6.1802
X4.2344Y6.0942
X4.2016Y6.0094
X4.1660Y5.9256
X4.1278Y5.8431
X4.1278Y5.8431
X4.0608Y5.7129
X3.9868Y5.5859
X3.9056Y5.4633
X3.8171Y5.3458
X3.7213Y5.2347
X3.6180Y5.1307
X3.5072Y5.0350
X3.3887Y4.9485
X3.2625Y4.8722
X3.2625Y4.8722
X3.1611Y4.8714
X3.0597Y4.8708
X2.9583Y4.8704
X2.8569Y4.8702
X2.7556Y4.8702
X2.6542Y4.8704
X2.5528Y4.8708
X2.4514Y4.8714
X2.3500Y4.8722
X2.3500Y4.8722
X2.3333Y4.8853
X2.3166Y4.8984
X2.3000Y4.9119
X2.2836Y4.9256
X2.2675Y4.9398
X2.2518Y4.9543
X2.2367Y4.9694
X2.2222Y4.9851
X2.2083Y5.0014
X2.2083Y5.0014
X2.1914Y5.0496
X2.1784Y5.0988
X2.1689Y5.1487
X2.1627Y5.1991
X2.1595Y5.2499
X2.1588Y5.3009
X2.1605Y5.3518
X2.1641Y5.4025
X2.1694Y5.4528
X2.1694Y5.4528
X2.1756Y5.4962
X2.1829Y5.5394
X2.1914Y5.5823
X2.2009Y5.6251
X2.2115Y5.6676
X2.2229Y5.7098
X2.2353Y5.7517
X2.2485Y5.7934
X2.2625Y5.8347
X2.2625Y5.8347
X2.2648Y5.8412
X2.2671Y5.8478
X2.2694Y5.8543
X2.2720Y5.8607
X2.2749Y5.8670
X2.2782Y5.8730
X2.2821Y5.8787
X2.2865Y5.8840
X2.2917Y5.8889
X2.2917Y5.8889
X2.3438Y5.9418
X2.3918Y5.9983
X2.4357Y6.0582
X2.4751Y6.1210
X2.5102Y6.1865
X2.5407Y6.2543
X2.5666Y6.3241
X2.5878Y6.3954
X2.6042Y6.4681
X2.6042Y6.4681
X2.6133Y6.5249
X2.6193Y6.5821
X2.6220Y6.6397
X2.6212Y6.6972
X2.6168Y6.7545
X2.6086Y6.8113
X2.5965Y6.8673
X2.5802Y6.9225
X2.5597Y6.9764
X2.5597Y6.9764
X2.5400Y7.0195
X2.5188Y7.0618
X2.4961Y7.1033
X2.4722Y7.1440
X2.4470Y7.1839
X2.4205Y7.2231
X2.3930Y7.2615
X2.3643Y7.2992
X2.3347Y7.3361
Z0.05
G00X2.2111Y7.2986Z0.05
G01Z-0.0050
X2.2111Y7.2986
X2.2367Y7.2691
X2.2615Y7.2390
X2.2856Y7.2083
X2.3088Y7.1770
X2.3313Y7.1451
X2.3529Y7.1125
X2.3736Y7.0793
X2.3935Y7.0455
X2.4125Y7.0111
X2.4125Y7.0111
X2.3970Y6.9813
X2.3799Y6.9509
X2.3609Y6.9211
X2.3399Y6.8929
X2.3165Y6.8673
X2.2905Y6.8456
X2.2616Y6.8287
X2.2297Y6.8178
X2.1944Y6.8139
X2.1944Y6.8139
X2.1601Y6.8115
X2.1256Y6.8109
X2.0912Y6.8120
X2.0569Y6.8148
X2.0227Y6.8193
X1.9889Y6.8255
X1.9555Y6.8334
X1.9226Y6.8429
X1.8903Y6.8542
X1.8903Y6.8542
X1.9222Y6.8776
X1.9548Y6.9009
X1.9874Y6.9245
X2.0196Y6.9488
X2.0509Y6.9741
X2.0806Y7.0010
X2.1083Y7.0297
X2.1335Y7.0607
X2.1556Y7.0944
X2.1556Y7.0944
X2.1672Y7.1152
X2.1771Y7.1367
X2.1854Y7.1588
X2.1923Y7.1814
X2.1980Y7.2044
X2.2026Y7.2278
X2.2062Y7.2513
X2.2090Y7.2750
X2.2111Y7.2986
Z0.05
G00X2.3097Y6.7736Z0.05
G01Z-0.0050
X2.3097Y6.7736
X2.3291Y6.7877
X2.3474Y6.8030
X2.3648Y6.8193
X2.3813Y6.8365
X2.3970Y6.8546
X2.4121Y6.8733
X2.4266Y6.8925
X2.4406Y6.9121
X2.4542Y6.9319
X2.4542Y6.9319
X2.4672Y6.8950
X2.4784Y6.8575
X2.4877Y6.8194
X2.4951Y6.7809
X2.5006Y6.7420
X2.5040Y6.7028
X2.5053Y6.6635
X2.5044Y6.6241
X2.5014Y6.5847
X2.5014Y6.5847
X2.4735Y6.5679
X2.4446Y6.5525
X2.4149Y6.5386
X2.3843Y6.5264
X2.3530Y6.5157
X2.3212Y6.5067
X2.2890Y6.4995
X2.2564Y6.4940
X2.2236Y6.4903
X2.2236Y6.4903
X2.1966Y6.4960
X2.1701Y6.5037
X2.1442Y6.5132
X2.1190Y6.5245
X2.0944Y6.5373
X2.0706Y6.5516
X2.0476Y6.5671
X2.0255Y6.5838
X2.0042Y6.6014
X2.0042Y6.6014
X1.9952Y6.6085
X1.9884Y6.6167
X1.9834Y6.6259
X1.9799Y6.6358
X1.9773Y6.6462
X1.9753Y6.6569
X1.9737Y6.6678
X1.9718Y6.6785
X1.9694Y6.6889
X1.9694Y6.6889
X2.0090Y6.6877
X2.0486Y6.6888
X2.0882Y6.6923
X2.1275Y6.6985
X2.1661Y6.7074
X2.2039Y6.7192
X2.2406Y6.7341
X2.2760Y6.7522
X2.3097Y6.7736
Z0.05
G00X1.4097Y6.8556Z0.05
G01Z-0.0050
X1.4097Y6.8556
X1.4223Y6.8583
X1.4349Y6.8611
X1.4477Y6.8637
X1.4605Y6.8663
X1.4735Y6.8687
X1.4866Y6.8710
X1.4997Y6.8730
X1.5130Y6.8749
X1.5264Y6.8764
X1.5264Y6.8764
X1.5372Y6.8607
X1.5464Y6.8441
X1.5541Y6.8269
X1.5601Y6.8091
X1.5645Y6.7908
X1.5672Y6.7722
X1.5683Y6.7533
X1.5676Y6.7343
X1.5653Y6.7153
X1.5653Y6.7153
X1.5623Y6.7148
X1.5589Y6.7144
X1.5552Y6.7139
X1.5514Y6.7134
X1.5476Y6.7130
X1.5439Y6.7125
X1.5404Y6.7120
X1.5373Y6.7116
X1.5347Y6.7111
X1.5347Y6.7111
X1.5244Y6.7301
X1.5131Y6.7484
X1.5008Y6.7658
X1.4875Y6.7825
X1.4734Y6.7985
X1.4585Y6.8138
X1.4429Y6.8284
X1.4266Y6.8423
X1.4097Y6.8555
Z0.05
G00X1.6139Y6.8736Z0.05
G01Z-0.0050
X1.6139Y6.8736
X1.6291Y6.8697
X1.6442Y6.8655
X1.6592Y6.8609
X1.6739Y6.8558
X1.6885Y6.8503
X1.7029Y6.8442
X1.7170Y6.8375
X1.7309Y6.8302
X1.7444Y6.8222
X1.7444Y6.8222
X1.7412Y6.8018
X1.7352Y6.7823
X1.7268Y6.7639
X1.7161Y6.7470
X1.7032Y6.7316
X1.6885Y6.7180
X1.6720Y6.7065
X1.6540Y6.6971
X1.6347Y6.6903
X1.6347Y6.6903
X1.6363Y6.7111
X1.6371Y6.7319
X1.6370Y6.7526
X1.6361Y6.7732
X1.6341Y6.7937
X1.6310Y6.8140
X1.6267Y6.8341
X1.6210Y6.8540
X1.6139Y6.8736
Z0.05
G00X0.2097Y6.7722Z0.05
G01Z-0.0050
X0.2097Y6.7722
X0.2315Y6.7831
X0.2535Y6.7941
X0.2757Y6.8049
X0.2981Y6.8153
X0.3208Y6.8247
X0.3438Y6.8330
X0.3672Y6.8398
X0.3910Y6.8446
X0.4153Y6.8472
X0.4153Y6.8472
X0.4888Y6.8319
X0.5601Y6.8096
X0.6288Y6.7806
X0.6947Y6.7456
X0.7576Y6.7051
X0.8170Y6.6597
X0.8728Y6.6097
X0.9246Y6.5559
X0.9722Y6.4986
X0.9722Y6.4986
X0.9811Y6.4856
X0.9870Y6.4716
X0.9903Y6.4569
X0.9919Y6.4416
X0.9923Y6.4260
X0.9921Y6.4102
X0.9920Y6.3945
X0.9925Y6.3790
X0.9944Y6.3639
X0.9944Y6.3639
X0.9467Y6.3777
X0.8981Y6.3884
X0.8489Y6.3959
X0.7993Y6.4000
X0.7497Y6.4005
X0.7002Y6.3971
X0.6512Y6.3898
X0.6029Y6.3783
X0.5555Y6.3625
X0.5556Y6.3625
X0.5089Y6.3434
X0.4644Y6.3205
X0.4220Y6.2942
X0.3816Y6.2650
X0.3432Y6.2330
X0.3067Y6.1988
X0.2721Y6.1627
X0.2393Y6.1250
X0.2083Y6.0861
X0.2083Y6.0861
X0.2082Y6.1621
X0.2080Y6.2382
X0.2078Y6.3143
X0.2075Y6.3905
X0.2074Y6.4668
X0.2075Y6.5431
X0.2079Y6.6195
X0.2086Y6.6958
X0.2097Y6.7722
Z0.05
G00X1.1972Y6.7181Z0.05
G01Z-0.0050
X1.1972Y6.7181
X1.2128Y6.7324
X1.2291Y6.7485
X1.2460Y6.7651
X1.2638Y6.7807
X1.2823Y6.7939
X1.3016Y6.8034
X1.3219Y6.8079
X1.3431Y6.8058
X1.3653Y6.7958
X1.3653Y6.7958
X1.3822Y6.7870
X1.3981Y6.7756
X1.4125Y6.7619
X1.4249Y6.7465
X1.4344Y6.7296
X1.4407Y6.7117
X1.4430Y6.6931
X1.4407Y6.6743
X1.4333Y6.6556
X1.4333Y6.6556
X1.4101Y6.6711
X1.3859Y6.6851
X1.3607Y6.6974
X1.3348Y6.7076
X1.3081Y6.7154
X1.2810Y6.7207
X1.2533Y6.7231
X1.2254Y6.7223
X1.1972Y6.7181
Z0.05
G00X1.7014Y6.6375Z0.05
G01Z-0.0050
X1.7014Y6.6375
X1.7163Y6.6490
X1.7306Y6.6611
X1.7442Y6.6740
X1.7570Y6.6876
X1.7689Y6.7018
X1.7799Y6.7167
X1.7899Y6.7323
X1.7990Y6.7485
X1.8069Y6.7653
X1.8069Y6.7653
X1.8183Y6.7487
X1.8284Y6.7313
X1.8373Y6.7133
X1.8450Y6.6947
X1.8516Y6.6756
X1.8572Y6.6561
X1.8617Y6.6363
X1.8653Y6.6161
X1.8681Y6.5958
X1.8681Y6.5958
X1.8542Y6.5817
X1.8389Y6.5708
X1.8223Y6.5630
X1.8049Y6.5582
X1.7870Y6.5564
X1.7689Y6.5574
X1.7509Y6.5611
X1.7334Y6.5674
X1.7167Y6.5764
X1.7167Y6.5764
X1.7149Y6.5829
X1.7131Y6.5895
X1.7115Y6.5962
X1.7098Y6.6030
X1.7082Y6.6098
X1.7066Y6.6167
X1.7049Y6.6236
X1.7032Y6.6306
X1.7014Y6.6375
Z0.05
G00X1.1750Y6.6306Z0.05
G01Z-0.0050
X1.1750Y6.6306
X1.1874Y6.6368
X1.2003Y6.6422
X1.2138Y6.6469
X1.2276Y6.6504
X1.2416Y6.6527
X1.2557Y6.6536
X1.2697Y6.6529
X1.2836Y6.6503
X1.2972Y6.6458
X1.2972Y6.6458
X1.3091Y6.6364
X1.3213Y6.6264
X1.3331Y6.6158
X1.3439Y6.6045
X1.3529Y6.5925
X1.3595Y6.5796
X1.3630Y6.5657
X1.3629Y6.5508
X1.3583Y6.5347
X1.3583Y6.5347
X1.3281Y6.5387
X1.2979Y6.5397
X1.2678Y6.5376
X1.2383Y6.5325
X1.2095Y6.5244
X1.1817Y6.5133
X1.1552Y6.4993
X1.1302Y6.4823
X1.1070Y6.4625
X1.1069Y6.4625
X1.1104Y6.4823
X1.1130Y6.5035
X1.1156Y6.5252
X1.1190Y6.5469
X1.1239Y6.5678
X1.1311Y6.5873
X1.1415Y6.6047
X1.1559Y6.6194
X1.1750Y6.6306
Z0.05
G00X1.4722Y6.4472Z0.05
G01Z-0.0050
X1.4722Y6.4472
X1.4699Y6.4629
X1.4685Y6.4793
X1.4685Y6.4958
X1.4702Y6.5122
X1.4738Y6.5279
X1.4796Y6.5426
X1.4881Y6.5558
X1.4994Y6.5672
X1.5139Y6.5764
X1.5139Y6.5764
X1.5163Y6.5605
X1.5156Y6.5453
X1.5123Y6.5305
X1.5071Y6.5162
X1.5006Y6.5022
X1.4932Y6.4884
X1.4856Y6.4747
X1.4785Y6.4610
X1.4722Y6.4472
Z0.05
G00X1.6556Y6.4889Z0.05
G01Z-0.0050
X1.6555Y6.4889
X1.6651Y6.4972
X1.6752Y6.5020
X1.6856Y6.5041
X1.6964Y6.5039
X1.7074Y6.5020
X1.7185Y6.4992
X1.7296Y6.4959
X1.7406Y6.4927
X1.7514Y6.4903
X1.7514Y6.4903
X1.7635Y6.4878
X1.7756Y6.4866
X1.7879Y6.4865
X1.8001Y6.4873
X1.8124Y6.4888
X1.8246Y6.4908
X1.8369Y6.4930
X1.8490Y6.4952
X1.8611Y6.4972
X1.8611Y6.4972
X1.8555Y6.4820
X1.8497Y6.4671
X1.8438Y6.4523
X1.8376Y6.4376
X1.8311Y6.4232
X1.8243Y6.4088
X1.8171Y6.3947
X1.8095Y6.3806
X1.8014Y6.3667
X1.8014Y6.3667
X1.7805Y6.3736
X1.7604Y6.3825
X1.7414Y6.3931
X1.7234Y6.4054
X1.7068Y6.4193
X1.6915Y6.4347
X1.6778Y6.4515
X1.6658Y6.4696
X1.6556Y6.4889
Z0.05
G00X1.5486Y6.3417Z0.05
G01Z-0.0050
X1.5486Y6.3417
X1.5434Y6.3590
X1.5406Y6.3767
X1.5400Y6.3946
X1.5416Y6.4125
X1.5450Y6.4302
X1.5503Y6.4475
X1.5571Y6.4644
X1.5654Y6.4805
X1.5750Y6.4958
X1.5750Y6.4958
X1.5818Y6.4837
X1.5883Y6.4713
X1.5946Y6.4588
X1.6011Y6.4464
X1.6077Y6.4342
X1.6146Y6.4222
X1.6220Y6.4105
X1.6301Y6.3994
X1.6389Y6.3889
X1.6389Y6.3889
X1.6485Y6.3782
X1.6589Y6.3683
X1.6698Y6.3591
X1.6812Y6.3503
X1.6928Y6.3418
X1.7047Y6.3335
X1.7167Y6.3253
X1.7286Y6.3169
X1.7403Y6.3083
X1.7403Y6.3083
X1.7183Y6.3014
X1.6958Y6.2973
X1.6733Y6.2960
X1.6509Y6.2973
X1.6288Y6.3012
X1.6072Y6.3077
X1.5866Y6.3167
X1.5669Y6.3280
X1.5486Y6.3417
Z0.05
G00X1.9722Y6.4847Z0.05
G01Z-0.0050
X1.9722Y6.4847
X2.0261Y6.4557
X2.0825Y6.4359
X2.1407Y6.4246
X2.2001Y6.4210
X2.2599Y6.4244
X2.3195Y6.4342
X2.3779Y6.4496
X2.4346Y6.4699
X2.4889Y6.4944
X2.4889Y6.4944
X2.4801Y6.4525
X2.4697Y6.4109
X2.4575Y6.3698
X2.4437Y6.3292
X2.4281Y6.2893
X2.4110Y6.2501
X2.3923Y6.2117
X2.3719Y6.1741
X2.3500Y6.1375
X2.3500Y6.1375
X2.3199Y6.1315
X2.2890Y6.1275
X2.2578Y6.1259
X2.2267Y6.1270
X2.1960Y6.1311
X2.1663Y6.1384
X2.1377Y6.1494
X2.1109Y6.1643
X2.0861Y6.1833
X2.0861Y6.1833
X2.0674Y6.2062
X2.0501Y6.2301
X2.0342Y6.2550
X2.0196Y6.2809
X2.0064Y6.3075
X1.9945Y6.3348
X1.9840Y6.3626
X1.9747Y6.3909
X1.9667Y6.4194
X1.9667Y6.4194
X1.9653Y6.4264
X1.9648Y6.4335
X1.9650Y6.4407
X1.9658Y6.4479
X1.9669Y6.4552
X1.9683Y6.4625
X1.9698Y6.4699
X1.9711Y6.4773
X1.9722Y6.4847
Z0.05
G00X1.1986Y6.4431Z0.05
G01Z-0.0050
X1.1986Y6.4431
X1.2162Y6.4466
X1.2340Y6.4481
X1.2517Y6.4479
X1.2694Y6.4463
X1.2871Y6.4434
X1.3048Y6.4396
X1.3223Y6.4350
X1.3397Y6.4301
X1.3569Y6.4250
X1.3569Y6.4250
X1.3597Y6.4185
X1.3625Y6.4118
X1.3653Y6.4051
X1.3681Y6.3984
X1.3708Y6.3915
X1.3736Y6.3847
X1.3764Y6.3778
X1.3792Y6.3708
X1.3819Y6.3639
X1.3819Y6.3639
X1.3661Y6.3583
X1.3503Y6.3524
X1.3345Y6.3460
X1.3190Y6.3391
X1.3040Y6.3315
X1.2896Y6.3229
X1.2759Y6.3133
X1.2631Y6.3025
X1.2514Y6.2903
X1.2514Y6.2903
X1.2406Y6.2786
X1.2312Y6.2660
X1.2232Y6.2525
X1.2161Y6.2384
X1.2098Y6.2237
X1.2042Y6.2086
X1.1989Y6.1933
X1.1939Y6.1779
X1.1889Y6.1625
X1.1889Y6.1625
X1.1786Y6.1820
X1.1683Y6.2015
X1.1582Y6.2211
X1.1486Y6.2410
X1.1398Y6.2612
X1.1321Y6.2816
X1.1257Y6.3025
X1.1209Y6.3239
X1.1180Y6.3458
X1.1181Y6.3458
X1.1243Y6.3587
X1.1312Y6.3712
X1.1386Y6.3834
X1.1467Y6.3951
X1.1555Y6.4062
X1.1651Y6.4166
X1.1754Y6.4263
X1.1866Y6.4352
X1.1986Y6.4431
Z0.05
G00X4.1833Y5.6931Z0.05
G01Z-0.0050
X4.1833Y5.6931
X4.2237Y5.7714
X4.2615Y5.8510
X4.2967Y5.9317
X4.3292Y6.0134
X4.3590Y6.0962
X4.3862Y6.1799
X4.4107Y6.2645
X4.4324Y6.3499
X4.4514Y6.4361
X4.4514Y6.4361
X4.4513Y6.2621
X4.4512Y6.0881
X4.4511Y5.9142
X4.4509Y5.7404
X4.4508Y5.5666
X4.4508Y5.3927
X4.4508Y5.2188
X4.4510Y5.0449
X4.4514Y4.8708
X4.4514Y4.8708
X4.3436Y4.8708
X4.2358Y4.8707
X4.1281Y4.8706
X4.0205Y4.8705
X3.9129Y4.8705
X3.8052Y4.8706
X3.6975Y4.8709
X3.5898Y4.8714
X3.4819Y4.8722
X3.4819Y4.8722
X3.5797Y4.9444
X3.6722Y5.0225
X3.7595Y5.1060
X3.8418Y5.1945
X3.9192Y5.2874
X3.9919Y5.3843
X4.0601Y5.4845
X4.1238Y5.5876
X4.1833Y5.6931
Z0.05
G00X1.8222Y6.0555Z0.05
G01Z-0.0050
X1.8222Y6.0556
X1.8212Y6.0851
X1.8214Y6.1152
X1.8231Y6.1453
X1.8270Y6.1750
X1.8335Y6.2039
X1.8431Y6.2316
X1.8564Y6.2576
X1.8738Y6.2815
X1.8958Y6.3028
X1.8958Y6.3028
X1.9127Y6.2738
X1.9308Y6.2455
X1.9504Y6.2180
X1.9715Y6.1918
X1.9942Y6.1670
X2.0186Y6.1440
X2.0447Y6.1232
X2.0728Y6.1047
X2.1028Y6.0889
X2.1028Y6.0889
X2.1221Y6.0800
X2.1419Y6.0727
X2.1621Y6.0669
X2.1828Y6.0624
X2.2037Y6.0590
X2.2249Y6.0567
X2.2462Y6.0552
X2.2675Y6.0544
X2.2889Y6.0542
X2.2889Y6.0542
X2.2628Y6.0251
X2.2355Y5.9973
X2.2070Y5.9709
X2.1773Y5.9460
X2.1464Y5.9228
X2.1143Y5.9013
X2.0811Y5.8817
X2.0467Y5.8641
X2.0111Y5.8486
X2.0111Y5.8486
X1.9890Y5.8624
X1.9673Y5.8768
X1.9460Y5.8919
X1.9253Y5.9079
X1.9054Y5.9246
X1.8864Y5.9423
X1.8684Y5.9610
X1.8516Y5.9807
X1.8361Y6.0014
X1.8361Y6.0014
X1.8328Y6.0070
X1.8302Y6.0129
X1.8282Y6.0188
X1.8267Y6.0249
X1.8255Y6.0310
X1.8246Y6.0372
X1.8238Y6.0434
X1.8231Y6.0495
X1.8222Y6.0556
Z0.05
G00X1.3153Y6.2542Z0.05
G01Z-0.0050
X1.3153Y6.2542
X1.3284Y6.2600
X1.3418Y6.2652
X1.3554Y6.2698
X1.3691Y6.2736
X1.3830Y6.2765
X1.3970Y6.2783
X1.4110Y6.2790
X1.4250Y6.2784
X1.4389Y6.2764
X1.4389Y6.2764
X1.4481Y6.2703
X1.4572Y6.2640
X1.4663Y6.2576
X1.4753Y6.2512
X1.4844Y6.2447
X1.4934Y6.2382
X1.5025Y6.2318
X1.5116Y6.2256
X1.5208Y6.2194
X1.5208Y6.2194
X1.5094Y6.2059
X1.4983Y6.1919
X1.4878Y6.1776
X1.4779Y6.1629
X1.4689Y6.1478
X1.4609Y6.1321
X1.4540Y6.1159
X1.4485Y6.0992
X1.4444Y6.0819
X1.4444Y6.0820
X1.4408Y6.0643
X1.4390Y6.0466
X1.4388Y6.0288
X1.4399Y6.0111
X1.4423Y5.9934
X1.4455Y5.9758
X1.4494Y5.9582
X1.4537Y5.9408
X1.4583Y5.9236
X1.4583Y5.9236
X1.4352Y5.9380
X1.4120Y5.9527
X1.3891Y5.9677
X1.3666Y5.9833
X1.3446Y5.9995
X1.3234Y6.0165
X1.3029Y6.0344
X1.2835Y6.0534
X1.2653Y6.0736
X1.2653Y6.0736
X1.2623Y6.0949
X1.2609Y6.1170
X1.2613Y6.1393
X1.2637Y6.1614
X1.2685Y6.1829
X1.2758Y6.2033
X1.2858Y6.2223
X1.2989Y6.2394
X1.3153Y6.2542
Z0.05
G00X0.4361Y6.2167Z0.05
G01Z-0.0050
X0.4361Y6.2167
X0.4988Y6.2336
X0.5624Y6.2449
X0.6267Y6.2509
X0.6914Y6.2517
X0.7561Y6.2478
X0.8205Y6.2394
X0.8842Y6.2268
X0.9469Y6.2103
X1.0083Y6.1903
X1.0083Y6.1903
X1.0149Y6.1876
X1.0217Y6.1851
X1.0284Y6.1826
X1.0350Y6.1798
X1.0413Y6.1767
X1.0470Y6.1730
X1.0521Y6.1686
X1.0564Y6.1633
X1.0597Y6.1569
X1.0597Y6.1569
X1.0686Y6.1413
X1.0777Y6.1259
X1.0871Y6.1106
X1.0968Y6.0956
X1.1067Y6.0808
X1.1170Y6.0662
X1.1276Y6.0518
X1.1386Y6.0376
X1.1500Y6.0236
X1.1500Y6.0236
X1.0854Y6.0094
X1.0225Y5.9893
X0.9618Y5.9634
X0.9039Y5.9320
X0.8494Y5.8952
X0.7989Y5.8532
X0.7528Y5.8064
X0.7118Y5.7547
X0.6764Y5.6986
X0.6764Y5.6986
X0.6432Y5.6339
X0.6163Y5.5669
X0.5952Y5.4980
X0.5794Y5.4277
X0.5683Y5.3561
X0.5613Y5.2839
X0.5579Y5.2113
X0.5575Y5.1388
X0.5597Y5.0667
X0.5597Y5.0667
X0.5130Y5.1084
X0.4682Y5.1522
X0.4254Y5.1978
X0.3848Y5.2454
X0.3464Y5.2947
X0.3102Y5.3457
X0.2765Y5.3983
X0.2453Y5.4526
X0.2167Y5.5083
X0.2167Y5.5083
X0.2127Y5.5177
X0.2100Y5.5272
X0.2083Y5.5369
X0.2074Y5.5468
X0.2070Y5.5567
X0.2070Y5.5668
X0.2071Y5.5769
X0.2072Y5.5870
X0.2070Y5.5972
X0.2069Y5.5972
X0.2076Y5.6370
X0.2078Y5.6768
X0.2077Y5.7167
X0.2074Y5.7565
X0.2072Y5.7963
X0.2072Y5.8361
X0.2075Y5.8759
X0.2083Y5.9157
X0.2097Y5.9556
X0.2097Y5.9556
X0.2290Y5.9890
X0.2498Y6.0217
X0.2721Y6.0535
X0.2959Y6.0842
X0.3211Y6.1137
X0.3478Y6.1419
X0.3759Y6.1685
X0.4053Y6.1935
X0.4361Y6.2167
Z0.05
G00X1.6306Y6.1764Z0.05
G01Z-0.0050
X1.6306Y6.1764
X1.6398Y6.1776
X1.6491Y6.1784
X1.6584Y6.1790
X1.6677Y6.1794
X1.6771Y6.1796
X1.6865Y6.1798
X1.6960Y6.1799
X1.7056Y6.1802
X1.7153Y6.1806
X1.7153Y6.1806
X1.7152Y6.1315
X1.7229Y6.0844
X1.7373Y6.0395
X1.7578Y5.9968
X1.7833Y5.9566
X1.8131Y5.9188
X1.8463Y5.8838
X1.8820Y5.8515
X1.9194Y5.8222
X1.9194Y5.8222
X1.8799Y5.8179
X1.8401Y5.8162
X1.8003Y5.8170
X1.7604Y5.8203
X1.7209Y5.8261
X1.6817Y5.8344
X1.6430Y5.8450
X1.6051Y5.8581
X1.5681Y5.8736
X1.5681Y5.8736
X1.5587Y5.8856
X1.5501Y5.8983
X1.5422Y5.9116
X1.5352Y5.9254
X1.5289Y5.9396
X1.5235Y5.9542
X1.5190Y5.9689
X1.5153Y5.9838
X1.5125Y5.9986
X1.5125Y5.9986
X1.5193Y6.0220
X1.5278Y6.0450
X1.5379Y6.0672
X1.5495Y6.0886
X1.5627Y6.1090
X1.5774Y6.1281
X1.5937Y6.1459
X1.6114Y6.1620
X1.6306Y6.1764
Z0.05
G00X0.7139Y5.5917Z0.05
G01Z-0.0050
X0.7139Y5.5917
X0.7713Y5.6438
X0.8337Y5.6884
X0.9003Y5.7260
X0.9705Y5.7570
X1.0433Y5.7818
X1.1182Y5.8008
X1.1943Y5.8145
X1.2709Y5.8234
X1.3472Y5.8278
X1.3472Y5.8278
X1.3657Y5.8288
X1.3834Y5.8267
X1.4003Y5.8221
X1.4168Y5.8156
X1.4328Y5.8078
X1.4488Y5.7992
X1.4647Y5.7905
X1.4808Y5.7822
X1.4972Y5.7750
X1.4972Y5.7750
X1.4573Y5.7454
X1.4203Y5.7124
X1.3862Y5.6763
X1.3554Y5.6374
X1.3281Y5.5960
X1.3045Y5.5524
X1.2849Y5.5068
X1.2694Y5.4596
X1.2583Y5.4111
X1.2583Y5.4111
X1.2497Y5.3499
X1.2465Y5.2887
X1.2483Y5.2275
X1.2545Y5.1666
X1.2648Y5.1061
X1.2786Y5.0461
X1.2954Y4.9868
X1.3147Y4.9283
X1.3361Y4.8708
X1.3361Y4.8708
X1.2787Y4.8708
X1.2213Y4.8707
X1.1639Y4.8706
X1.1065Y4.8705
X1.0491Y4.8705
X0.9917Y4.8706
X0.9343Y4.8709
X0.8769Y4.8714
X0.8194Y4.8722
X0.8194Y4.8722
X0.7976Y4.8836
X0.7763Y4.8961
X0.7556Y4.9097
X0.7352Y4.9241
X0.7152Y4.9392
X0.6954Y4.9546
X0.6756Y4.9703
X0.6559Y4.9859
X0.6361Y5.0014
X0.6361Y5.0014
X0.6317Y5.0557
X0.6287Y5.1102
X0.6273Y5.1648
X0.6278Y5.2194
X0.6304Y5.2739
X0.6352Y5.3282
X0.6425Y5.3822
X0.6524Y5.4358
X0.6653Y5.4889
X0.6653Y5.4889
X0.6685Y5.5011
X0.6718Y5.5134
X0.6754Y5.5257
X0.6795Y5.5379
X0.6843Y5.5498
X0.6899Y5.5613
X0.6965Y5.5722
X0.7045Y5.5824
X0.7139Y5.5917
Z0.05
G00X1.7917Y5.6819Z0.05
G01Z-0.0050
X1.7917Y5.6819
X1.8059Y5.6895
X1.8209Y5.6948
X1.8364Y5.6983
X1.8522Y5.7005
X1.8683Y5.7018
X1.8845Y5.7026
X1.9006Y5.7035
X1.9164Y5.7048
X1.9319Y5.7069
X1.9319Y5.7069
X1.9142Y5.6695
X1.8999Y5.6307
X1.8890Y5.5907
X1.8816Y5.5499
X1.8776Y5.5086
X1.8772Y5.4671
X1.8803Y5.4257
X1.8870Y5.3847
X1.8972Y5.3445
X1.8972Y5.3444
X1.9192Y5.2821
X1.9467Y5.2226
X1.9790Y5.1658
X2.0156Y5.1115
X2.0557Y5.0595
X2.0988Y5.0097
X2.1441Y4.9617
X2.1910Y4.9155
X2.2389Y4.8708
X2.2389Y4.8708
X2.1472Y4.8705
X2.0554Y4.8703
X1.9635Y4.8702
X1.8716Y4.8703
X1.7797Y4.8704
X1.6879Y4.8705
X1.5960Y4.8707
X1.5042Y4.8708
X1.4125Y4.8708
X1.4125Y4.8708
X1.4011Y4.8983
X1.3903Y4.9260
X1.3799Y4.9541
X1.3701Y4.9823
X1.3610Y5.0108
X1.3525Y5.0395
X1.3448Y5.0683
X1.3380Y5.0973
X1.3319Y5.1264
X1.3319Y5.1264
X1.3302Y5.1397
X1.3303Y5.1529
X1.3319Y5.1658
X1.3348Y5.1787
X1.3386Y5.1914
X1.3431Y5.2041
X1.3478Y5.2166
X1.3525Y5.2292
X1.3569Y5.2417
X1.3569Y5.2417
X1.3874Y5.3050
X1.4239Y5.3644
X1.4656Y5.4200
X1.5120Y5.4720
X1.5625Y5.5205
X1.6163Y5.5656
X1.6729Y5.6075
X1.7315Y5.6462
X1.7917Y5.6819
Z0.05
G00X0.2083Y5.2875Z0.05
G01Z-0.0050
X0.2083Y5.2875
X0.2457Y5.2344
X0.2854Y5.1833
X0.3273Y5.1341
X0.3710Y5.0867
X0.4165Y5.0408
X0.4635Y4.9964
X0.5117Y4.9534
X0.5610Y4.9116
X0.6111Y4.8708
X0.6111Y4.8708
X0.5662Y4.8705
X0.5213Y4.8703
X0.4764Y4.8702
X0.4316Y4.8703
X0.3868Y4.8704
X0.3421Y4.8705
X0.2974Y4.8707
X0.2528Y4.8708
X0.2083Y4.8708
X0.2083Y4.8708
X0.2083Y4.9171
X0.2082Y4.9634
X0.2080Y5.0097
X0.2079Y5.0560
X0.2078Y5.1023
X0.2077Y5.1486
X0.2078Y5.1949
X0.2080Y5.2412
X0.2083Y5.2875
Z0.05
G00Z0.05
M05
M30
%
