T1M6
G17
G0Z20.000
G0X0.000Y0.000S6000M3
G0X161.784Y209.342Z6.000
G1Z-0.000F48.0
G1X161.472Y209.339Z-0.430
G1X161.157Y209.329Z-0.863
G1X160.839Y209.312Z-1.300
G1X160.520Y209.289Z-1.741
G1X160.198Y209.258Z-2.185
G1X159.875Y209.220Z-2.633
G1X159.790Y209.208Z-2.750
G1X159.875Y209.220Z-2.867
G1X160.198Y209.258Z-3.315
G1X160.520Y209.289Z-3.759
G1X160.839Y209.312Z-4.200
G1X161.157Y209.329Z-4.637
G1X161.472Y209.339Z-5.070
G1X161.784Y209.342Z-5.500
G1X161.472Y209.339F240.0
X161.157Y209.329
X160.839Y209.312
X160.520Y209.289
X160.198Y209.258
X159.875Y209.220
X159.550Y209.174
X159.224Y209.121
X158.897Y209.061
X158.569Y208.993
X158.241Y208.917
X157.912Y208.833
X157.584Y208.741
X157.255Y208.640
X156.928Y208.532
X156.601Y208.416
X156.275Y208.291
X155.951Y208.158
X155.628Y208.017
X155.307Y207.868
X154.989Y207.711
X154.673Y207.545
X154.361Y207.371
X154.051Y207.190
X153.745Y207.000
X153.443Y206.803
X153.146Y206.597
X152.852Y206.385
X152.564Y206.164
X152.280Y205.937
X152.002Y205.702
X151.729Y205.461
X151.462Y205.213
X151.201Y204.958
X150.946Y204.697
X150.698Y204.430
X150.456Y204.157
X150.222Y203.879
X149.994Y203.595
X149.774Y203.307
X149.561Y203.013
X149.356Y202.715
X149.159Y202.413
X148.969Y202.107
X148.787Y201.798
X148.614Y201.485
X148.448Y201.170
X148.291Y200.852
X148.142Y200.531
X148.000Y200.208
X147.868Y199.884
X147.743Y199.558
X147.627Y199.231
X147.518Y198.903
X147.418Y198.575
X147.326Y198.246
X147.242Y197.918
X147.166Y197.589
X147.098Y197.262
X147.037Y196.935
X146.984Y196.609
X146.939Y196.284
X146.901Y195.961
X146.870Y195.639
X146.847Y195.320
X146.830Y195.002
X146.820Y194.687
X146.817Y194.374
X146.820Y194.062
X146.830Y193.747
X146.847Y193.429
X146.870Y193.110
X146.901Y192.788
X146.939Y192.465
X146.984Y192.140
X147.037Y191.814
X147.098Y191.487
X147.166Y191.159
X147.242Y190.831
X147.326Y190.502
X147.418Y190.174
X147.518Y189.845
X147.627Y189.518
X147.743Y189.191
X147.868Y188.865
X148.000Y188.540
X148.142Y188.218
X148.291Y187.897
X148.448Y187.579
X148.614Y187.263
X148.787Y186.951
X148.969Y186.641
X149.159Y186.335
X149.356Y186.033
X149.561Y185.736
X149.774Y185.442
X149.994Y185.153
X150.222Y184.870
X150.456Y184.591
X150.698Y184.319
X150.946Y184.052
X151.201Y183.791
X151.462Y183.536
X151.729Y183.288
X152.002Y183.046
X152.280Y182.812
X152.564Y182.584
X152.852Y182.364
X153.146Y182.151
X153.443Y181.946
X153.745Y181.749
X154.051Y181.559
X154.361Y181.377
X154.673Y181.204
X154.989Y181.038
X155.307Y180.881
X155.628Y180.731
X155.951Y180.590
X156.275Y180.458
X156.601Y180.333
X156.928Y180.217
X157.255Y180.108
X157.584Y180.008
X157.912Y179.916
X158.241Y179.832
X158.569Y179.756
X158.897Y179.688
X159.224Y179.627
X159.550Y179.574
X159.875Y179.529
X160.198Y179.491
X160.520Y179.460
X160.839Y179.437
X161.157Y179.420
X161.472Y179.410
X161.784Y179.407
X162.097Y179.410
X162.412Y179.420
X162.730Y179.437
X163.049Y179.460
X163.371Y179.491
X163.694Y179.529
X164.019Y179.574
X164.345Y179.627
X164.672Y179.688
X164.999Y179.756
X165.328Y179.832
X165.656Y179.916
X165.985Y180.008
X166.313Y180.108
X166.641Y180.217
X166.968Y180.333
X167.294Y180.458
X167.618Y180.590
X167.941Y180.731
X168.262Y180.881
X168.580Y181.038
X168.895Y181.204
X169.208Y181.377
X169.518Y181.559
X169.823Y181.749
X170.125Y181.946
X170.423Y182.151
X170.717Y182.364
X171.005Y182.584
X171.289Y182.812
X171.567Y183.046
X171.840Y183.288
X172.107Y183.536
X172.368Y183.791
X172.623Y184.052
X172.871Y184.319
X173.113Y184.591
X173.347Y184.870
X173.575Y185.153
X173.795Y185.442
X174.007Y185.736
X174.213Y186.033
X174.410Y186.335
X174.600Y186.641
X174.781Y186.951
X174.955Y187.263
X175.121Y187.579
X175.278Y187.897
X175.427Y188.218
X175.568Y188.540
X175.701Y188.865
X175.826Y189.191
X175.942Y189.518
X176.050Y189.845
X176.151Y190.174
X176.243Y190.502
X176.327Y190.831
X176.403Y191.159
X176.471Y191.487
X176.532Y191.814
X176.584Y192.140
X176.630Y192.465
X176.668Y192.788
X176.699Y193.110
X176.722Y193.429
X176.739Y193.747
X176.749Y194.062
X176.752Y194.374
X176.749Y194.687
X176.739Y195.002
X176.722Y195.320
X176.699Y195.639
X176.668Y195.961
X176.630Y196.284
X176.584Y196.609
X176.532Y196.935
X176.471Y197.262
X176.403Y197.589
X176.327Y197.918
X176.243Y198.246
X176.151Y198.575
X176.050Y198.903
X175.942Y199.231
X175.826Y199.558
X175.701Y199.884
X175.568Y200.208
X175.427Y200.531
X175.278Y200.852
X175.121Y201.170
X174.955Y201.485
X174.781Y201.798
X174.600Y202.107
X174.410Y202.413
X174.213Y202.715
X174.007Y203.013
X173.795Y203.307
X173.575Y203.595
X173.347Y203.879
X173.113Y204.157
X172.871Y204.430
X172.623Y204.697
X172.368Y204.958
X172.107Y205.213
X171.840Y205.461
X171.567Y205.702
X171.289Y205.937
X171.005Y206.164
X170.717Y206.385
X170.423Y206.597
X170.125Y206.803
X169.823Y207.000
X169.518Y207.190
X169.208Y207.371
X168.895Y207.545
X168.580Y207.711
X168.262Y207.868
X167.941Y208.017
X167.618Y208.158
X167.294Y208.291
X166.968Y208.416
X166.641Y208.532
X166.313Y208.640
X165.985Y208.741
X165.656Y208.833
X165.328Y208.917
X164.999Y208.993
X164.672Y209.061
X164.345Y209.121
X164.019Y209.174
X163.694Y209.220
X163.371Y209.258
X163.049Y209.289
X162.730Y209.312
X162.412Y209.329
X162.097Y209.339
X161.784Y209.342
G1X161.472Y209.339Z-5.930F48.0
G1X161.157Y209.329Z-6.363
G1X160.839Y209.312Z-6.800
G1X160.520Y209.289Z-7.241
G1X160.198Y209.258Z-7.685
G1X159.875Y209.220Z-8.133
G1X159.790Y209.208Z-8.250
G1X159.875Y209.220Z-8.367
G1X160.198Y209.258Z-8.815
G1X160.520Y209.289Z-9.259
G1X160.839Y209.312Z-9.700
G1X161.157Y209.329Z-10.137
G1X161.472Y209.339Z-10.570
G1X161.784Y209.342Z-11.000
G1X161.472Y209.339F240.0
X161.157Y209.329
X160.839Y209.312
X160.520Y209.289
X160.198Y209.258
X159.875Y209.220
X159.550Y209.174
X159.224Y209.121
X158.897Y209.061
X158.569Y208.993
X158.241Y208.917
X157.912Y208.833
X157.584Y208.741
X157.255Y208.640
X156.928Y208.532
X156.601Y208.416
X156.275Y208.291
X155.951Y208.158
X155.628Y208.017
X155.307Y207.868
X154.989Y207.711
X154.673Y207.545
X154.361Y207.371
X154.051Y207.190
X153.745Y207.000
X153.443Y206.803
X153.146Y206.597
X152.852Y206.385
X152.564Y206.164
X152.280Y205.937
X152.002Y205.702
X151.729Y205.461
X151.462Y205.213
X151.201Y204.958
X150.946Y204.697
X150.698Y204.430
X150.456Y204.157
X150.222Y203.879
X149.994Y203.595
X149.774Y203.307
X149.561Y203.013
X149.356Y202.715
X149.159Y202.413
X148.969Y202.107
X148.787Y201.798
X148.614Y201.485
X148.448Y201.170
X148.291Y200.852
X148.142Y200.531
X148.000Y200.208
X147.868Y199.884
X147.743Y199.558
X147.627Y199.231
X147.518Y198.903
X147.418Y198.575
X147.326Y198.246
X147.242Y197.918
X147.166Y197.589
X147.098Y197.262
X147.037Y196.935
X146.984Y196.609
X146.939Y196.284
X146.901Y195.961
X146.870Y195.639
X146.847Y195.320
X146.830Y195.002
X146.820Y194.687
X146.817Y194.374
X146.820Y194.062
X146.830Y193.747
X146.847Y193.429
X146.870Y193.110
X146.901Y192.788
X146.939Y192.465
X146.984Y192.140
X147.037Y191.814
X147.098Y191.487
X147.166Y191.159
X147.242Y190.831
X147.326Y190.502
X147.418Y190.174
X147.518Y189.845
X147.627Y189.518
X147.743Y189.191
X147.868Y188.865
X148.000Y188.540
X148.142Y188.218
X148.291Y187.897
X148.448Y187.579
X148.614Y187.263
X148.787Y186.951
X148.969Y186.641
X149.159Y186.335
X149.356Y186.033
X149.561Y185.736
X149.774Y185.442
X149.994Y185.153
X150.222Y184.870
X150.456Y184.591
X150.698Y184.319
X150.946Y184.052
X151.201Y183.791
X151.462Y183.536
X151.729Y183.288
X152.002Y183.046
X152.280Y182.812
X152.564Y182.584
X152.852Y182.364
X153.146Y182.151
X153.443Y181.946
X153.745Y181.749
X154.051Y181.559
X154.361Y181.377
X154.673Y181.204
X154.989Y181.038
X155.307Y180.881
X155.628Y180.731
X155.951Y180.590
X156.275Y180.458
X156.601Y180.333
X156.928Y180.217
X157.255Y180.108
X157.584Y180.008
X157.912Y179.916
X158.241Y179.832
X158.569Y179.756
X158.897Y179.688
X159.224Y179.627
X159.550Y179.574
X159.875Y179.529
X160.198Y179.491
X160.520Y179.460
X160.839Y179.437
X161.157Y179.420
X161.472Y179.410
X161.784Y179.407
X162.097Y179.410
X162.412Y179.420
X162.730Y179.437
X163.049Y179.460
X163.371Y179.491
X163.694Y179.529
X164.019Y179.574
X164.345Y179.627
X164.672Y179.688
X164.999Y179.756
X165.328Y179.832
X165.656Y179.916
X165.985Y180.008
X166.313Y180.108
X166.641Y180.217
X166.968Y180.333
X167.294Y180.458
X167.618Y180.590
X167.941Y180.731
X168.262Y180.881
X168.580Y181.038
X168.895Y181.204
X169.208Y181.377
X169.518Y181.559
X169.823Y181.749
X170.125Y181.946
X170.423Y182.151
X170.717Y182.364
X171.005Y182.584
X171.289Y182.812
X171.567Y183.046
X171.840Y183.288
X172.107Y183.536
X172.368Y183.791
X172.623Y184.052
X172.871Y184.319
X173.113Y184.591
X173.347Y184.870
X173.575Y185.153
X173.795Y185.442
X174.007Y185.736
X174.213Y186.033
X174.410Y186.335
X174.600Y186.641
X174.781Y186.951
X174.955Y187.263
X175.121Y187.579
X175.278Y187.897
X175.427Y188.218
X175.568Y188.540
X175.701Y188.865
X175.826Y189.191
X175.942Y189.518
X176.050Y189.845
X176.151Y190.174
X176.243Y190.502
X176.327Y190.831
X176.403Y191.159
X176.471Y191.487
X176.532Y191.814
X176.584Y192.140
X176.630Y192.465
X176.668Y192.788
X176.699Y193.110
X176.722Y193.429
X176.739Y193.747
X176.749Y194.062
X176.752Y194.374
X176.749Y194.687
X176.739Y195.002
X176.722Y195.320
X176.699Y195.639
X176.668Y195.961
X176.630Y196.284
X176.584Y196.609
X176.532Y196.935
X176.471Y197.262
X176.403Y197.589
X176.327Y197.918
X176.243Y198.246
X176.151Y198.575
X176.050Y198.903
X175.942Y199.231
X175.826Y199.558
X175.701Y199.884
X175.568Y200.208
X175.427Y200.531
X175.278Y200.852
X175.121Y201.170
X174.955Y201.485
X174.781Y201.798
X174.600Y202.107
X174.410Y202.413
X174.213Y202.715
X174.007Y203.013
X173.795Y203.307
X173.575Y203.595
X173.347Y203.879
X173.113Y204.157
X172.871Y204.430
X172.623Y204.697
X172.368Y204.958
X172.107Y205.213
X171.840Y205.461
X171.567Y205.702
X171.289Y205.937
X171.005Y206.164
X170.717Y206.385
X170.423Y206.597
X170.125Y206.803
X169.823Y207.000
X169.518Y207.190
X169.208Y207.371
X168.895Y207.545
X168.580Y207.711
X168.262Y207.868
X167.941Y208.017
X167.618Y208.158
X167.294Y208.291
X166.968Y208.416
X166.641Y208.532
X166.313Y208.640
X165.985Y208.741
X165.656Y208.833
X165.328Y208.917
X164.999Y208.993
X164.672Y209.061
X164.345Y209.121
X164.019Y209.174
X163.694Y209.220
X163.371Y209.258
X163.049Y209.289
X162.730Y209.312
X162.412Y209.329
X162.097Y209.339
X161.784Y209.342
G0Z6.000
G0X167.394Y239.289Z6.000
G1Z-5.500F48.0
G1X170.367Y239.193F240.0
X173.331Y238.903
X176.267Y238.422
X176.812Y238.312
X177.358Y238.194
X177.904Y238.068
X178.451Y237.936
X178.999Y237.796
X179.547Y237.649
X180.095Y237.495
X180.643Y237.333
X181.192Y237.164
X181.740Y236.987
X182.288Y236.803
X182.836Y236.611
X183.383Y236.411
X183.929Y236.204
X184.475Y235.989
X185.019Y235.766
X185.562Y235.536
X186.104Y235.298
X186.645Y235.052
X187.184Y234.798
X187.721Y234.537
X188.256Y234.268
X188.789Y233.991
X189.320Y233.707
X189.848Y233.415
X190.374Y233.115
X190.897Y232.807
X191.417Y232.492
X191.934Y232.169
X192.447Y231.839
X192.958Y231.501
X193.464Y231.156
X193.967Y230.803
X194.466Y230.443
X194.961Y230.076
X195.452Y229.702
X195.939Y229.320
X196.421Y228.931
X196.898Y228.535
X197.371Y228.133
X197.838Y227.723
X198.301Y227.307
X198.758Y226.884
X199.210Y226.454
X199.656Y226.018
X200.096Y225.576
X200.531Y225.127
X200.960Y224.673
X201.383Y224.212
X201.800Y223.746
X202.210Y223.273
X202.614Y222.795
X203.011Y222.312
X203.402Y221.823
X203.786Y221.329
X204.163Y220.830
X204.533Y220.326
X204.896Y219.818
X205.252Y219.304
X205.601Y218.786
X205.942Y218.264
X206.276Y217.738
X206.602Y217.207
X206.921Y216.673
X207.233Y216.135
X207.536Y215.593
X207.832Y215.049
X208.120Y214.500
X208.401Y213.949
X208.673Y213.395
X208.938Y212.838
X209.194Y212.279
X209.443Y211.717
X209.684Y211.153
X209.916Y210.587
X210.141Y210.020
X210.358Y209.450
X210.566Y208.879
X210.767Y208.306
X210.959Y207.732
X211.143Y207.158
X211.320Y206.582
X211.488Y206.005
X211.649Y205.428
X211.801Y204.851
X211.946Y204.273
X212.082Y203.695
X212.211Y203.117
X212.332Y202.540
X212.445Y201.962
X212.550Y201.386
X212.648Y200.810
X212.738Y200.234
X212.820Y199.660
X212.895Y199.086
X212.962Y198.514
X213.022Y197.943
X213.075Y197.374
X213.120Y196.806
X213.158Y196.240
X213.189Y195.676
X213.213Y195.113
X213.230Y194.553
X213.240Y193.995
X213.244Y193.439
X213.240Y192.885
X213.230Y192.328
X213.213Y191.769
X213.189Y191.208
X213.159Y190.645
X213.121Y190.080
X213.075Y189.513
X213.023Y188.944
X212.963Y188.374
X212.896Y187.803
X212.821Y187.230
X212.739Y186.656
X212.649Y186.081
X212.552Y185.505
X212.447Y184.929
X212.334Y184.352
X212.213Y183.774
X212.085Y183.196
X211.949Y182.618
X211.804Y182.040
X211.652Y181.462
X211.492Y180.885
X211.323Y180.308
X211.147Y179.732
X210.962Y179.156
X210.770Y178.582
X210.569Y178.008
X210.360Y177.436
X210.143Y176.866
X209.919Y176.297
X209.685Y175.730
X209.444Y175.164
X209.195Y174.601
X208.938Y174.041
X208.673Y173.483
X208.399Y172.927
X208.118Y172.374
X207.829Y171.825
X207.532Y171.278
X207.227Y170.735
X206.915Y170.195
X206.595Y169.659
X206.267Y169.127
X205.931Y168.598
X205.588Y168.074
X205.238Y167.554
X204.880Y167.039
X204.515Y166.528
X204.143Y166.022
X203.764Y165.521
X203.377Y165.025
X202.984Y164.534
X202.584Y164.048
X202.178Y163.568
X201.765Y163.094
X201.345Y162.625
X200.919Y162.162
X200.487Y161.706
X200.049Y161.255
X199.605Y160.811
X199.155Y160.372
X198.700Y159.941
X198.239Y159.516
X197.773Y159.098
X197.301Y158.686
X196.824Y158.282
X196.343Y157.884
X195.856Y157.494
X195.365Y157.110
X194.870Y156.734
X194.370Y156.365
X193.866Y156.004
X193.358Y155.650
X192.847Y155.303
X192.331Y154.964
X191.812Y154.633
X191.290Y154.309
X190.765Y153.993
X190.236Y153.685
X189.705Y153.384
X189.171Y153.091
X188.635Y152.806
X188.096Y152.529
X187.555Y152.260
X187.012Y151.999
X186.467Y151.745
X185.920Y151.499
X185.372Y151.261
X184.823Y151.031
X184.272Y150.809
X183.720Y150.595
X183.167Y150.388
X182.614Y150.189
X182.060Y149.998
X181.505Y149.815
X180.951Y149.640
X180.396Y149.472
X179.841Y149.311
X179.286Y149.159
X178.731Y149.013
X178.177Y148.876
X177.624Y148.745
X177.071Y148.622
X176.519Y148.507
X175.968Y148.398
X175.418Y148.297
X174.869Y148.203
X174.321Y148.116
X170.868Y147.721
X167.394Y147.590
X163.920Y147.721
X160.467Y148.116
X159.919Y148.203
X159.370Y148.297
X158.820Y148.398
X158.269Y148.507
X157.717Y148.622
X157.164Y148.745
X156.611Y148.876
X156.056Y149.013
X155.502Y149.159
X154.947Y149.311
X154.392Y149.472
X153.837Y149.640
X153.282Y149.815
X152.728Y149.998
X152.174Y150.189
X151.620Y150.388
X151.068Y150.595
X150.516Y150.809
X149.965Y151.031
X149.416Y151.261
X148.868Y151.499
X148.321Y151.745
X147.776Y151.999
X147.233Y152.260
X146.692Y152.529
X146.153Y152.806
X145.617Y153.091
X145.083Y153.384
X144.552Y153.685
X144.023Y153.993
X143.498Y154.309
X142.975Y154.633
X142.457Y154.964
X141.941Y155.303
X141.429Y155.650
X140.922Y156.004
X140.418Y156.365
X139.918Y156.734
X139.422Y157.110
X138.932Y157.494
X138.445Y157.884
X137.964Y158.282
X137.487Y158.686
X137.015Y159.098
X136.549Y159.516
X136.088Y159.941
X135.633Y160.372
X135.183Y160.811
X134.739Y161.255
X134.301Y161.706
X133.869Y162.162
X133.443Y162.625
X133.023Y163.094
X132.610Y163.568
X132.204Y164.048
X131.804Y164.534
X131.411Y165.025
X131.024Y165.521
X130.645Y166.022
X130.273Y166.528
X129.908Y167.039
X129.550Y167.554
X129.200Y168.074
X128.857Y168.598
X128.521Y169.127
X128.193Y169.659
X127.873Y170.195
X127.561Y170.735
X127.256Y171.278
X126.959Y171.825
X126.670Y172.374
X126.388Y172.927
X126.115Y173.483
X125.850Y174.041
X125.593Y174.601
X125.344Y175.164
X125.102Y175.730
X124.869Y176.297
X124.644Y176.866
X124.428Y177.436
X124.219Y178.008
X124.018Y178.582
X123.826Y179.156
X123.641Y179.732
X123.465Y180.308
X123.296Y180.885
X123.136Y181.462
X122.984Y182.040
X122.839Y182.618
X122.703Y183.196
X122.574Y183.774
X122.454Y184.352
X122.341Y184.929
X122.236Y185.505
X122.138Y186.081
X122.049Y186.656
X121.967Y187.230
X121.892Y187.803
X121.825Y188.374
X121.765Y188.944
X121.713Y189.513
X121.667Y190.080
X121.629Y190.645
X121.598Y191.208
X121.575Y191.769
X121.558Y192.328
X121.547Y192.885
X121.544Y193.439
X121.547Y193.992
X121.558Y194.547
X121.574Y195.105
X121.598Y195.664
X121.629Y196.226
X121.667Y196.790
X121.712Y197.355
X121.764Y197.923
X121.823Y198.492
X121.890Y199.062
X121.965Y199.634
X122.046Y200.207
X122.136Y200.781
X122.233Y201.356
X122.338Y201.932
X122.450Y202.509
X122.570Y203.086
X122.699Y203.663
X122.835Y204.241
X122.979Y204.819
X123.131Y205.396
X123.291Y205.974
X123.459Y206.551
X123.635Y207.127
X123.819Y207.703
X124.012Y208.278
X124.212Y208.852
X124.421Y209.424
X124.638Y209.996
X124.863Y210.565
X125.096Y211.133
X125.337Y211.699
X125.586Y212.263
X125.844Y212.825
X126.109Y213.384
X126.383Y213.941
X126.665Y214.495
X126.954Y215.046
X127.252Y215.594
X127.557Y216.139
X127.871Y216.680
X128.192Y217.217
X128.521Y217.751
X128.857Y218.281
X129.201Y218.807
X129.553Y219.329
X129.912Y219.846
X130.279Y220.359
X130.652Y220.867
X131.033Y221.370
X131.421Y221.868
X131.816Y222.361
X132.218Y222.848
X132.627Y223.330
X133.042Y223.807
X133.464Y224.278
X133.893Y224.742
X134.327Y225.201
X134.768Y225.654
X135.215Y226.100
X135.668Y226.540
X136.126Y226.974
X136.591Y227.401
X137.060Y227.821
X137.535Y228.234
X138.016Y228.641
X138.501Y229.040
X138.991Y229.432
X139.486Y229.817
X139.986Y230.195
X140.489Y230.566
X140.998Y230.929
X141.510Y231.284
X142.026Y231.632
X142.546Y231.972
X143.070Y232.305
X143.597Y232.630
X144.127Y232.947
X144.660Y233.256
X145.197Y233.558
X145.736Y233.852
X146.278Y234.137
X146.822Y234.415
X147.368Y234.685
X147.917Y234.947
X148.467Y235.201
X149.020Y235.446
X149.573Y235.684
X150.129Y235.914
X150.685Y236.136
X151.243Y236.350
X151.801Y236.557
X152.361Y236.755
X152.921Y236.945
X153.482Y237.128
X154.042Y237.302
X154.604Y237.469
X155.165Y237.628
X155.726Y237.780
X156.286Y237.923
X156.847Y238.060
X157.406Y238.188
X157.966Y238.309
X158.524Y238.423
X159.081Y238.529
X159.637Y238.628
X160.192Y238.720
X160.746Y238.805
X161.298Y238.882
X161.849Y238.953
X162.398Y239.016
X164.892Y239.221
X167.394Y239.289
G1Z-8.000F48.0
G1X170.367Y239.193F240.0
X173.331Y238.903
X176.267Y238.422
G1Z-11.000F48.0
G1X176.812Y238.312F240.0
X177.358Y238.194
X177.904Y238.068
X178.451Y237.936
X178.999Y237.796
X179.547Y237.649
X180.095Y237.495
X180.643Y237.333
X181.192Y237.164
X181.740Y236.987
X182.288Y236.803
X182.836Y236.611
X183.383Y236.411
X183.929Y236.204
X184.475Y235.989
X185.019Y235.766
X185.562Y235.536
X186.104Y235.298
X186.645Y235.052
X187.184Y234.798
X187.721Y234.537
X188.256Y234.268
X188.789Y233.991
X189.320Y233.707
X189.848Y233.415
X190.374Y233.115
X190.897Y232.807
X191.417Y232.492
X191.934Y232.169
X192.447Y231.839
X192.958Y231.501
X193.464Y231.156
X193.967Y230.803
X194.466Y230.443
X194.961Y230.076
X195.452Y229.702
X195.939Y229.320
X196.421Y228.931
X196.898Y228.535
X197.371Y228.133
X197.838Y227.723
X198.301Y227.307
X198.758Y226.884
X199.210Y226.454
X199.656Y226.018
X200.096Y225.576
X200.531Y225.127
X200.960Y224.673
X201.383Y224.212
X201.800Y223.746
X202.210Y223.273
X202.614Y222.795
X203.011Y222.312
X203.402Y221.823
X203.786Y221.329
X204.163Y220.830
X204.533Y220.326
X204.896Y219.818
X205.252Y219.304
X205.601Y218.786
X205.942Y218.264
X206.276Y217.738
X206.602Y217.207
X206.921Y216.673
X207.233Y216.135
X207.536Y215.593
X207.832Y215.049
X208.120Y214.500
X208.401Y213.949
X208.673Y213.395
X208.938Y212.838
X209.194Y212.279
X209.443Y211.717
X209.684Y211.153
X209.916Y210.587
X210.141Y210.020
X210.358Y209.450
X210.566Y208.879
X210.767Y208.306
X210.959Y207.732
X211.143Y207.158
X211.320Y206.582
X211.488Y206.005
X211.649Y205.428
X211.801Y204.851
X211.946Y204.273
X212.082Y203.695
X212.211Y203.117
X212.332Y202.540
X212.445Y201.962
X212.550Y201.386
X212.648Y200.810
X212.738Y200.234
X212.820Y199.660
X212.895Y199.086
X212.962Y198.514
X213.022Y197.943
X213.075Y197.374
X213.120Y196.806
X213.158Y196.240
X213.189Y195.676
X213.213Y195.113
X213.230Y194.553
X213.240Y193.995
X213.244Y193.439
X213.240Y192.885
X213.230Y192.328
X213.213Y191.769
X213.189Y191.208
X213.159Y190.645
X213.121Y190.080
X213.075Y189.513
X213.023Y188.944
X212.963Y188.374
X212.896Y187.803
X212.821Y187.230
X212.739Y186.656
X212.649Y186.081
X212.552Y185.505
X212.447Y184.929
X212.334Y184.352
X212.213Y183.774
X212.085Y183.196
X211.949Y182.618
X211.804Y182.040
X211.652Y181.462
X211.492Y180.885
X211.323Y180.308
X211.147Y179.732
X210.962Y179.156
X210.770Y178.582
X210.569Y178.008
X210.360Y177.436
X210.143Y176.866
X209.919Y176.297
X209.685Y175.730
X209.444Y175.164
X209.195Y174.601
X208.938Y174.041
X208.673Y173.483
X208.399Y172.927
X208.118Y172.374
X207.829Y171.825
X207.532Y171.278
X207.227Y170.735
X206.915Y170.195
X206.595Y169.659
X206.267Y169.127
X205.931Y168.598
X205.588Y168.074
X205.238Y167.554
X204.880Y167.039
X204.515Y166.528
X204.143Y166.022
X203.764Y165.521
X203.377Y165.025
X202.984Y164.534
X202.584Y164.048
X202.178Y163.568
X201.765Y163.094
X201.345Y162.625
X200.919Y162.162
X200.487Y161.706
X200.049Y161.255
X199.605Y160.811
X199.155Y160.372
X198.700Y159.941
X198.239Y159.516
X197.773Y159.098
X197.301Y158.686
X196.824Y158.282
X196.343Y157.884
X195.856Y157.494
X195.365Y157.110
X194.870Y156.734
X194.370Y156.365
X193.866Y156.004
X193.358Y155.650
X192.847Y155.303
X192.331Y154.964
X191.812Y154.633
X191.290Y154.309
X190.765Y153.993
X190.236Y153.685
X189.705Y153.384
X189.171Y153.091
X188.635Y152.806
X188.096Y152.529
X187.555Y152.260
X187.012Y151.999
X186.467Y151.745
X185.920Y151.499
X185.372Y151.261
X184.823Y151.031
X184.272Y150.809
X183.720Y150.595
X183.167Y150.388
X182.614Y150.189
X182.060Y149.998
X181.505Y149.815
X180.951Y149.640
X180.396Y149.472
X179.841Y149.311
X179.286Y149.159
X178.731Y149.013
X178.177Y148.876
X177.624Y148.745
X177.071Y148.622
X176.519Y148.507
X175.968Y148.398
X175.418Y148.297
X174.869Y148.203
X174.321Y148.116
Z-8.000
X170.868Y147.721
X167.394Y147.590
X163.920Y147.721
X160.467Y148.116
G1Z-11.000F48.0
G1X159.919Y148.203F240.0
X159.370Y148.297
X158.820Y148.398
X158.269Y148.507
X157.717Y148.622
X157.164Y148.745
X156.611Y148.876
X156.056Y149.013
X155.502Y149.159
X154.947Y149.311
X154.392Y149.472
X153.837Y149.640
X153.282Y149.815
X152.728Y149.998
X152.174Y150.189
X151.620Y150.388
X151.068Y150.595
X150.516Y150.809
X149.965Y151.031
X149.416Y151.261
X148.868Y151.499
X148.321Y151.745
X147.776Y151.999
X147.233Y152.260
X146.692Y152.529
X146.153Y152.806
X145.617Y153.091
X145.083Y153.384
X144.552Y153.685
X144.023Y153.993
X143.498Y154.309
X142.975Y154.633
X142.457Y154.964
X141.941Y155.303
X141.429Y155.650
X140.922Y156.004
X140.418Y156.365
X139.918Y156.734
X139.422Y157.110
X138.932Y157.494
X138.445Y157.884
X137.964Y158.282
X137.487Y158.686
X137.015Y159.098
X136.549Y159.516
X136.088Y159.941
X135.633Y160.372
X135.183Y160.811
X134.739Y161.255
X134.301Y161.706
X133.869Y162.162
X133.443Y162.625
X133.023Y163.094
X132.610Y163.568
X132.204Y164.048
X131.804Y164.534
X131.411Y165.025
X131.024Y165.521
X130.645Y166.022
X130.273Y166.528
X129.908Y167.039
X129.550Y167.554
X129.200Y168.074
X128.857Y168.598
X128.521Y169.127
X128.193Y169.659
X127.873Y170.195
X127.561Y170.735
X127.256Y171.278
X126.959Y171.825
X126.670Y172.374
X126.388Y172.927
X126.115Y173.483
X125.850Y174.041
X125.593Y174.601
X125.344Y175.164
X125.102Y175.730
X124.869Y176.297
X124.644Y176.866
X124.428Y177.436
X124.219Y178.008
X124.018Y178.582
X123.826Y179.156
X123.641Y179.732
X123.465Y180.308
X123.296Y180.885
X123.136Y181.462
X122.984Y182.040
X122.839Y182.618
X122.703Y183.196
X122.574Y183.774
X122.454Y184.352
X122.341Y184.929
X122.236Y185.505
X122.138Y186.081
X122.049Y186.656
X121.967Y187.230
X121.892Y187.803
X121.825Y188.374
X121.765Y188.944
X121.713Y189.513
X121.667Y190.080
X121.629Y190.645
X121.598Y191.208
X121.575Y191.769
X121.558Y192.328
X121.547Y192.885
X121.544Y193.439
X121.547Y193.992
X121.558Y194.547
X121.574Y195.105
X121.598Y195.664
X121.629Y196.226
X121.667Y196.790
X121.712Y197.355
X121.764Y197.923
X121.823Y198.492
X121.890Y199.062
X121.965Y199.634
X122.046Y200.207
X122.136Y200.781
X122.233Y201.356
X122.338Y201.932
X122.450Y202.509
X122.570Y203.086
X122.699Y203.663
X122.835Y204.241
X122.979Y204.819
X123.131Y205.396
X123.291Y205.974
X123.459Y206.551
X123.635Y207.127
X123.819Y207.703
X124.012Y208.278
X124.212Y208.852
X124.421Y209.424
X124.638Y209.996
X124.863Y210.565
X125.096Y211.133
X125.337Y211.699
X125.586Y212.263
X125.844Y212.825
X126.109Y213.384
X126.383Y213.941
X126.665Y214.495
X126.954Y215.046
X127.252Y215.594
X127.557Y216.139
X127.871Y216.680
X128.192Y217.217
X128.521Y217.751
X128.857Y218.281
X129.201Y218.807
X129.553Y219.329
X129.912Y219.846
X130.279Y220.359
X130.652Y220.867
X131.033Y221.370
X131.421Y221.868
X131.816Y222.361
X132.218Y222.848
X132.627Y223.330
X133.042Y223.807
X133.464Y224.278
X133.893Y224.742
X134.327Y225.201
X134.768Y225.654
X135.215Y226.100
X135.668Y226.540
X136.126Y226.974
X136.591Y227.401
X137.060Y227.821
X137.535Y228.234
X138.016Y228.641
X138.501Y229.040
X138.991Y229.432
X139.486Y229.817
X139.986Y230.195
X140.489Y230.566
X140.998Y230.929
X141.510Y231.284
X142.026Y231.632
X142.546Y231.972
X143.070Y232.305
X143.597Y232.630
X144.127Y232.947
X144.660Y233.256
X145.197Y233.558
X145.736Y233.852
X146.278Y234.137
X146.822Y234.415
X147.368Y234.685
X147.917Y234.947
X148.467Y235.201
X149.020Y235.446
X149.573Y235.684
X150.129Y235.914
X150.685Y236.136
X151.243Y236.350
X151.801Y236.557
X152.361Y236.755
X152.921Y236.945
X153.482Y237.128
X154.042Y237.302
X154.604Y237.469
X155.165Y237.628
X155.726Y237.780
X156.286Y237.923
X156.847Y238.060
X157.406Y238.188
X157.966Y238.309
X158.524Y238.423
X159.081Y238.529
X159.637Y238.628
X160.192Y238.720
X160.746Y238.805
X161.298Y238.882
X161.849Y238.953
X162.398Y239.016
Z-8.000
X164.892Y239.221
X167.394Y239.289
G0Z6.000
G0X185.225Y222.134Z6.000
G1Z-0.000F48.0
G1X185.419Y222.130Z-0.243
G1X185.615Y222.121Z-0.489
G1X185.814Y222.105Z-0.738
G1X186.014Y222.081Z-0.990
G1X186.216Y222.051Z-1.245
G1X186.419Y222.014Z-1.502
G1X186.622Y221.969Z-1.763
G1X186.826Y221.916Z-2.026
G1X187.029Y221.856Z-2.291
G1X187.188Y221.803Z-2.500
G1X187.029Y221.856Z-2.709
G1X186.826Y221.916Z-2.974
G1X186.622Y221.969Z-3.237
G1X186.419Y222.014Z-3.498
G1X186.216Y222.051Z-3.755
G1X186.014Y222.081Z-4.010
G1X185.814Y222.105Z-4.262
G1X185.615Y222.121Z-4.511
G1X185.419Y222.130Z-4.757
G1X185.225Y222.134Z-5.000
G1X185.419Y222.130F240.0
X185.615Y222.121
X185.814Y222.105
X186.014Y222.081
X186.216Y222.051
X186.419Y222.014
X186.622Y221.969
X186.826Y221.916
X187.029Y221.856
X187.232Y221.788
X187.434Y221.712
X187.635Y221.628
X187.834Y221.537
X188.031Y221.437
X188.225Y221.330
X188.416Y221.215
X188.603Y221.093
X188.786Y220.963
X188.965Y220.826
X189.138Y220.683
X189.307Y220.532
X189.470Y220.375
X189.626Y220.213
X189.777Y220.044
X189.921Y219.870
X190.057Y219.692
X190.187Y219.509
X190.310Y219.321
X190.424Y219.131
X190.532Y218.937
X190.631Y218.740
X190.723Y218.541
X190.806Y218.340
X190.882Y218.138
X190.950Y217.935
X191.010Y217.731
X191.063Y217.528
X191.108Y217.324
X191.146Y217.122
X191.176Y216.920
X191.199Y216.720
X191.215Y216.521
X191.225Y216.325
X191.228Y216.130
X191.225Y215.936
X191.215Y215.740
X191.199Y215.541
X191.176Y215.341
X191.146Y215.139
X191.108Y214.937
X191.063Y214.733
X191.010Y214.530
X190.950Y214.326
X190.882Y214.123
X190.806Y213.921
X190.723Y213.720
X190.631Y213.521
X190.532Y213.324
X190.424Y213.130
X190.310Y212.939
X190.187Y212.752
X190.057Y212.569
X189.921Y212.391
X189.777Y212.217
X189.626Y212.048
X189.470Y211.886
X189.307Y211.729
X189.138Y211.578
X188.965Y211.435
X188.786Y211.298
X188.603Y211.168
X188.416Y211.046
X188.225Y210.931
X188.031Y210.823
X187.834Y210.724
X187.635Y210.632
X187.434Y210.549
X187.232Y210.473
X187.029Y210.405
X186.826Y210.345
X186.622Y210.292
X186.419Y210.247
X186.216Y210.210
X186.014Y210.179
X185.814Y210.156
X185.615Y210.140
X185.419Y210.130
X185.225Y210.127
X185.031Y210.130
X184.834Y210.140
X184.635Y210.156
X184.435Y210.179
X184.234Y210.210
X184.031Y210.247
X183.827Y210.292
X183.624Y210.345
X183.420Y210.405
X183.217Y210.473
X183.015Y210.549
X182.814Y210.632
X182.615Y210.724
X182.419Y210.823
X182.225Y210.931
X182.034Y211.046
X181.847Y211.168
X181.663Y211.298
X181.485Y211.435
X181.311Y211.578
X181.143Y211.729
X180.980Y211.886
X180.823Y212.048
X180.673Y212.217
X180.529Y212.391
X180.392Y212.569
X180.262Y212.752
X180.140Y212.939
X180.025Y213.130
X179.918Y213.324
X179.818Y213.521
X179.727Y213.720
X179.643Y213.921
X179.567Y214.123
X179.499Y214.326
X179.439Y214.530
X179.386Y214.733
X179.341Y214.937
X179.304Y215.139
X179.274Y215.341
X179.250Y215.541
X179.234Y215.740
X179.225Y215.936
X179.222Y216.130
X179.225Y216.325
X179.234Y216.521
X179.250Y216.720
X179.274Y216.920
X179.304Y217.122
X179.341Y217.324
X179.386Y217.528
X179.439Y217.731
X179.499Y217.935
X179.567Y218.138
X179.643Y218.340
X179.727Y218.541
X179.818Y218.740
X179.918Y218.937
X180.025Y219.131
X180.140Y219.321
X180.262Y219.509
X180.392Y219.692
X180.529Y219.870
X180.673Y220.044
X180.823Y220.213
X180.980Y220.375
X181.143Y220.532
X181.311Y220.683
X181.485Y220.826
X181.663Y220.963
X181.847Y221.093
X182.034Y221.215
X182.225Y221.330
X182.419Y221.437
X182.615Y221.537
X182.814Y221.628
X183.015Y221.712
X183.217Y221.788
X183.420Y221.856
X183.624Y221.916
X183.827Y221.969
X184.031Y222.014
X184.234Y222.051
X184.435Y222.081
X184.635Y222.105
X184.834Y222.121
X185.031Y222.130
X185.225Y222.134
G0Z6.000
G0X185.311Y216.121Z6.000
G1Z-11.000F48.0
G0Z6.000
G0Z20.000
G0X0.000Y0.000
M30
