(This is un-tested.  Riley)
N1 (CNC Spirograph)
N2 M3
N3 G01 X1.748 Y0.029
N4 G00 Z-0.05 F30
N4 G01 X1.745 Y0.058
N5 G01 X1.74 Y0.087
N6 G01 X1.733 Y0.115
N7 G01 X1.724 Y0.144
N8 G01 X1.713 Y0.172
N9 G01 X1.7 Y0.2
N10 G01 X1.685 Y0.227
N11 G01 X1.668 Y0.254
N12 G01 X1.649 Y0.281
N13 G01 X1.628 Y0.307
N14 G01 X1.606 Y0.332
N15 G01 X1.581 Y0.357
N16 G01 X1.555 Y0.381
N17 G01 X1.527 Y0.404
N18 G01 X1.497 Y0.426
N19 G01 X1.465 Y0.448
N20 G01 X1.432 Y0.468
N21 G01 X1.398 Y0.488
N22 G01 X1.361 Y0.507
N23 G01 X1.323 Y0.524
N24 G01 X1.284 Y0.541
N25 G01 X1.243 Y0.556
N26 G01 X1.201 Y0.571
N27 G01 X1.158 Y0.584
N28 G01 X1.113 Y0.596
N29 G01 X1.068 Y0.606
N30 G01 X1.021 Y0.616
N31 G01 X0.973 Y0.624
N32 G01 X0.924 Y0.631
N33 G01 X0.874 Y0.636
N34 G01 X0.823 Y0.64
N35 G01 X0.772 Y0.643
N36 G01 X0.719 Y0.644
N37 G01 X0.667 Y0.644
N38 G01 X0.613 Y0.643
N39 G01 X0.559 Y0.64
N40 G01 X0.505 Y0.636
N41 G01 X0.45 Y0.63
N42 G01 X0.395 Y0.623
N43 G01 X0.339 Y0.614
N44 G01 X0.284 Y0.604
N45 G01 X0.228 Y0.593
N46 G01 X0.172 Y0.58
N47 G01 X0.117 Y0.566
N48 G01 X0.061 Y0.551
N49 G01 X0.006 Y0.534
N50 G01 X-0.049 Y0.515
N51 G01 X-0.104 Y0.496
N52 G01 X-0.158 Y0.475
N53 G01 X-0.212 Y0.453
N54 G01 X-0.265 Y0.43
N55 G01 X-0.318 Y0.405
N56 G01 X-0.37 Y0.379
N57 G01 X-0.421 Y0.352
N58 G01 X-0.472 Y0.325
N59 G01 X-0.521 Y0.295
N60 G01 X-0.57 Y0.265
N61 G01 X-0.617 Y0.234
N62 G01 X-0.664 Y0.202
N63 G01 X-0.709 Y0.169
N64 G01 X-0.754 Y0.136
N65 G01 X-0.797 Y0.101
N66 G01 X-0.839 Y0.066
N67 G01 X-0.879 Y0.03
N68 G01 X-0.919 Y-0.007
N69 G01 X-0.956 Y-0.044
N70 G01 X-0.993 Y-0.082
N71 G01 X-1.028 Y-0.12
N72 G01 X-1.061 Y-0.159
N73 G01 X-1.093 Y-0.198
N74 G01 X-1.123 Y-0.237
N75 G01 X-1.152 Y-0.277
N76 G01 X-1.178 Y-0.317
N77 G01 X-1.204 Y-0.357
N78 G01 X-1.227 Y-0.397
N79 G01 X-1.249 Y-0.436
N80 G01 X-1.269 Y-0.476
N81 G01 X-1.287 Y-0.516
N82 G01 X-1.304 Y-0.556
N83 G01 X-1.319 Y-0.595
N84 G01 X-1.332 Y-0.634
N85 G01 X-1.343 Y-0.672
N86 G01 X-1.352 Y-0.711
N87 G01 X-1.36 Y-0.748
N88 G01 X-1.365 Y-0.785
N89 G01 X-1.369 Y-0.822
N90 G01 X-1.371 Y-0.857
N91 G01 X-1.372 Y-0.892
N92 G01 X-1.37 Y-0.927
N93 G01 X-1.367 Y-0.96
N94 G01 X-1.362 Y-0.992
N95 G01 X-1.355 Y-1.024
N96 G01 X-1.347 Y-1.054
N97 G01 X-1.337 Y-1.083
N98 G01 X-1.325 Y-1.111
N99 G01 X-1.312 Y-1.138
N100 G01 X-1.297 Y-1.164
N101 G01 X-1.281 Y-1.188
N102 G01 X-1.263 Y-1.211
N103 G01 X-1.243 Y-1.233
N104 G01 X-1.222 Y-1.253
N105 G01 X-1.2 Y-1.272
N106 G01 X-1.176 Y-1.289
N107 G01 X-1.151 Y-1.305
N108 G01 X-1.125 Y-1.319
N109 G01 X-1.097 Y-1.331
N110 G01 X-1.069 Y-1.342
N111 G01 X-1.039 Y-1.351
N112 G01 X-1.008 Y-1.359
N113 G01 X-0.976 Y-1.365
N114 G01 X-0.943 Y-1.369
N115 G01 X-0.91 Y-1.371
N116 G01 X-0.875 Y-1.372
N117 G01 X-0.84 Y-1.37
N118 G01 X-0.804 Y-1.367
N119 G01 X-0.767 Y-1.363
N120 G01 X-0.729 Y-1.356
N121 G01 X-0.692 Y-1.348
N122 G01 X-0.653 Y-1.337
N123 G01 X-0.614 Y-1.325
N124 G01 X-0.575 Y-1.311
N125 G01 X-0.536 Y-1.296
N126 G01 X-0.496 Y-1.278
N127 G01 X-0.456 Y-1.259
N128 G01 X-0.416 Y-1.238
N129 G01 X-0.377 Y-1.216
N130 G01 X-0.337 Y-1.191
N131 G01 X-0.297 Y-1.165
N132 G01 X-0.257 Y-1.137
N133 G01 X-0.218 Y-1.108
N134 G01 X-0.178 Y-1.077
N135 G01 X-0.14 Y-1.045
N136 G01 X-0.101 Y-1.01
N137 G01 X-0.063 Y-0.975
N138 G01 X-0.025 Y-0.938
N139 G01 X0.011 Y-0.899
N140 G01 X0.048 Y-0.859
N141 G01 X0.083 Y-0.818
N142 G01 X0.118 Y-0.776
N143 G01 X0.153 Y-0.732
N144 G01 X0.186 Y-0.687
N145 G01 X0.218 Y-0.641
N146 G01 X0.25 Y-0.594
N147 G01 X0.281 Y-0.546
N148 G01 X0.31 Y-0.496
N149 G01 X0.339 Y-0.446
N150 G01 X0.366 Y-0.396
N151 G01 X0.392 Y-0.344
N152 G01 X0.418 Y-0.292
N153 G01 X0.441 Y-0.239
N154 G01 X0.464 Y-0.185
N155 G01 X0.486 Y-0.131
N156 G01 X0.506 Y-0.077
N157 G01 X0.525 Y-0.022
N158 G01 X0.542 Y0.033
N159 G01 X0.559 Y0.089
N160 G01 X0.573 Y0.144
N161 G01 X0.587 Y0.2
N162 G01 X0.599 Y0.256
N163 G01 X0.61 Y0.311
N164 G01 X0.619 Y0.367
N165 G01 X0.627 Y0.422
N166 G01 X0.633 Y0.477
N167 G01 X0.638 Y0.532
N168 G01 X0.642 Y0.586
N169 G01 X0.644 Y0.64
N170 G01 X0.645 Y0.693
N171 G01 X0.644 Y0.746
N172 G01 X0.642 Y0.798
N173 G01 X0.638 Y0.849
N174 G01 X0.634 Y0.899
N175 G01 X0.628 Y0.948
N176 G01 X0.62 Y0.997
N177 G01 X0.611 Y1.044
N178 G01 X0.601 Y1.091
N179 G01 X0.59 Y1.136
N180 G01 X0.577 Y1.18
N181 G01 X0.564 Y1.223
N182 G01 X0.549 Y1.264
N183 G01 X0.533 Y1.304
N184 G01 X0.516 Y1.342
N185 G01 X0.498 Y1.38
N186 G01 X0.478 Y1.415
N187 G01 X0.458 Y1.449
N188 G01 X0.437 Y1.481
N189 G01 X0.415 Y1.512
N190 G01 X0.392 Y1.541
N191 G01 X0.369 Y1.568
N192 G01 X0.345 Y1.594
N193 G01 X0.32 Y1.617
N194 G01 X0.294 Y1.639
N195 G01 X0.268 Y1.659
N196 G01 X0.241 Y1.677
N197 G01 X0.214 Y1.693
N198 G01 X0.186 Y1.707
N199 G01 X0.158 Y1.719
N200 G01 X0.13 Y1.729
N201 G01 X0.101 Y1.737
N202 G01 X0.072 Y1.743
N203 G01 X0.043 Y1.747
N204 G01 X0.014 Y1.749
N205 G01 X-0.015 Y1.749
N206 G01 X-0.044 Y1.747
N207 G01 X-0.073 Y1.743
N208 G01 X-0.102 Y1.737
N209 G01 X-0.131 Y1.729
N210 G01 X-0.159 Y1.719
N211 G01 X-0.187 Y1.707
N212 G01 X-0.215 Y1.693
N213 G01 X-0.242 Y1.677
N214 G01 X-0.269 Y1.659
N215 G01 X-0.295 Y1.639
N216 G01 X-0.321 Y1.617
N217 G01 X-0.346 Y1.594
N218 G01 X-0.37 Y1.568
N219 G01 X-0.393 Y1.541
N220 G01 X-0.416 Y1.512
N221 G01 X-0.438 Y1.481
N222 G01 X-0.459 Y1.449
N223 G01 X-0.479 Y1.415
N224 G01 X-0.499 Y1.38
N225 G01 X-0.517 Y1.342
N226 G01 X-0.534 Y1.304
N227 G01 X-0.55 Y1.264
N228 G01 X-0.565 Y1.223
N229 G01 X-0.578 Y1.18
N230 G01 X-0.591 Y1.136
N231 G01 X-0.602 Y1.091
N232 G01 X-0.612 Y1.044
N233 G01 X-0.621 Y0.997
N234 G01 X-0.629 Y0.948
N235 G01 X-0.635 Y0.899
N236 G01 X-0.639 Y0.849
N237 G01 X-0.643 Y0.798
N238 G01 X-0.645 Y0.746
N239 G01 X-0.646 Y0.693
N240 G01 X-0.645 Y0.64
N241 G01 X-0.643 Y0.586
N242 G01 X-0.639 Y0.532
N243 G01 X-0.634 Y0.477
N244 G01 X-0.628 Y0.422
N245 G01 X-0.62 Y0.367
N246 G01 X-0.611 Y0.311
N247 G01 X-0.6 Y0.256
N248 G01 X-0.588 Y0.2
N249 G01 X-0.574 Y0.144
N250 G01 X-0.56 Y0.089
N251 G01 X-0.543 Y0.033
N252 G01 X-0.526 Y-0.022
N253 G01 X-0.507 Y-0.077
N254 G01 X-0.487 Y-0.131
N255 G01 X-0.465 Y-0.185
N256 G01 X-0.442 Y-0.239
N257 G01 X-0.419 Y-0.292
N258 G01 X-0.393 Y-0.344
N259 G01 X-0.367 Y-0.396
N260 G01 X-0.34 Y-0.446
N261 G01 X-0.311 Y-0.496
N262 G01 X-0.282 Y-0.546
N263 G01 X-0.251 Y-0.594
N264 G01 X-0.219 Y-0.641
N265 G01 X-0.187 Y-0.687
N266 G01 X-0.154 Y-0.732
N267 G01 X-0.119 Y-0.776
N268 G01 X-0.085 Y-0.818
N269 G01 X-0.049 Y-0.859
N270 G01 X-0.012 Y-0.899
N271 G01 X0.024 Y-0.938
N272 G01 X0.062 Y-0.975
N273 G01 X0.1 Y-1.01
N274 G01 X0.139 Y-1.045
N275 G01 X0.177 Y-1.077
N276 G01 X0.217 Y-1.108
N277 G01 X0.256 Y-1.137
N278 G01 X0.296 Y-1.165
N279 G01 X0.336 Y-1.191
N280 G01 X0.376 Y-1.216
N281 G01 X0.415 Y-1.238
N282 G01 X0.455 Y-1.259
N283 G01 X0.495 Y-1.278
N284 G01 X0.535 Y-1.296
N285 G01 X0.574 Y-1.311
N286 G01 X0.613 Y-1.325
N287 G01 X0.652 Y-1.337
N288 G01 X0.691 Y-1.348
N289 G01 X0.728 Y-1.356
N290 G01 X0.766 Y-1.363
N291 G01 X0.803 Y-1.367
N292 G01 X0.839 Y-1.37
N293 G01 X0.874 Y-1.372
N294 G01 X0.909 Y-1.371
N295 G01 X0.942 Y-1.369
N296 G01 X0.975 Y-1.365
N297 G01 X1.007 Y-1.359
N298 G01 X1.038 Y-1.351
N299 G01 X1.068 Y-1.342
N300 G01 X1.096 Y-1.331
N301 G01 X1.124 Y-1.319
N302 G01 X1.15 Y-1.305
N303 G01 X1.175 Y-1.289
N304 G01 X1.199 Y-1.272
N305 G01 X1.221 Y-1.253
N306 G01 X1.242 Y-1.233
N307 G01 X1.262 Y-1.211
N308 G01 X1.28 Y-1.188
N309 G01 X1.296 Y-1.164
N310 G01 X1.311 Y-1.138
N311 G01 X1.324 Y-1.111
N312 G01 X1.336 Y-1.083
N313 G01 X1.346 Y-1.054
N314 G01 X1.354 Y-1.024
N315 G01 X1.361 Y-0.992
N316 G01 X1.366 Y-0.96
N317 G01 X1.369 Y-0.927
N318 G01 X1.371 Y-0.892
N319 G01 X1.37 Y-0.857
N320 G01 X1.368 Y-0.822
N321 G01 X1.364 Y-0.785
N322 G01 X1.359 Y-0.748
N323 G01 X1.351 Y-0.711
N324 G01 X1.342 Y-0.672
N325 G01 X1.331 Y-0.634
N326 G01 X1.318 Y-0.595
N327 G01 X1.303 Y-0.556
N328 G01 X1.286 Y-0.516
N329 G01 X1.268 Y-0.476
N330 G01 X1.248 Y-0.436
N331 G01 X1.226 Y-0.397
N332 G01 X1.203 Y-0.357
N333 G01 X1.177 Y-0.317
N334 G01 X1.151 Y-0.277
N335 G01 X1.122 Y-0.237
N336 G01 X1.092 Y-0.198
N337 G01 X1.06 Y-0.159
N338 G01 X1.027 Y-0.12
N339 G01 X0.992 Y-0.082
N340 G01 X0.955 Y-0.044
N341 G01 X0.918 Y-0.007
N342 G01 X0.878 Y0.03
N343 G01 X0.838 Y0.066
N344 G01 X0.796 Y0.101
N345 G01 X0.753 Y0.136
N346 G01 X0.709 Y0.169
N347 G01 X0.663 Y0.202
N348 G01 X0.616 Y0.234
N349 G01 X0.569 Y0.265
N350 G01 X0.52 Y0.295
N351 G01 X0.471 Y0.324
N352 G01 X0.42 Y0.352
N353 G01 X0.369 Y0.379
N354 G01 X0.317 Y0.405
N355 G01 X0.264 Y0.43
N356 G01 X0.211 Y0.453
N357 G01 X0.157 Y0.475
N358 G01 X0.103 Y0.496
N359 G01 X0.048 Y0.515
N360 G01 X-0.007 Y0.534
N361 G01 X-0.062 Y0.551
N362 G01 X-0.118 Y0.566
N363 G01 X-0.173 Y0.58
N364 G01 X-0.229 Y0.593
N365 G01 X-0.285 Y0.604
N366 G01 X-0.34 Y0.614
N367 G01 X-0.396 Y0.623
N368 G01 X-0.451 Y0.63
N369 G01 X-0.506 Y0.636
N370 G01 X-0.56 Y0.64
N371 G01 X-0.614 Y0.643
N372 G01 X-0.668 Y0.644
N373 G01 X-0.72 Y0.644
N374 G01 X-0.773 Y0.643
N375 G01 X-0.824 Y0.64
N376 G01 X-0.875 Y0.636
N377 G01 X-0.925 Y0.631
N378 G01 X-0.974 Y0.624
N379 G01 X-1.022 Y0.616
N380 G01 X-1.069 Y0.606
N381 G01 X-1.114 Y0.596
N382 G01 X-1.159 Y0.584
N383 G01 X-1.202 Y0.571
N384 G01 X-1.244 Y0.556
N385 G01 X-1.285 Y0.541
N386 G01 X-1.324 Y0.524
N387 G01 X-1.362 Y0.507
N388 G01 X-1.398 Y0.488
N389 G01 X-1.433 Y0.468
N390 G01 X-1.466 Y0.448
N391 G01 X-1.498 Y0.426
N392 G01 X-1.528 Y0.404
N393 G01 X-1.556 Y0.381
N394 G01 X-1.582 Y0.357
N395 G01 X-1.607 Y0.332
N396 G01 X-1.629 Y0.307
N397 G01 X-1.65 Y0.281
N398 G01 X-1.669 Y0.254
N399 G01 X-1.686 Y0.227
N400 G01 X-1.701 Y0.2
N401 G01 X-1.714 Y0.172
N402 G01 X-1.725 Y0.144
N403 G01 X-1.734 Y0.115
N404 G01 X-1.741 Y0.087
N405 G01 X-1.746 Y0.058
N406 G01 X-1.749 Y0.029
N407 G01 X-1.75 Y0
N408 G01 X-1.749 Y-0.03
N409 G01 X-1.746 Y-0.059
N410 G01 X-1.741 Y-0.087
N411 G01 X-1.734 Y-0.116
N412 G01 X-1.725 Y-0.145
N413 G01 X-1.714 Y-0.173
N414 G01 X-1.701 Y-0.201
N415 G01 X-1.686 Y-0.228
N416 G01 X-1.669 Y-0.255
N417 G01 X-1.65 Y-0.282
N418 G01 X-1.629 Y-0.308
N419 G01 X-1.607 Y-0.333
N420 G01 X-1.582 Y-0.358
N421 G01 X-1.556 Y-0.382
N422 G01 X-1.528 Y-0.405
N423 G01 X-1.498 Y-0.427
N424 G01 X-1.466 Y-0.449
N425 G01 X-1.433 Y-0.469
N426 G01 X-1.399 Y-0.489
N427 G01 X-1.362 Y-0.508
N428 G01 X-1.324 Y-0.525
N429 G01 X-1.285 Y-0.542
N430 G01 X-1.244 Y-0.557
N431 G01 X-1.202 Y-0.572
N432 G01 X-1.159 Y-0.585
N433 G01 X-1.114 Y-0.597
N434 G01 X-1.069 Y-0.607
N435 G01 X-1.022 Y-0.617
N436 G01 X-0.974 Y-0.625
N437 G01 X-0.925 Y-0.632
N438 G01 X-0.875 Y-0.637
N439 G01 X-0.824 Y-0.641
N440 G01 X-0.773 Y-0.644
N441 G01 X-0.721 Y-0.645
N442 G01 X-0.668 Y-0.645
N443 G01 X-0.614 Y-0.644
N444 G01 X-0.56 Y-0.641
N445 G01 X-0.506 Y-0.637
N446 G01 X-0.451 Y-0.631
N447 G01 X-0.396 Y-0.624
N448 G01 X-0.34 Y-0.615
N449 G01 X-0.285 Y-0.605
N450 G01 X-0.229 Y-0.594
N451 G01 X-0.173 Y-0.581
N452 G01 X-0.118 Y-0.567
N453 G01 X-0.062 Y-0.552
N454 G01 X-0.007 Y-0.535
N455 G01 X0.048 Y-0.516
N456 G01 X0.103 Y-0.497
N457 G01 X0.157 Y-0.476
N458 G01 X0.211 Y-0.454
N459 G01 X0.264 Y-0.431
N460 G01 X0.317 Y-0.406
N461 G01 X0.369 Y-0.38
N462 G01 X0.42 Y-0.354
N463 G01 X0.471 Y-0.326
N464 G01 X0.52 Y-0.296
N465 G01 X0.569 Y-0.266
N466 G01 X0.616 Y-0.235
N467 G01 X0.663 Y-0.203
N468 G01 X0.708 Y-0.17
N469 G01 X0.753 Y-0.137
N470 G01 X0.796 Y-0.102
N471 G01 X0.838 Y-0.067
N472 G01 X0.878 Y-0.031
N473 G01 X0.918 Y0.006
N474 G01 X0.955 Y0.043
N475 G01 X0.992 Y0.081
N476 G01 X1.027 Y0.119
N477 G01 X1.06 Y0.158
N478 G01 X1.092 Y0.197
N479 G01 X1.122 Y0.236
N480 G01 X1.151 Y0.276
N481 G01 X1.177 Y0.316
N482 G01 X1.203 Y0.356
N483 G01 X1.226 Y0.395
N484 G01 X1.248 Y0.435
N485 G01 X1.268 Y0.475
N486 G01 X1.286 Y0.515
N487 G01 X1.303 Y0.555
N488 G01 X1.318 Y0.594
N489 G01 X1.331 Y0.633
N490 G01 X1.342 Y0.671
N491 G01 X1.351 Y0.71
N492 G01 X1.359 Y0.747
N493 G01 X1.364 Y0.784
N494 G01 X1.368 Y0.821
N495 G01 X1.37 Y0.856
N496 G01 X1.371 Y0.891
N497 G01 X1.369 Y0.926
N498 G01 X1.366 Y0.959
N499 G01 X1.361 Y0.991
N500 G01 X1.354 Y1.023
N501 G01 X1.346 Y1.053
N502 G01 X1.336 Y1.082
N503 G01 X1.324 Y1.11
N504 G01 X1.311 Y1.137
N505 G01 X1.296 Y1.163
N506 G01 X1.28 Y1.187
N507 G01 X1.262 Y1.21
N508 G01 X1.242 Y1.232
N509 G01 X1.221 Y1.252
N510 G01 X1.199 Y1.271
N511 G01 X1.175 Y1.288
N512 G01 X1.15 Y1.304
N513 G01 X1.124 Y1.318
N514 G01 X1.096 Y1.33
N515 G01 X1.068 Y1.341
N516 G01 X1.038 Y1.35
N517 G01 X1.007 Y1.358
N518 G01 X0.975 Y1.364
N519 G01 X0.942 Y1.368
N520 G01 X0.909 Y1.37
N521 G01 X0.874 Y1.371
N522 G01 X0.839 Y1.369
N523 G01 X0.803 Y1.366
N524 G01 X0.766 Y1.362
N525 G01 X0.728 Y1.355
N526 G01 X0.691 Y1.347
N527 G01 X0.652 Y1.336
N528 G01 X0.613 Y1.324
N529 G01 X0.574 Y1.311
N530 G01 X0.535 Y1.295
N531 G01 X0.495 Y1.277
N532 G01 X0.455 Y1.258
N533 G01 X0.416 Y1.237
N534 G01 X0.376 Y1.215
N535 G01 X0.336 Y1.19
N536 G01 X0.296 Y1.164
N537 G01 X0.256 Y1.136
N538 G01 X0.217 Y1.107
N539 G01 X0.177 Y1.076
N540 G01 X0.139 Y1.044
N541 G01 X0.1 Y1.009
N542 G01 X0.062 Y0.974
N543 G01 X0.024 Y0.937
N544 G01 X-0.012 Y0.898
N545 G01 X-0.049 Y0.858
N546 G01 X-0.084 Y0.817
N547 G01 X-0.119 Y0.775
N548 G01 X-0.154 Y0.731
N549 G01 X-0.187 Y0.686
N550 G01 X-0.219 Y0.64
N551 G01 X-0.251 Y0.593
N552 G01 X-0.282 Y0.545
N553 G01 X-0.311 Y0.495
N554 G01 X-0.34 Y0.445
N555 G01 X-0.367 Y0.395
N556 G01 X-0.393 Y0.343
N557 G01 X-0.419 Y0.291
N558 G01 X-0.442 Y0.238
N559 G01 X-0.465 Y0.184
N560 G01 X-0.487 Y0.13
N561 G01 X-0.507 Y0.076
N562 G01 X-0.526 Y0.021
N563 G01 X-0.543 Y-0.034
N564 G01 X-0.56 Y-0.09
N565 G01 X-0.574 Y-0.145
N566 G01 X-0.588 Y-0.201
N567 G01 X-0.6 Y-0.257
N568 G01 X-0.611 Y-0.312
N569 G01 X-0.62 Y-0.368
N570 G01 X-0.628 Y-0.423
N571 G01 X-0.634 Y-0.478
N572 G01 X-0.639 Y-0.533
N573 G01 X-0.643 Y-0.587
N574 G01 X-0.645 Y-0.641
N575 G01 X-0.646 Y-0.694
N576 G01 X-0.645 Y-0.747
N577 G01 X-0.643 Y-0.799
N578 G01 X-0.639 Y-0.85
N579 G01 X-0.635 Y-0.9
N580 G01 X-0.629 Y-0.949
N581 G01 X-0.621 Y-0.998
N582 G01 X-0.612 Y-1.045
N583 G01 X-0.602 Y-1.092
N584 G01 X-0.591 Y-1.137
N585 G01 X-0.578 Y-1.181
N586 G01 X-0.565 Y-1.224
N587 G01 X-0.55 Y-1.265
N588 G01 X-0.534 Y-1.305
N589 G01 X-0.517 Y-1.343
N590 G01 X-0.499 Y-1.381
N591 G01 X-0.479 Y-1.416
N592 G01 X-0.459 Y-1.45
N593 G01 X-0.438 Y-1.482
N594 G01 X-0.416 Y-1.513
N595 G01 X-0.393 Y-1.542
N596 G01 X-0.37 Y-1.569
N597 G01 X-0.346 Y-1.595
N598 G01 X-0.321 Y-1.618
N599 G01 X-0.295 Y-1.64
N600 G01 X-0.269 Y-1.66
N601 G01 X-0.242 Y-1.678
N602 G01 X-0.215 Y-1.694
N603 G01 X-0.187 Y-1.708
N604 G01 X-0.159 Y-1.72
N605 G01 X-0.131 Y-1.73
N606 G01 X-0.102 Y-1.738
N607 G01 X-0.073 Y-1.744
N608 G01 X-0.044 Y-1.748
N609 G01 X-0.015 Y-1.75
N610 G01 X0.014 Y-1.75
N611 G01 X0.043 Y-1.748
N612 G01 X0.072 Y-1.744
N613 G01 X0.101 Y-1.738
N614 G01 X0.13 Y-1.73
N615 G01 X0.158 Y-1.72
N616 G01 X0.186 Y-1.708
N617 G01 X0.214 Y-1.694
N618 G01 X0.241 Y-1.678
N619 G01 X0.268 Y-1.66
N620 G01 X0.294 Y-1.64
N621 G01 X0.32 Y-1.618
N622 G01 X0.345 Y-1.595
N623 G01 X0.369 Y-1.569
N624 G01 X0.392 Y-1.542
N625 G01 X0.415 Y-1.513
N626 G01 X0.437 Y-1.482
N627 G01 X0.458 Y-1.45
N628 G01 X0.478 Y-1.416
N629 G01 X0.498 Y-1.381
N630 G01 X0.516 Y-1.343
N631 G01 X0.533 Y-1.305
N632 G01 X0.549 Y-1.265
N633 G01 X0.564 Y-1.224
N634 G01 X0.577 Y-1.181
N635 G01 X0.59 Y-1.137
N636 G01 X0.601 Y-1.092
N637 G01 X0.611 Y-1.045
N638 G01 X0.62 Y-0.998
N639 G01 X0.628 Y-0.949
N640 G01 X0.634 Y-0.9
N641 G01 X0.638 Y-0.85
N642 G01 X0.642 Y-0.799
N643 G01 X0.644 Y-0.747
N644 G01 X0.645 Y-0.694
N645 G01 X0.644 Y-0.641
N646 G01 X0.642 Y-0.587
N647 G01 X0.638 Y-0.533
N648 G01 X0.633 Y-0.478
N649 G01 X0.627 Y-0.423
N650 G01 X0.619 Y-0.368
N651 G01 X0.61 Y-0.312
N652 G01 X0.599 Y-0.257
N653 G01 X0.587 Y-0.201
N654 G01 X0.573 Y-0.145
N655 G01 X0.559 Y-0.09
N656 G01 X0.542 Y-0.035
N657 G01 X0.525 Y0.021
N658 G01 X0.506 Y0.076
N659 G01 X0.486 Y0.13
N660 G01 X0.464 Y0.184
N661 G01 X0.441 Y0.238
N662 G01 X0.418 Y0.291
N663 G01 X0.392 Y0.343
N664 G01 X0.366 Y0.395
N665 G01 X0.339 Y0.445
N666 G01 X0.31 Y0.495
N667 G01 X0.281 Y0.545
N668 G01 X0.25 Y0.593
N669 G01 X0.218 Y0.64
N670 G01 X0.186 Y0.686
N671 G01 X0.153 Y0.731
N672 G01 X0.118 Y0.775
N673 G01 X0.084 Y0.817
N674 G01 X0.048 Y0.858
N675 G01 X0.012 Y0.898
N676 G01 X-0.025 Y0.937
N677 G01 X-0.063 Y0.974
N678 G01 X-0.101 Y1.009
N679 G01 X-0.139 Y1.043
N680 G01 X-0.178 Y1.076
N681 G01 X-0.218 Y1.107
N682 G01 X-0.257 Y1.136
N683 G01 X-0.297 Y1.164
N684 G01 X-0.337 Y1.19
N685 G01 X-0.377 Y1.215
N686 G01 X-0.416 Y1.237
N687 G01 X-0.456 Y1.258
N688 G01 X-0.496 Y1.277
N689 G01 X-0.536 Y1.295
N690 G01 X-0.575 Y1.31
N691 G01 X-0.614 Y1.324
N692 G01 X-0.653 Y1.336
N693 G01 X-0.692 Y1.347
N694 G01 X-0.729 Y1.355
N695 G01 X-0.767 Y1.362
N696 G01 X-0.804 Y1.366
N697 G01 X-0.84 Y1.369
N698 G01 X-0.875 Y1.371
N699 G01 X-0.91 Y1.37
N700 G01 X-0.943 Y1.368
N701 G01 X-0.976 Y1.364
N702 G01 X-1.008 Y1.358
N703 G01 X-1.039 Y1.35
N704 G01 X-1.069 Y1.341
N705 G01 X-1.097 Y1.33
N706 G01 X-1.125 Y1.318
N707 G01 X-1.151 Y1.304
N708 G01 X-1.176 Y1.288
N709 G01 X-1.2 Y1.271
N710 G01 X-1.222 Y1.252
N711 G01 X-1.243 Y1.232
N712 G01 X-1.263 Y1.21
N713 G01 X-1.28 Y1.187
N714 G01 X-1.297 Y1.163
N715 G01 X-1.312 Y1.137
N716 G01 X-1.325 Y1.11
N717 G01 X-1.337 Y1.082
N718 G01 X-1.347 Y1.053
N719 G01 X-1.355 Y1.023
N720 G01 X-1.362 Y0.991
N721 G01 X-1.367 Y0.959
N722 G01 X-1.37 Y0.926
N723 G01 X-1.372 Y0.891
N724 G01 X-1.371 Y0.856
N725 G01 X-1.369 Y0.821
N726 G01 X-1.365 Y0.784
N727 G01 X-1.36 Y0.747
N728 G01 X-1.352 Y0.71
N729 G01 X-1.343 Y0.671
N730 G01 X-1.332 Y0.633
N731 G01 X-1.319 Y0.594
N732 G01 X-1.304 Y0.555
N733 G01 X-1.287 Y0.515
N734 G01 X-1.269 Y0.475
N735 G01 X-1.249 Y0.435
N736 G01 X-1.227 Y0.396
N737 G01 X-1.204 Y0.356
N738 G01 X-1.178 Y0.316
N739 G01 X-1.152 Y0.276
N740 G01 X-1.123 Y0.236
N741 G01 X-1.093 Y0.197
N742 G01 X-1.061 Y0.158
N743 G01 X-1.028 Y0.119
N744 G01 X-0.993 Y0.081
N745 G01 X-0.956 Y0.043
N746 G01 X-0.919 Y0.006
N747 G01 X-0.879 Y-0.031
N748 G01 X-0.839 Y-0.067
N749 G01 X-0.797 Y-0.102
N750 G01 X-0.754 Y-0.137
N751 G01 X-0.71 Y-0.17
N752 G01 X-0.664 Y-0.203
N753 G01 X-0.617 Y-0.235
N754 G01 X-0.57 Y-0.266
N755 G01 X-0.521 Y-0.296
N756 G01 X-0.472 Y-0.325
N757 G01 X-0.421 Y-0.353
N758 G01 X-0.37 Y-0.38
N759 G01 X-0.318 Y-0.406
N760 G01 X-0.265 Y-0.431
N761 G01 X-0.212 Y-0.454
N762 G01 X-0.158 Y-0.476
N763 G01 X-0.104 Y-0.497
N764 G01 X-0.049 Y-0.516
N765 G01 X0.006 Y-0.535
N766 G01 X0.061 Y-0.552
N767 G01 X0.117 Y-0.567
N768 G01 X0.172 Y-0.581
N769 G01 X0.228 Y-0.594
N770 G01 X0.284 Y-0.605
N771 G01 X0.339 Y-0.615
N772 G01 X0.395 Y-0.624
N773 G01 X0.45 Y-0.631
N774 G01 X0.505 Y-0.637
N775 G01 X0.559 Y-0.641
N776 G01 X0.613 Y-0.644
N777 G01 X0.667 Y-0.645
N778 G01 X0.719 Y-0.645
N779 G01 X0.772 Y-0.644
N780 G01 X0.823 Y-0.641
N781 G01 X0.874 Y-0.637
N782 G01 X0.924 Y-0.632
N783 G01 X0.973 Y-0.625
N784 G01 X1.021 Y-0.617
N785 G01 X1.068 Y-0.607
N786 G01 X1.113 Y-0.597
N787 G01 X1.158 Y-0.585
N788 G01 X1.201 Y-0.572
N789 G01 X1.243 Y-0.557
N790 G01 X1.284 Y-0.542
N791 G01 X1.323 Y-0.525
N792 G01 X1.361 Y-0.508
N793 G01 X1.397 Y-0.489
N794 G01 X1.432 Y-0.469
N795 G01 X1.465 Y-0.449
N796 G01 X1.497 Y-0.427
N797 G01 X1.527 Y-0.405
N798 G01 X1.555 Y-0.382
N799 G01 X1.581 Y-0.358
N800 G01 X1.606 Y-0.333
N801 G01 X1.628 Y-0.308
N802 G01 X1.649 Y-0.282
N803 G01 X1.668 Y-0.255
N804 G01 X1.685 Y-0.228
N805 G01 X1.7 Y-0.201
N806 G01 X1.713 Y-0.173
N807 G01 X1.724 Y-0.145
N808 G01 X1.733 Y-0.116
N809 G01 X1.74 Y-0.088
N810 G01 X1.745 Y-0.059
N811 G01 X1.748 Y-0.03
N812 G01 X1.748 Y-0.03
N813 G01 X1.748 Y0.029
N814 G00 Z0.25
