N1 T1M6
N2 G17
N3 G21 (mm)
N4 G92X0 Y0 Z0
N5 F600.0
N6 G1 x0 y0
N7 G1 x0.3 y0.3
N8 G1 x0.6 y0.6
N9 G1 x0.9 y0.9
N10 G1 x1.2 y1.2
N11 G1 x1.5 y1.5
N12 G1 x1.8 y1.8
N13 G1 x2.1 y2.1
N14 G1 x2.4 y2.4
N15 G1 x2.7 y2.7
N16 G1 x3.0 y3.0
N17 G1 x3.3 y3.3
N18 G1 x3.6 y3.6
N19 G1 x3.9 y3.9
N20 G1 x4.2 y4.2
N21 G1 x4.5 y4.5
N22 G1 x4.8 y4.8
N23 G1 x5.1 y5.1
N24 G1 x5.4 y5.4
N25 G1 x5.7 y5.7
N26 G1 x6.0 y6.0
N27 G1 x6.3 y6.3
N28 G1 x6.6 y6.6
N29 G1 x6.9 y6.9
N30 G1 x7.2 y7.2
N31 G1 x7.5 y7.5
N32 G1 x7.8 y7.8
N33 G1 x8.1 y8.1
N34 G1 x8.4 y8.4
N35 G1 x8.7 y8.7
N36 G1 x9.0 y9.0
N37 G1 x9.3 y9.3
N38 G1 x9.6 y9.6
N39 G1 x9.9 y9.9
N40 G1 x10.2 y10.2
N41 G1 x10.5 y10.5
N42 G1 x10.8 y10.8
N43 G1 x11.1 y11.1
N44 G1 x11.4 y11.4
N45 G1 x11.7 y11.7
N46 G1 x12.0 y12.0
N47 G1 x12.3 y12.3
N48 G1 x12.6 y12.6
N49 G1 x12.9 y12.9
N50 G1 x13.2 y13.2
N51 G1 x13.5 y13.5
N52 G1 x13.8 y13.8
N53 G1 x14.1 y14.1
N54 G1 x14.4 y14.4
N55 G1 x14.7 y14.7
N56 G1 x15.0 y15.0
N57 G1 x15.3 y15.3
N58 G1 x15.6 y15.6
N59 G1 x15.9 y15.9
N60 G1 x16.2 y16.2
N61 G1 x16.5 y16.5
N62 G1 x16.8 y16.8
N63 G1 x17.1 y17.1
N64 G1 x17.4 y17.4
N65 G1 x17.7 y17.7
N66 G1 x18.0 y18.0
N67 G1 x18.3 y18.3
N68 G1 x18.6 y18.6
N69 G1 x18.9 y18.9
N70 G1 x19.2 y19.2
N71 G1 x19.5 y19.5
N72 G1 x19.8 y19.8
N73 G1 x20.1 y20.1
N74 G1 x20.4 y20.4
N75 G1 x20.7 y20.7
N76 G1 x21.0 y21.0
N77 G1 x21.3 y21.3
N78 G1 x21.6 y21.6
N79 G1 x21.9 y21.9
N80 G1 x22.2 y22.2
N81 G1 x22.5 y22.5
N82 G1 x22.8 y22.8
N83 G1 x23.1 y23.1
N84 G1 x23.4 y23.4
N85 G1 x23.7 y23.7
N86 G1 x24.0 y24.0
N87 G1 x24.3 y24.3
N88 G1 x24.6 y24.6
N89 G1 x24.9 y24.9
N90 G1 x25.2 y25.2
N91 G1 x25.5 y25.5
N92 G1 x25.8 y25.8
N93 G1 x26.1 y26.1
N94 G1 x26.4 y26.4
N95 G1 x26.7 y26.7
N96 G1 x27.0 y27.0
N97 G1 x27.3 y27.3
N98 G1 x27.6 y27.6
N99 G1 x27.9 y27.9
N100 G1 x28.2 y28.2
N101 G1 x28.5 y28.5
N102 G1 x28.8 y28.8
N103 G1 x29.1 y29.1
N104 G1 x29.4 y29.4
N105 G1 x29.7 y29.7
N106 G1 x0 y0
