G00 X0.0000000000 Y0.0000000000 Z0.130
G01 X0.0000000000 Y0.0000000000 Z0.1316859668 F19.5997717991
G01 X0.0000000000 Y0.0000000000 Z0.2098985394 F17.4614115717
G01 X0.0000000000 Y0.0000000000 Z0.2976891840 F19.5997717991
G01 X0.0000000000 Y0.0000000000 Z0.4020904430 F23.3081880759
G01 X0.0000000000 Y0.0000000000 Z0.4459857653 F9.7998858995
G01 X0.0000000000 Y0.0000000000 Z0.5241983380 F17.4614115717
G01 X0.0000000000 Y0.0000000000 Z0.6119889825 F19.5997717991
G01 X0.0000000000 Y0.0000000000 Z0.6558843047 F9.7998858995
G01 X0.0000000000 Y0.0000000000 Z0.7436749493 F19.5997717991
G01 X0.0000000000 Y0.0000000000 Z0.8218875219 F17.4614115717
G01 X0.0000000000 Y0.0000000000 Z0.9096781664 F19.5997717991
G01 X0.0000000000 Y0.0000000000 Z1.1431426466 F26.1625565301
G01 X0.0000000000 Y0.0000000000 Z1.3511358527 F23.3081880759
G01 X0.0000000000 Y0.0000000000 Z1.3950311749 F9.7998858995
G01 X0.0000000000 Y0.0000000000 Z1.4828218195 F19.5997717991
G01 X0.0000000000 Y0.0000000000 Z1.5610343921 F17.4614115717
G01 X0.0000000000 Y0.0000000000 Z1.6488250366 F19.5997717991
G01 X0.0000000000 Y0.0000000000 Z1.7532262957 F23.3081880759
G01 X0.0000000000 Y0.0000000000 Z1.7971216180 F9.7998858995
G01 X0.0000000000 Y0.0000000000 Z1.8753341907 F17.4614115717
G01 X0.0000000000 Y0.0000000000 Z1.9631248352 F19.5997717991
G01 X0.0000000000 Y0.0000000000 Z2.0070201574 F9.7998858995
G01 X0.0000000000 Y0.0000000000 Z2.0948108019 F19.5997717991
G01 X0.0000000000 Y0.0000000000 Z2.1730233746 F17.4614115717
G01 X0.0000000000 Y0.0000000000 Z2.5203404762 F15.5563491861
G01 X0.0000000000 Y0.0000000000 Z2.5642357985 F9.7998858995
G01 X0.0000000000 Y0.0000000000 Z2.6520264430 F19.5997717991
G01 X0.0000000000 Y0.0000000000 Z2.7302390157 F17.4614115717
G01 X0.0000000000 Y0.0000000000 Z2.8180296602 F19.5997717991
G01 X0.0000000000 Y0.0000000000 Z2.9224309193 F23.3081880759
G01 X0.0000000000 Y0.0000000000 Z2.9663262415 F9.7998858995
G01 X0.0000000000 Y0.0000000000 Z3.0445388142 F17.4614115717
G01 X0.0000000000 Y0.0000000000 Z3.1323294587 F19.5997717991
G01 X0.0000000000 Y0.0000000000 Z3.1762247810 F9.7998858995
G01 X0.0000000000 Y0.0000000000 Z3.2640154255 F19.5997717991
G01 X0.0000000000 Y0.0000000000 Z3.3422279982 F17.4614115717
G01 X0.0000000000 Y0.0000000000 Z3.4300186427 F19.5997717991
G01 X0.0000000000 Y0.0000000000 Z3.6634831228 F26.1625565301
G01 X0.0000000000 Y0.0000000000 Z3.8714763289 F23.3081880759
G01 X0.0000000000 Y0.0000000000 Z3.8275810067 F9.7998858995
G01 X0.0000000000 Y0.0000000000 Z3.7397903621 F19.5997717991
G01 X0.0000000000 Y0.0000000000 Z3.6615777895 F17.4614115717
G01 X0.0000000000 Y0.0000000000 Z3.5737871450 F19.5997717991
G01 X0.0000000000 Y0.0000000000 Z3.4693858859 F23.3081880759
G01 X0.0000000000 Y0.0000000000 Z3.4254905636 F9.7998858995
G01 X0.0000000000 Y0.0000000000 Z3.3472779909 F17.4614115717
G01 X0.0000000000 Y0.0000000000 Z3.2594873464 F19.5997717991
G01 X0.0000000000 Y0.0000000000 Z3.2155920242 F9.7998858995
G01 X0.0000000000 Y0.0000000000 Z3.1278013797 F19.5997717991
G01 X0.0000000000 Y0.0000000000 Z3.0495888070 F17.4614115717
G01 X0.0000000000 Y0.0000000000 Z2.7022717054 F15.5563491861
G01 X0.0000000000 Y0.0000000000 Z2.6583763831 F9.7998858995
G01 X0.0000000000 Y0.0000000000 Z2.5705857386 F19.5997717991
G01 X0.0000000000 Y0.0000000000 Z2.4923731659 F17.4614115717
G01 X0.0000000000 Y0.0000000000 Z2.4045825214 F19.5997717991
G01 X0.0000000000 Y0.0000000000 Z2.3001812623 F23.3081880759
G01 X0.0000000000 Y0.0000000000 Z2.2562859401 F9.7998858995
G01 X0.0000000000 Y0.0000000000 Z2.1780733674 F17.4614115717
G01 X0.0000000000 Y0.0000000000 Z2.0902827229 F19.5997717991
G01 X0.0000000000 Y0.0000000000 Z2.0463874006 F9.7998858995
G01 X0.0000000000 Y0.0000000000 Z1.9585967561 F19.5997717991
G01 X0.0000000000 Y0.0000000000 Z1.8803841834 F17.4614115717
G01 X0.0000000000 Y0.0000000000 Z1.7925935389 F19.5997717991
G01 X0.0000000000 Y0.0000000000 Z1.5591290588 F26.1625565301
G01 X0.0000000000 Y0.0000000000 Z1.3511358527 F23.3081880759
G01 X0.0000000000 Y0.0000000000 Z1.3072405304 F9.7998858995
G01 X0.0000000000 Y0.0000000000 Z1.2194498859 F19.5997717991
G01 X0.0000000000 Y0.0000000000 Z1.1412373132 F17.4614115717
G01 X0.0000000000 Y0.0000000000 Z1.0534466687 F19.5997717991
G01 X0.0000000000 Y0.0000000000 Z0.9490454096 F23.3081880759
G01 X0.0000000000 Y0.0000000000 Z0.9051500874 F9.7998858995
G01 X0.0000000000 Y0.0000000000 Z0.8269375147 F17.4614115717
G01 X0.0000000000 Y0.0000000000 Z0.7391468702 F19.5997717991
G01 X0.0000000000 Y0.0000000000 Z0.6952515479 F9.7998858995
G01 X0.0000000000 Y0.0000000000 Z0.6074609034 F19.5997717991
G01 X0.0000000000 Y0.0000000000 Z0.5292483308 F17.4614115717
G01 X0.0000000000 Y0.0000000000 Z0.3904295203 F15.5563491861
G01 X0.0000000000 Y0.0000000000 Z0.3645315336 F11.6540940380
G01 X0.0000000000 Y0.0000000000 Z0.3354620263 F13.0812782650
G01 X0.0000000000 Y0.0000000000 Z0.3008923614 F15.5563491861
G01 X0.0000000000 Y0.0000000000 Z0.2620892246 F17.4614115717
G01 X0.0000000000 Y0.0000000000 Z0.2361912379 F11.6540940380
G01 X0.0000000000 Y0.0000000000 Z0.2071217306 F13.0812782650
G01 X0.0000000000 Y0.0000000000 Z0.1292123075 F8.7307057858
G01 X0.0000000000 Y0.0000000000 Z0.2850311538 F17.4614115717
G01 X0.0000000000 Y0.0000000000 Z0.3109291405 F11.6540940380
G01 X0.0000000000 Y0.0000000000 Z0.3985918733 F13.0812782650
G01 X0.0000000000 Y0.0000000000 Z0.6320563535 F26.1625565301
G01 X0.0000000000 Y0.0000000000 Z0.7195067242 F9.7998858995
G01 X0.0000000000 Y0.0000000000 Z0.8944074656 F19.5997717991
G01 X0.0000000000 Y0.0000000000 Z0.9383027878 F9.7998858995
G01 X0.0000000000 Y0.0000000000 Z0.9821981101 F9.7998858995
G01 X0.0000000000 Y0.0000000000 Z1.1570988515 F19.5997717991
G01 X0.0000000000 Y0.0000000000 Z1.2267783322 F15.5563491861
G01 X0.0000000000 Y0.0000000000 Z1.3145689768 F19.5997717991
G01 X0.0000000000 Y0.0000000000 Z1.5225621828 F23.3081880759
G01 X0.0000000000 Y0.0000000000 Z1.5811554084 F13.0812782650
G01 X0.0000000000 Y0.0000000000 Z1.6689460529 F19.5997717991
G01 X0.0000000000 Y0.0000000000 Z1.9024105331 F26.1625565301
G01 X0.0000000000 Y0.0000000000 Z1.9803199562 F8.7307057858
G01 X0.0000000000 Y0.0000000000 Z2.1361388025 F17.4614115717
G01 X0.0000000000 Y0.0000000000 Z2.1752450889 F8.7307057858
G01 X0.0000000000 Y0.0000000000 Z2.2143513752 F8.7307057858
G01 X0.0000000000 Y0.0000000000 Z2.3701702215 F17.4614115717
G01 X0.0000000000 Y0.0000000000 Z2.4576205922 F9.7998858995
G01 X0.0000000000 Y0.0000000000 Z2.6325213336 F19.5997717991
G01 X0.0000000000 Y0.0000000000 Z2.6716276200 F8.7307057858
G01 X0.0000000000 Y0.0000000000 Z2.7107339063 F8.7307057858
G01 X0.0000000000 Y0.0000000000 Z2.8665527526 F17.4614115717
G01 X0.0000000000 Y0.0000000000 Z2.8924507394 F11.6540940380
G01 X0.0000000000 Y0.0000000000 Z2.9801134722 F13.0812782650
G01 X0.0000000000 Y0.0000000000 Z3.2135779523 F26.1625565301
G01 X0.0000000000 Y0.0000000000 Z3.2721711779 F13.0812782650
G01 X0.0000000000 Y0.0000000000 Z3.3307644035 F13.0812782650
G01 X0.0000000000 Y0.0000000000 Z3.5642288836 F26.1625565301
G01 X0.0000000000 Y0.0000000000 Z3.7030476940 F15.5563491861
G01 X0.0000000000 Y0.0000000000 Z3.7908383386 F19.5997717991
G01 X0.0000000000 Y0.0000000000 Z3.6864370795 F23.3081880759
G01 X0.0000000000 Y0.0000000000 Z3.5697048394 F13.0812782650
G01 X0.0000000000 Y0.0000000000 Z3.3362403593 F26.1625565301
G01 X0.0000000000 Y0.0000000000 Z3.2487899886 F9.7998858995
G01 X0.0000000000 Y0.0000000000 Z3.0738892472 F19.5997717991
G01 X0.0000000000 Y0.0000000000 Z3.0299939249 F9.7998858995
G01 X0.0000000000 Y0.0000000000 Z2.9860986026 F9.7998858995
G01 X0.0000000000 Y0.0000000000 Z2.8322948378 F19.5997717991
G01 X0.0000000000 Y0.0000000000 Z2.7849337267 F44.0000000000
G01 X0.0000000000 Y0.0000000000 Z2.7467392823 F44.0000000000
G01 X0.0000000000 Y0.0000000000 Z2.7426606049 F14.6832383959
G01 X0.0000000000 Y0.0000000000 Z2.6747551155 F34.9228231433
G01 X0.0000000000 Y0.0000000000 Z2.6706764382 F14.6832383959
G01 X0.0000000000 Y0.0000000000 Z2.6135749555 F29.3664767917
G01 X0.0000000000 Y0.0000000000 Z2.6094962782 F14.6832383959
G01 X0.0000000000 Y0.0000000000 Z2.5415907887 F34.9228231433
G01 X0.0000000000 Y0.0000000000 Z2.5375121114 F14.6832383959
G01 X0.0000000000 Y0.0000000000 Z2.4886232225 F44.0000000000
G01 X0.0000000000 Y0.0000000000 Z2.4519565558 F44.0000000000
G01 X0.0000000000 Y0.0000000000 Z2.4458454447 F22.0000000000
G01 X0.0000000000 Y0.0000000000 Z2.3779399553 F34.9228231433
G01 X0.0000000000 Y0.0000000000 Z2.3718288442 F22.0000000000
G01 X0.0000000000 Y0.0000000000 Z2.3147273615 F29.3664767917
G01 X0.0000000000 Y0.0000000000 Z2.3086162504 F22.0000000000
G01 X0.0000000000 Y0.0000000000 Z2.2407107610 F34.9228231433
G01 X0.0000000000 Y0.0000000000 Z2.2345996499 F22.0000000000
G01 X0.0000000000 Y0.0000000000 Z2.1841829832 F44.0000000000
G01 X0.0000000000 Y0.0000000000 Z2.1490440943 F44.0000000000
G01 X0.0000000000 Y0.0000000000 Z2.1408867396 F29.3664767917
G01 X0.0000000000 Y0.0000000000 Z2.0729812502 F34.9228231433
G01 X0.0000000000 Y0.0000000000 Z2.0648238955 F29.3664767917
G01 X0.0000000000 Y0.0000000000 Z2.0077224129 F29.3664767917
G04 P0.0160
G01 X0.0000000000 Y0.0000000000 Z1.9398169234 F34.9228231433
G04 P0.0160
G01 X0.0000000000 Y0.0000000000 Z1.8878724790 F44.0000000000
G01 X0.0000000000 Y0.0000000000 Z1.8542613679 F44.0000000000
G01 X0.0000000000 Y0.0000000000 Z1.8481502568 F22.0000000000
G01 X0.0000000000 Y0.0000000000 Z1.7802447673 F34.9228231433
G01 X0.0000000000 Y0.0000000000 Z1.7741336562 F22.0000000000
G01 X0.0000000000 Y0.0000000000 Z1.7170321736 F29.3664767917
G01 X0.0000000000 Y0.0000000000 Z1.7109210624 F22.0000000000
G01 X0.0000000000 Y0.0000000000 Z1.6430155730 F34.9228231433
G01 X0.0000000000 Y0.0000000000 Z1.6369044619 F22.0000000000
G01 X0.0000000000 Y0.0000000000 Z1.5802526159 F46.6163761518
G01 X0.0000000000 Y0.0000000000 Z1.5462615083 F46.6163761518
G01 X0.0000000000 Y0.0000000000 Z1.5430242599 F11.6540940380
G01 X0.0000000000 Y0.0000000000 Z1.4751187705 F34.9228231433
G01 X0.0000000000 Y0.0000000000 Z1.4718815221 F11.6540940380
G01 X0.0000000000 Y0.0000000000 Z1.4147800395 F29.3664767917
G01 X0.0000000000 Y0.0000000000 Z1.4115427911 F11.6540940380
G01 X0.0000000000 Y0.0000000000 Z1.3436373017 F34.9228231433
G01 X0.0000000000 Y0.0000000000 Z1.3404000533 F11.6540940380
G01 X0.0000000000 Y0.0000000000 Z1.2821295832 F46.6163761518
G01 X0.0000000000 Y0.0000000000 Z1.2497570997 F46.6163761518
G01 X0.0000000000 Y0.0000000000 Z1.2449067076 F17.4614115717
G01 X0.0000000000 Y0.0000000000 Z1.1770012182 F34.9228231433
G01 X0.0000000000 Y0.0000000000 Z1.1721508261 F17.4614115717
G01 X0.0000000000 Y0.0000000000 Z1.1150493434 F29.3664767917
G01 X0.0000000000 Y0.0000000000 Z1.1101989513 F17.4614115717
G01 X0.0000000000 Y0.0000000000 Z1.0422934619 F34.9228231433
G01 X0.0000000000 Y0.0000000000 Z1.0374430698 F17.4614115717
G01 X0.0000000000 Y0.0000000000 Z0.9775539754 F46.6163761518
G01 X0.0000000000 Y0.0000000000 Z0.9468001161 F46.6163761518
G01 X0.0000000000 Y0.0000000000 Z0.9403256194 F23.3081880759
G01 X0.0000000000 Y0.0000000000 Z0.8724201300 F34.9228231433
G01 X0.0000000000 Y0.0000000000 Z0.8659456333 F23.3081880759
G01 X0.0000000000 Y0.0000000000 Z0.8088441507 F29.3664767917
G01 X0.0000000000 Y0.0000000000 Z0.8023696540 F23.3081880759
G01 X0.0000000000 Y0.0000000000 Z0.7344641645 F34.9228231433
G01 X0.0000000000 Y0.0000000000 Z0.7279896678 F23.3081880759
G01 X0.0000000000 Y0.0000000000 Z0.6664819493 F46.6163761518
G01 X0.0000000000 Y0.0000000000 Z0.6373467142 F46.6163761518
G01 X0.0000000000 Y0.0000000000 Z0.6324963221 F17.4614115717
G01 X0.0000000000 Y0.0000000000 Z0.5645908327 F34.9228231433
G01 X0.0000000000 Y0.0000000000 Z0.5597404406 F17.4614115717
G01 X0.0000000000 Y0.0000000000 Z0.5026389579 F29.3664767917
G01 X0.0000000000 Y0.0000000000 Z0.4977885658 F17.4614115717
G01 X0.0000000000 Y0.0000000000 Z0.4298830764 F34.9228231433
G01 X0.0000000000 Y0.0000000000 Z0.4250326843 F17.4614115717
G01 X0.0000000000 Y0.0000000000 Z0.3654493509 F44.0000000000
G01 X0.0000000000 Y0.0000000000 Z0.3394771287 F44.0000000000
G01 X0.0000000000 Y0.0000000000 Z0.3353984514 F14.6832383959
G01 X0.0000000000 Y0.0000000000 Z0.2674929619 F34.9228231433
G01 X0.0000000000 Y0.0000000000 Z0.2634142846 F14.6832383959
G01 X0.0000000000 Y0.0000000000 Z0.2063128019 F29.3664767917
G01 X0.0000000000 Y0.0000000000 Z0.2022341246 F14.6832383959
G01 X0.0000000000 Y0.0000000000 Z0.1343286352 F34.9228231433
G01 X0.0000000000 Y0.0000000000 Z0.1384073125 F14.6832383959
G01 X0.0000000000 Y0.0000000000 Z0.1995184236 F44.0000000000
G01 X0.0000000000 Y0.0000000000 Z0.2239628681 F44.0000000000
G01 X0.0000000000 Y0.0000000000 Z0.2300739792 F22.0000000000
G01 X0.0000000000 Y0.0000000000 Z0.2979794686 F34.9228231433
G01 X0.0000000000 Y0.0000000000 Z0.3040905797 F22.0000000000
G01 X0.0000000000 Y0.0000000000 Z0.3611920624 F29.3664767917
G01 X0.0000000000 Y0.0000000000 Z0.3673031735 F22.0000000000
G01 X0.0000000000 Y0.0000000000 Z0.4352086629 F34.9228231433
G01 X0.0000000000 Y0.0000000000 Z0.4413197740 F22.0000000000
G01 X0.0000000000 Y0.0000000000 Z0.5039586629 F44.0000000000
G01 X0.0000000000 Y0.0000000000 Z0.5268753296 F44.0000000000
G01 X0.0000000000 Y0.0000000000 Z0.5350326843 F29.3664767917
G01 X0.0000000000 Y0.0000000000 Z0.6029381737 F34.9228231433
G01 X0.0000000000 Y0.0000000000 Z0.6110955284 F29.3664767917
G01 X0.0000000000 Y0.0000000000 Z0.6681970110 F29.3664767917
G04 P0.0160
G01 X0.0000000000 Y0.0000000000 Z0.7361025005 F34.9228231433
G04 P0.0160
G01 X0.0000000000 Y0.0000000000 Z0.8002691671 F44.0000000000
G01 X0.0000000000 Y0.0000000000 Z0.8216580560 F44.0000000000
G01 X0.0000000000 Y0.0000000000 Z0.8277691671 F22.0000000000
G01 X0.0000000000 Y0.0000000000 Z0.8956746566 F34.9228231433
G01 X0.0000000000 Y0.0000000000 Z0.9017857677 F22.0000000000
G01 X0.0000000000 Y0.0000000000 Z0.9588872503 F29.3664767917
G01 X0.0000000000 Y0.0000000000 Z0.9649983614 F22.0000000000
G01 X0.0000000000 Y0.0000000000 Z1.0329038509 F34.9228231433
G01 X0.0000000000 Y0.0000000000 Z1.0390149620 F22.0000000000
G01 X0.0000000000 Y0.0000000000 Z1.1171392628 F52.3251130601
G01 X0.0000000000 Y0.0000000000 Z1.1407582374 F52.3251130601
G01 X0.0000000000 Y0.0000000000 Z1.1438137930 F11.0000000000
G01 X0.0000000000 Y0.0000000000 Z1.2293693485 F44.0000000000
G01 X0.0000000000 Y0.0000000000 Z1.2324249041 F11.0000000000
G01 X0.0000000000 Y0.0000000000 Z1.2965191512 F32.9627556913
G01 X0.0000000000 Y0.0000000000 Z1.2995747068 F11.0000000000
G01 X0.0000000000 Y0.0000000000 Z1.3851302624 F44.0000000000
G01 X0.0000000000 Y0.0000000000 Z1.3881858179 F11.0000000000
G01 X0.0000000000 Y0.0000000000 Z1.4681269629 F52.3251130601
G01 X0.0000000000 Y0.0000000000 Z1.4899290933 F52.3251130601
G01 X0.0000000000 Y0.0000000000 Z1.4945072538 F16.4813778456
G01 X0.0000000000 Y0.0000000000 Z1.5800628094 F44.0000000000
G01 X0.0000000000 Y0.0000000000 Z1.5846409699 F16.4813778456
G01 X0.0000000000 Y0.0000000000 Z1.6487352171 F32.9627556913
G01 X0.0000000000 Y0.0000000000 Z1.6533133776 F16.4813778456
G01 X0.0000000000 Y0.0000000000 Z1.7388689331 F44.0000000000
G01 X0.0000000000 Y0.0000000000 Z1.7434470936 F16.4813778456
G01 X0.0000000000 Y0.0000000000 Z1.8252050828 F52.3251130601
G01 X0.0000000000 Y0.0000000000 Z1.8451903690 F52.3251130601
G01 X0.0000000000 Y0.0000000000 Z1.8513014801 F22.0000000000
G01 X0.0000000000 Y0.0000000000 Z1.9368570357 F44.0000000000
G01 X0.0000000000 Y0.0000000000 Z1.9429681468 F22.0000000000
G01 X0.0000000000 Y0.0000000000 Z2.0070623940 F32.9627556913
G01 X0.0000000000 Y0.0000000000 Z2.0131735051 F22.0000000000
G01 X0.0000000000 Y0.0000000000 Z2.0987290607 F44.0000000000
G01 X0.0000000000 Y0.0000000000 Z2.1048401718 F22.0000000000
G01 X0.0000000000 Y0.0000000000 Z2.1884150051 F52.3251130601
G01 X0.0000000000 Y0.0000000000 Z2.2065834472 F52.3251130601
G01 X0.0000000000 Y0.0000000000 Z2.2111616077 F16.4813778456
G01 X0.0000000000 Y0.0000000000 Z2.2967171632 F44.0000000000
G01 X0.0000000000 Y0.0000000000 Z2.3012953237 F16.4813778456
G01 X0.0000000000 Y0.0000000000 Z2.3653895709 F32.9627556913
G01 X0.0000000000 Y0.0000000000 Z2.3699677314 F16.4813778456
G01 X0.0000000000 Y0.0000000000 Z2.4555232870 F44.0000000000
G01 X0.0000000000 Y0.0000000000 Z2.4601014475 F16.4813778456
G01 X0.0000000000 Y0.0000000000 Z2.5559503648 F58.7329535835
G01 X0.0000000000 Y0.0000000000 Z2.5743044128 F58.7329535835
G01 X0.0000000000 Y0.0000000000 Z2.5775416611 F11.6540940380
G01 X0.0000000000 Y0.0000000000 Z2.6681846148 F46.6163761518
G01 X0.0000000000 Y0.0000000000 Z2.6714218631 F11.6540940380
G01 X0.0000000000 Y0.0000000000 Z2.7393273526 F34.9228231433
G01 X0.0000000000 Y0.0000000000 Z2.7425646009 F11.6540940380
G01 X0.0000000000 Y0.0000000000 Z2.8332075545 F46.6163761518
G01 X0.0000000000 Y0.0000000000 Z2.8364448029 F11.6540940380
G01 X0.0000000000 Y0.0000000000 Z2.9343330589 F58.7329535835
G01 X0.0000000000 Y0.0000000000 Z2.9506477682 F58.7329535835
G01 X0.0000000000 Y0.0000000000 Z2.9554981603 F17.4614115717
G01 X0.0000000000 Y0.0000000000 Z3.0461411139 F46.6163761518
G01 X0.0000000000 Y0.0000000000 Z3.0509915060 F17.4614115717
G01 X0.0000000000 Y0.0000000000 Z3.1104088093 F34.9228231433
G01 X0.0000000000 Y0.0000000000 Z3.1188969955 F34.9228231433
G01 X0.0000000000 Y0.0000000000 Z3.1253714922 F23.3081880759
G01 X0.0000000000 Y0.0000000000 Z3.2160144458 F46.6163761518
G01 X0.0000000000 Y0.0000000000 Z3.2224889425 F23.3081880759
G01 X0.0000000000 Y0.0000000000 Z3.3305191452 F62.2253967444
G01 X0.0000000000 Y0.0000000000 Z3.3434827695 F62.2253967444
G01 X0.0000000000 Y0.0000000000 Z3.3471164579 F13.0812782650
G01 X0.0000000000 Y0.0000000000 Z3.4488597333 F52.3251130601
G01 X0.0000000000 Y0.0000000000 Z3.4524934217 F13.0812782650
G01 X0.0000000000 Y0.0000000000 Z3.5287147565 F39.1995435982
G01 X0.0000000000 Y0.0000000000 Z3.5323484449 F13.0812782650
G01 X0.0000000000 Y0.0000000000 Z3.6340917203 F52.3251130601
G01 X0.0000000000 Y0.0000000000 Z3.6377254087 F13.0812782650
G01 X0.0000000000 Y0.0000000000 Z3.7479162154 F62.2253967444
G01 X0.0000000000 Y0.0000000000 Z3.7371131951 F62.2253967444
G01 X0.0000000000 Y0.0000000000 Z3.7316688141 F19.5997717991
G01 X0.0000000000 Y0.0000000000 Z3.6299255387 F52.3251130601
G01 X0.0000000000 Y0.0000000000 Z3.6244811576 F19.5997717991
G01 X0.0000000000 Y0.0000000000 Z3.5537042039 F39.1995435982
G01 X0.0000000000 Y0.0000000000 Z3.5482598229 F39.1995435982
G01 X0.0000000000 Y0.0000000000 Z3.5409924460 F26.1625565301
G01 X0.0000000000 Y0.0000000000 Z3.4392491706 F52.3251130601
G01 X0.0000000000 Y0.0000000000 Z3.4319817938 F26.1625565301
G01 X0.0000000000 Y0.0000000000 Z3.3238968445 F58.7329535835
G01 X0.0000000000 Y0.0000000000 Z3.3177788285 F58.7329535835
G01 X0.0000000000 Y0.0000000000 Z3.3145415802 F11.6540940380
G01 X0.0000000000 Y0.0000000000 Z3.2238986266 F46.6163761518
G01 X0.0000000000 Y0.0000000000 Z3.2206613782 F11.6540940380
G01 X0.0000000000 Y0.0000000000 Z3.1527558888 F34.9228231433
G01 X0.0000000000 Y0.0000000000 Z3.1495186404 F11.6540940380
G01 X0.0000000000 Y0.0000000000 Z3.0588756868 F46.6163761518
G01 X0.0000000000 Y0.0000000000 Z3.0556384384 F11.6540940380
G01 X0.0000000000 Y0.0000000000 Z2.9455141505 F58.7329535835
G01 X0.0000000000 Y0.0000000000 Z2.9414354731 F58.7329535835
G01 X0.0000000000 Y0.0000000000 Z2.9365850810 F17.4614115717
G01 X0.0000000000 Y0.0000000000 Z2.8459421274 F46.6163761518
G01 X0.0000000000 Y0.0000000000 Z2.8410917353 F17.4614115717
G01 X0.0000000000 Y0.0000000000 Z2.7743988439 F34.9228231433
G01 X0.0000000000 Y0.0000000000 Z2.7731862459 F34.9228231433
G01 X0.0000000000 Y0.0000000000 Z2.7667117492 F23.3081880759
G01 X0.0000000000 Y0.0000000000 Z2.6760687956 F46.6163761518
G01 X0.0000000000 Y0.0000000000 Z2.6695942989 F23.3081880759
G01 X0.0000000000 Y0.0000000000 Z2.5789513452 F46.6163761518
G01 X0.0000000000 Y0.0000000000 Z2.5762291547 F9.7998858995
G01 X0.0000000000 Y0.0000000000 Z2.5000078199 F39.1995435982
G01 X0.0000000000 Y0.0000000000 Z2.4972856294 F9.7998858995
G01 X0.0000000000 Y0.0000000000 Z2.4401841468 F29.3664767917
G01 X0.0000000000 Y0.0000000000 Z2.4374619562 F9.7998858995
G01 X0.0000000000 Y0.0000000000 Z2.3612406215 F39.1995435982
G01 X0.0000000000 Y0.0000000000 Z2.3585184309 F9.7998858995
G01 X0.0000000000 Y0.0000000000 Z2.2678754773 F46.6163761518
G01 X0.0000000000 Y0.0000000000 Z2.2675352035 F9.7998858995
G01 X0.0000000000 Y0.0000000000 Z2.2627713701 F19.5997717991
G01 X0.0000000000 Y0.0000000000 Z2.1865500353 F39.1995435982
G01 X0.0000000000 Y0.0000000000 Z2.1811056542 F19.5997717991
G01 X0.0000000000 Y0.0000000000 Z2.1240041716 F29.3664767917
G01 X0.0000000000 Y0.0000000000 Z2.1185597905 F19.5997717991
G01 X0.0000000000 Y0.0000000000 Z2.0423384557 F39.1995435982
G01 X0.0000000000 Y0.0000000000 Z2.0368940747 F19.5997717991
G01 X0.0000000000 Y0.0000000000 Z1.9606727399 F39.1995435982
G01 X0.0000000000 Y0.0000000000 Z1.9593116447 F19.5997717991
G01 X0.0000000000 Y0.0000000000 Z1.9560707386 F15.5563491861
G01 X0.0000000000 Y0.0000000000 Z1.8955738251 F31.1126983722
G01 X0.0000000000 Y0.0000000000 Z1.8912526170 F15.5563491861
G01 X0.0000000000 Y0.0000000000 Z1.8459311402 F23.3081880759
G01 X0.0000000000 Y0.0000000000 Z1.8416099320 F15.5563491861
G01 X0.0000000000 Y0.0000000000 Z1.7811130185 F31.1126983722
G01 X0.0000000000 Y0.0000000000 Z1.7767918104 F15.5563491861
G01 X0.0000000000 Y0.0000000000 Z1.7005704757 F39.1995435982
G01 X0.0000000000 Y0.0000000000 Z1.6989500226 F15.5563491861
G01 X0.0000000000 Y0.0000000000 Z1.6955472845 F19.5997717991
G01 X0.0000000000 Y0.0000000000 Z1.6350503710 F31.1126983722
G01 X0.0000000000 Y0.0000000000 Z1.6296059899 F19.5997717991
G01 X0.0000000000 Y0.0000000000 Z1.5842845131 F23.3081880759
G01 X0.0000000000 Y0.0000000000 Z1.5815623226 F19.5997717991
G01 X0.0000000000 Y0.0000000000 Z1.5783250742 F23.3081880759
G01 X0.0000000000 Y0.0000000000 Z1.5178281607 F31.1126983722
G01 X0.0000000000 Y0.0000000000 Z1.5113536640 F23.3081880759
G01 X0.0000000000 Y0.0000000000 Z1.4257981085 F44.0000000000
G01 X0.0000000000 Y0.0000000000 Z1.4217515480 F23.3081880759
G01 X0.0000000000 Y0.0000000000 Z1.4208420995 F8.7307057858
G01 X0.0000000000 Y0.0000000000 Z1.3529366101 F34.9228231433
G01 X0.0000000000 Y0.0000000000 Z1.3505114140 F8.7307057858
G01 X0.0000000000 Y0.0000000000 Z1.2996397763 F26.1625565301
G01 X0.0000000000 Y0.0000000000 Z1.2972145803 F8.7307057858
G01 X0.0000000000 Y0.0000000000 Z1.2293090908 F34.9228231433
G01 X0.0000000000 Y0.0000000000 Z1.2268838948 F8.7307057858
G01 X0.0000000000 Y0.0000000000 Z1.1413283392 F44.0000000000
G01 X0.0000000000 Y0.0000000000 Z1.1395094422 F8.7307057858
G01 X0.0000000000 Y0.0000000000 Z1.1382968442 F17.4614115717
G01 X0.0000000000 Y0.0000000000 Z1.0703913547 F34.9228231433
G01 X0.0000000000 Y0.0000000000 Z1.0655409626 F17.4614115717
G01 X0.0000000000 Y0.0000000000 Z1.0146693249 F26.1625565301
G01 X0.0000000000 Y0.0000000000 Z1.0098189328 F17.4614115717
G01 X0.0000000000 Y0.0000000000 Z0.9419134434 F34.9228231433
G01 X0.0000000000 Y0.0000000000 Z0.8988662135 F17.4614115717
G01 X0.0000000000 Y0.0000000000 Z0.8549708912 F9.7998858995
G01 X0.0000000000 Y0.0000000000 Z0.7671802467 F19.5997717991
G01 X0.0000000000 Y0.0000000000 Z0.6889676740 F17.4614115717
G01 X0.0000000000 Y0.0000000000 Z0.6011770295 F19.5997717991
G01 X0.0000000000 Y0.0000000000 Z0.4967757704 F23.3081880759
G01 X0.0000000000 Y0.0000000000 Z0.4528804481 F9.7998858995
G01 X0.0000000000 Y0.0000000000 Z0.3746678755 F17.4614115717
G01 X0.0000000000 Y0.0000000000 Z0.2868772310 F19.5997717991
G01 X0.0000000000 Y0.0000000000 Z0.2429819087 F9.7998858995
G01 X0.0000000000 Y0.0000000000 Z0.1551912642 F19.5997717991
G01 X0.0000000000 Y0.0000000000 Z0.2334038369 F17.4614115717
G01 X0.0000000000 Y0.0000000000 Z0.3211944814 F19.5997717991
G01 X0.0000000000 Y0.0000000000 Z0.5546589615 F26.1625565301
G01 X0.0000000000 Y0.0000000000 Z0.7626521676 F23.3081880759
G01 X0.0000000000 Y0.0000000000 Z0.8065474899 F9.7998858995
G01 X0.0000000000 Y0.0000000000 Z0.8943381344 F19.5997717991
G01 X0.0000000000 Y0.0000000000 Z0.9725507071 F17.4614115717
G01 X0.0000000000 Y0.0000000000 Z1.0603413516 F19.5997717991
G01 X0.0000000000 Y0.0000000000 Z1.1647426107 F23.3081880759
G01 X0.0000000000 Y0.0000000000 Z1.2086379329 F9.7998858995
G01 X0.0000000000 Y0.0000000000 Z1.2868505056 F17.4614115717
G01 X0.0000000000 Y0.0000000000 Z1.3746411501 F19.5997717991
G01 X0.0000000000 Y0.0000000000 Z1.4185364724 F9.7998858995
G01 X0.0000000000 Y0.0000000000 Z1.5063271169 F19.5997717991
G01 X0.0000000000 Y0.0000000000 Z1.5845396895 F17.4614115717
G01 X0.0000000000 Y0.0000000000 Z1.9318567912 F15.5563491861
G01 X0.0000000000 Y0.0000000000 Z1.9757521134 F9.7998858995
G01 X0.0000000000 Y0.0000000000 Z2.0635427579 F19.5997717991
G01 X0.0000000000 Y0.0000000000 Z2.1417553306 F17.4614115717
G01 X0.0000000000 Y0.0000000000 Z2.2295459751 F19.5997717991
G01 X0.0000000000 Y0.0000000000 Z2.3339472342 F23.3081880759
G01 X0.0000000000 Y0.0000000000 Z2.3778425565 F9.7998858995
G01 X0.0000000000 Y0.0000000000 Z2.4560551291 F17.4614115717
G01 X0.0000000000 Y0.0000000000 Z2.5438457736 F19.5997717991
G01 X0.0000000000 Y0.0000000000 Z2.5877410959 F9.7998858995
G01 X0.0000000000 Y0.0000000000 Z2.6755317404 F19.5997717991
G01 X0.0000000000 Y0.0000000000 Z2.7537443131 F17.4614115717
G01 X0.0000000000 Y0.0000000000 Z2.8415349576 F19.5997717991
G01 X0.0000000000 Y0.0000000000 Z3.0749994377 F26.1625565301
G01 X0.0000000000 Y0.0000000000 Z3.2829926438 F23.3081880759
G01 X0.0000000000 Y0.0000000000 Z3.3268879661 F9.7998858995
G01 X0.0000000000 Y0.0000000000 Z3.4146786106 F19.5997717991
G01 X0.0000000000 Y0.0000000000 Z3.4928911833 F17.4614115717
G01 X0.0000000000 Y0.0000000000 Z3.5806818278 F19.5997717991
G01 X0.0000000000 Y0.0000000000 Z3.6850830869 F23.3081880759
G01 X0.0000000000 Y0.0000000000 Z3.7289784091 F9.7998858995
G01 X0.0000000000 Y0.0000000000 Z3.8071909818 F17.4614115717
G01 X0.0000000000 Y0.0000000000 Z3.7194003373 F19.5997717991
G01 X0.0000000000 Y0.0000000000 Z3.6755050150 F9.7998858995
G01 X0.0000000000 Y0.0000000000 Z3.5877143705 F19.5997717991
G01 X0.0000000000 Y0.0000000000 Z3.5095017979 F17.4614115717
G01 X0.0000000000 Y0.0000000000 Z3.3706829874 F15.5563491861
G01 X0.0000000000 Y0.0000000000 Z3.3447850007 F11.6540940380
G01 X0.0000000000 Y0.0000000000 Z3.3157154934 F13.0812782650
G01 X0.0000000000 Y0.0000000000 Z3.2811458285 F15.5563491861
G01 X0.0000000000 Y0.0000000000 Z3.2423426917 F17.4614115717
G01 X0.0000000000 Y0.0000000000 Z3.2164447050 F11.6540940380
G01 X0.0000000000 Y0.0000000000 Z3.1873751977 F13.0812782650
G01 X0.0000000000 Y0.0000000000 Z3.1094657746 F8.7307057858
G01 X0.0000000000 Y0.0000000000 Z2.9536469282 F17.4614115717
G01 X0.0000000000 Y0.0000000000 Z2.9277489415 F11.6540940380
G01 X0.0000000000 Y0.0000000000 Z2.8400862087 F13.0812782650
G01 X0.0000000000 Y0.0000000000 Z2.6066217285 F26.1625565301
G01 X0.0000000000 Y0.0000000000 Z2.5191713578 F9.7998858995
G01 X0.0000000000 Y0.0000000000 Z2.3442706164 F19.5997717991
G01 X0.0000000000 Y0.0000000000 Z2.3003752942 F9.7998858995
G01 X0.0000000000 Y0.0000000000 Z2.2564799719 F9.7998858995
G01 X0.0000000000 Y0.0000000000 Z2.0815792305 F19.5997717991
G01 X0.0000000000 Y0.0000000000 Z2.0118997498 F15.5563491861
G01 X0.0000000000 Y0.0000000000 Z1.9241091053 F19.5997717991
G01 X0.0000000000 Y0.0000000000 Z1.7161158992 F23.3081880759
G01 X0.0000000000 Y0.0000000000 Z1.6575226736 F13.0812782650
G01 X0.0000000000 Y0.0000000000 Z1.5697320291 F19.5997717991
G01 X0.0000000000 Y0.0000000000 Z1.3362675489 F26.1625565301
G01 X0.0000000000 Y0.0000000000 Z1.2583581258 F8.7307057858
G01 X0.0000000000 Y0.0000000000 Z1.1025392795 F17.4614115717
G01 X0.0000000000 Y0.0000000000 Z1.0634329931 F8.7307057858
G01 X0.0000000000 Y0.0000000000 Z1.0243267068 F8.7307057858
G01 X0.0000000000 Y0.0000000000 Z0.8685078605 F17.4614115717
G01 X0.0000000000 Y0.0000000000 Z0.7810574898 F9.7998858995
G01 X0.0000000000 Y0.0000000000 Z0.6061567484 F19.5997717991
G01 X0.0000000000 Y0.0000000000 Z0.5670504620 F8.7307057858
G01 X0.0000000000 Y0.0000000000 Z0.5279441757 F8.7307057858
G01 X0.0000000000 Y0.0000000000 Z0.3721253294 F17.4614115717
G01 X0.0000000000 Y0.0000000000 Z0.3462273426 F11.6540940380
G01 X0.0000000000 Y0.0000000000 Z0.2585646098 F13.0812782650
G01 X0.0000000000 Y0.0000000000 Z0.0251001297 F26.1625565301
G01 X0.0000000000 Y0.0000000000 Z0.0836933552 F13.0812782650
G01 X0.0000000000 Y0.0000000000 Z0.1422865808 F13.0812782650
G01 X0.0000000000 Y0.0000000000 Z0.3757510610 F26.1625565301
G01 X0.0000000000 Y0.0000000000 Z0.5145698714 F15.5563491861
G01 X0.0000000000 Y0.0000000000 Z0.6023605159 F19.5997717991
G01 X0.0000000000 Y0.0000000000 Z0.7067617750 F23.3081880759
G01 X0.0000000000 Y0.0000000000 Z0.8234940151 F13.0812782650
G01 X0.0000000000 Y0.0000000000 Z1.0569584952 F26.1625565301
G01 X0.0000000000 Y0.0000000000 Z1.1444088659 F9.7998858995
G01 X0.0000000000 Y0.0000000000 Z1.3193096073 F19.5997717991
G01 X0.0000000000 Y0.0000000000 Z1.3632049296 F9.7998858995
G01 X0.0000000000 Y0.0000000000 Z1.4071002518 F9.7998858995
G01 X0.0000000000 Y0.0000000000 Z1.5248349922 F19.5997717991
G01 X0.0000000000 Y0.0000000000 Z1.6103905477 F44.0000000000
G01 X0.0000000000 Y0.0000000000 Z1.6158349288 F19.5997717991
G01 X0.0000000000 Y0.0000000000 Z1.6400868893 F34.9228231433
G01 X0.0000000000 Y0.0000000000 Z1.6837404182 F34.9228231433
G01 X0.0000000000 Y0.0000000000 Z1.6878190956 F14.6832383959
G01 X0.0000000000 Y0.0000000000 Z1.7449205782 F29.3664767917
G01 X0.0000000000 Y0.0000000000 Z1.7489992555 F14.6832383959
G01 X0.0000000000 Y0.0000000000 Z1.8169047450 F34.9228231433
G01 X0.0000000000 Y0.0000000000 Z1.8209834223 F14.6832383959
G01 X0.0000000000 Y0.0000000000 Z1.9065389779 F44.0000000000
G01 X0.0000000000 Y0.0000000000 Z1.9106176552 F14.6832383959
G01 X0.0000000000 Y0.0000000000 Z1.9360822137 F34.9228231433
G01 X0.0000000000 Y0.0000000000 Z1.9785231446 F34.9228231433
G01 X0.0000000000 Y0.0000000000 Z1.9846342558 F22.0000000000
G01 X0.0000000000 Y0.0000000000 Z2.0417357384 F29.3664767917
G01 X0.0000000000 Y0.0000000000 Z2.0478468495 F22.0000000000
G01 X0.0000000000 Y0.0000000000 Z2.1157523390 F34.9228231433
G01 X0.0000000000 Y0.0000000000 Z2.1218634501 F22.0000000000
G01 X0.0000000000 Y0.0000000000 Z2.2074190056 F44.0000000000
G01 X0.0000000000 Y0.0000000000 Z2.2135301167 F22.0000000000
G01 X0.0000000000 Y0.0000000000 Z2.2402072733 F34.9228231433
G01 X0.0000000000 Y0.0000000000 Z2.2814356062 F34.9228231433
G01 X0.0000000000 Y0.0000000000 Z2.2895929609 F29.3664767917
G01 X0.0000000000 Y0.0000000000 Z2.3466944435 F29.3664767917
G04 P0.0160
G01 X0.0000000000 Y0.0000000000 Z2.4145999329 F34.9228231433
G04 P0.0160
G01 X0.0000000000 Y0.0000000000 Z2.5001554885 F44.0000000000
G04 P0.0160
G01 X0.0000000000 Y0.0000000000 Z2.5280452431 F34.9228231433
G01 X0.0000000000 Y0.0000000000 Z2.5680609779 F34.9228231433
G01 X0.0000000000 Y0.0000000000 Z2.5741720891 F22.0000000000
G01 X0.0000000000 Y0.0000000000 Z2.6312735717 F29.3664767917
G01 X0.0000000000 Y0.0000000000 Z2.6373846828 F22.0000000000
G01 X0.0000000000 Y0.0000000000 Z2.7052901723 F34.9228231433
G01 X0.0000000000 Y0.0000000000 Z2.7114012834 F22.0000000000
G01 X0.0000000000 Y0.0000000000 Z2.8020442370 F46.6163761518
G01 X0.0000000000 Y0.0000000000 Z2.8081553481 F22.0000000000
G01 X0.0000000000 Y0.0000000000 Z2.8372577007 F34.9228231433
G01 X0.0000000000 Y0.0000000000 Z2.8760608376 F34.9228231433
G01 X0.0000000000 Y0.0000000000 Z2.8792980859 F11.6540940380
G01 X0.0000000000 Y0.0000000000 Z2.9363995686 F29.3664767917
G01 X0.0000000000 Y0.0000000000 Z2.9396368169 F11.6540940380
G01 X0.0000000000 Y0.0000000000 Z3.0075423063 F34.9228231433
G01 X0.0000000000 Y0.0000000000 Z3.0107795547 F11.6540940380
G01 X0.0000000000 Y0.0000000000 Z3.1014225083 F46.6163761518
G01 X0.0000000000 Y0.0000000000 Z3.1046597567 F11.6540940380
G01 X0.0000000000 Y0.0000000000 Z3.1349747073 F34.9228231433
G01 X0.0000000000 Y0.0000000000 Z3.1725652461 F34.9228231433
G01 X0.0000000000 Y0.0000000000 Z3.1774156382 F17.4614115717
G01 X0.0000000000 Y0.0000000000 Z3.2345171209 F29.3664767917
G01 X0.0000000000 Y0.0000000000 Z3.2393675130 F17.4614115717
G01 X0.0000000000 Y0.0000000000 Z3.3072730024 F34.9228231433
G01 X0.0000000000 Y0.0000000000 Z3.3121233945 F17.4614115717
G01 X0.0000000000 Y0.0000000000 Z3.4027663481 F46.6163761518
G01 X0.0000000000 Y0.0000000000 Z3.4076167402 F17.4614115717
G01 X0.0000000000 Y0.0000000000 Z3.4391442889 F34.9228231433
G01 X0.0000000000 Y0.0000000000 Z3.4755222297 F34.9228231433
G01 X0.0000000000 Y0.0000000000 Z3.4819967264 F23.3081880759
G01 X0.0000000000 Y0.0000000000 Z3.5390982090 F29.3664767917
G01 X0.0000000000 Y0.0000000000 Z3.5455727057 F23.3081880759
G01 X0.0000000000 Y0.0000000000 Z3.6134781952 F34.9228231433
G01 X0.0000000000 Y0.0000000000 Z3.6199526918 F23.3081880759
G01 X0.0000000000 Y0.0000000000 Z3.7105956455 F46.6163761518
G01 X0.0000000000 Y0.0000000000 Z3.7170701422 F23.3081880759
G01 X0.0000000000 Y0.0000000000 Z3.7498102889 F34.9228231433
G01 X0.0000000000 Y0.0000000000 Z3.7146449461 F34.9228231433
G01 X0.0000000000 Y0.0000000000 Z3.7097945540 F17.4614115717
G01 X0.0000000000 Y0.0000000000 Z3.6526930714 F29.3664767917
G01 X0.0000000000 Y0.0000000000 Z3.6478426793 F17.4614115717
G01 X0.0000000000 Y0.0000000000 Z3.5799371898 F34.9228231433
G01 X0.0000000000 Y0.0000000000 Z3.5750867977 F17.4614115717
G01 X0.0000000000 Y0.0000000000 Z3.4895312422 F44.0000000000
G01 X0.0000000000 Y0.0000000000 Z3.4846808500 F17.4614115717
G01 X0.0000000000 Y0.0000000000 Z3.4507281053 F34.9228231433
G01 X0.0000000000 Y0.0000000000 Z3.4167753606 F34.9228231433
G01 X0.0000000000 Y0.0000000000 Z3.4126966833 F14.6832383959
G01 X0.0000000000 Y0.0000000000 Z3.3555952006 F29.3664767917
G01 X0.0000000000 Y0.0000000000 Z3.3515165233 F14.6832383959
G01 X0.0000000000 Y0.0000000000 Z3.2836110338 F34.9228231433
G01 X0.0000000000 Y0.0000000000 Z3.2795323565 F14.6832383959
G01 X0.0000000000 Y0.0000000000 Z3.1939768010 F44.0000000000
G01 X0.0000000000 Y0.0000000000 Z3.1898981236 F14.6832383959
G01 X0.0000000000 Y0.0000000000 Z3.1547327809 F34.9228231433
G01 X0.0000000000 Y0.0000000000 Z3.1219926342 F34.9228231433
G01 X0.0000000000 Y0.0000000000 Z3.1158815231 F22.0000000000
G01 X0.0000000000 Y0.0000000000 Z3.0587800404 F29.3664767917
G01 X0.0000000000 Y0.0000000000 Z3.0526689293 F22.0000000000
G01 X0.0000000000 Y0.0000000000 Z2.9847634399 F34.9228231433
G01 X0.0000000000 Y0.0000000000 Z2.9786523287 F22.0000000000
G01 X0.0000000000 Y0.0000000000 Z2.8930967732 F44.0000000000
G01 X0.0000000000 Y0.0000000000 Z2.8869856621 F22.0000000000
G01 X0.0000000000 Y0.0000000000 Z2.8506077213 F34.9228231433
G01 X0.0000000000 Y0.0000000000 Z2.8190801726 F34.9228231433
G01 X0.0000000000 Y0.0000000000 Z2.8109228180 F29.3664767917
G01 X0.0000000000 Y0.0000000000 Z2.7538213353 F29.3664767917
G04 P0.0160
G01 X0.0000000000 Y0.0000000000 Z2.6859158459 F34.9228231433
G04 P0.0160
G01 X0.0000000000 Y0.0000000000 Z2.6003602903 F44.0000000000
G04 P0.0160
G01 X0.0000000000 Y0.0000000000 Z2.5627697515 F34.9228231433
G01 X0.0000000000 Y0.0000000000 Z2.5324548009 F34.9228231433
G01 X0.0000000000 Y0.0000000000 Z2.5263436898 F22.0000000000
G01 X0.0000000000 Y0.0000000000 Z2.4692422071 F29.3664767917
G01 X0.0000000000 Y0.0000000000 Z2.4631310960 F22.0000000000
G01 X0.0000000000 Y0.0000000000 Z2.3952256066 F34.9228231433
G01 X0.0000000000 Y0.0000000000 Z2.3891144954 F22.0000000000
G01 X0.0000000000 Y0.0000000000 Z2.2873712201 F52.3251130601
G01 X0.0000000000 Y0.0000000000 Z2.2812601089 F22.0000000000
G01 X0.0000000000 Y0.0000000000 Z2.2323712201 F44.0000000000
G01 X0.0000000000 Y0.0000000000 Z2.1957045534 F44.0000000000
G01 X0.0000000000 Y0.0000000000 Z2.1926489978 F11.0000000000
G01 X0.0000000000 Y0.0000000000 Z2.1285547507 F32.9627556913
G01 X0.0000000000 Y0.0000000000 Z2.1254991951 F11.0000000000
G01 X0.0000000000 Y0.0000000000 Z2.0399436395 F44.0000000000
G01 X0.0000000000 Y0.0000000000 Z2.0368880840 F11.0000000000
G01 X0.0000000000 Y0.0000000000 Z1.9351448086 F52.3251130601
G01 X0.0000000000 Y0.0000000000 Z1.9320892530 F11.0000000000
G01 X0.0000000000 Y0.0000000000 Z1.8816725864 F44.0000000000
G01 X0.0000000000 Y0.0000000000 Z1.8465336975 F44.0000000000
G01 X0.0000000000 Y0.0000000000 Z1.8419555370 F16.4813778456
G01 X0.0000000000 Y0.0000000000 Z1.7778612898 F32.9627556913
G01 X0.0000000000 Y0.0000000000 Z1.7732831293 F16.4813778456
G01 X0.0000000000 Y0.0000000000 Z1.6877275737 F44.0000000000
G01 X0.0000000000 Y0.0000000000 Z1.6831494132 F16.4813778456
G01 X0.0000000000 Y0.0000000000 Z1.5814061378 F52.3251130601
G01 X0.0000000000 Y0.0000000000 Z1.5768279773 F16.4813778456
G01 X0.0000000000 Y0.0000000000 Z1.5248835329 F44.0000000000
G01 X0.0000000000 Y0.0000000000 Z1.4912724217 F44.0000000000
G01 X0.0000000000 Y0.0000000000 Z1.4851613106 F22.0000000000
G01 X0.0000000000 Y0.0000000000 Z1.4210670635 F32.9627556913
G01 X0.0000000000 Y0.0000000000 Z1.4149559523 F22.0000000000
G01 X0.0000000000 Y0.0000000000 Z1.3294003968 F44.0000000000
G01 X0.0000000000 Y0.0000000000 Z1.3232892857 F22.0000000000
G01 X0.0000000000 Y0.0000000000 Z1.2215460103 F52.3251130601
G01 X0.0000000000 Y0.0000000000 Z1.2154348992 F22.0000000000
G01 X0.0000000000 Y0.0000000000 Z1.1619626770 F44.0000000000
G01 X0.0000000000 Y0.0000000000 Z1.1298793436 F44.0000000000
G01 X0.0000000000 Y0.0000000000 Z1.1253011831 F16.4813778456
G01 X0.0000000000 Y0.0000000000 Z1.0612069359 F32.9627556913
G01 X0.0000000000 Y0.0000000000 Z1.0566287754 F16.4813778456
G01 X0.0000000000 Y0.0000000000 Z0.9710732199 F44.0000000000
G01 X0.0000000000 Y0.0000000000 Z0.9664950593 F16.4813778456
G01 X0.0000000000 Y0.0000000000 Z0.8522920940 F58.7329535835
G01 X0.0000000000 Y0.0000000000 Z0.8477139335 F16.4813778456
G01 X0.0000000000 Y0.0000000000 Z0.7894434633 F46.6163761518
G01 X0.0000000000 Y0.0000000000 Z0.7570709799 F46.6163761518
G01 X0.0000000000 Y0.0000000000 Z0.7538337316 F11.6540940380
G01 X0.0000000000 Y0.0000000000 Z0.6859282421 F34.9228231433
G01 X0.0000000000 Y0.0000000000 Z0.6826909938 F11.6540940380
G01 X0.0000000000 Y0.0000000000 Z0.5920480401 F46.6163761518
G01 X0.0000000000 Y0.0000000000 Z0.5888107918 F11.6540940380
G01 X0.0000000000 Y0.0000000000 Z0.4746078265 F58.7329535835
G01 X0.0000000000 Y0.0000000000 Z0.4713705782 F11.6540940380
G01 X0.0000000000 Y0.0000000000 Z0.4114814838 F46.6163761518
G01 X0.0000000000 Y0.0000000000 Z0.3807276245 F46.6163761518
G01 X0.0000000000 Y0.0000000000 Z0.3758772324 F17.4614115717
G01 X0.0000000000 Y0.0000000000 Z0.3079717430 F34.9228231433
G01 X0.0000000000 Y0.0000000000 Z0.3031213509 F17.4614115717
G01 X0.0000000000 Y0.0000000000 Z0.2416136323 F46.6163761518
G01 X0.0000000000 Y0.0000000000 Z0.2124783972 F46.6163761518
G01 X0.0000000000 Y0.0000000000 Z0.2060039006 F23.3081880759
G01 X0.0000000000 Y0.0000000000 Z0.0850100736 F62.2253967444
G01 X0.0000000000 Y0.0000000000 Z0.0914845702 F23.3081880759
G01 X0.0000000000 Y0.0000000000 Z0.1623414942 F52.3251130601
G01 X0.0000000000 Y0.0000000000 Z0.1932278456 F52.3251130601
G01 X0.0000000000 Y0.0000000000 Z0.1968615340 F13.0812782650
G01 X0.0000000000 Y0.0000000000 Z0.2730828688 F39.1995435982
G01 X0.0000000000 Y0.0000000000 Z0.2767165572 F13.0812782650
G01 X0.0000000000 Y0.0000000000 Z0.3784598326 F52.3251130601
G01 X0.0000000000 Y0.0000000000 Z0.3820935210 F13.0812782650
G01 X0.0000000000 Y0.0000000000 Z0.5030873480 F62.2253967444
G01 X0.0000000000 Y0.0000000000 Z0.5067210364 F13.0812782650
G01 X0.0000000000 Y0.0000000000 Z0.5793948046 F52.3251130601
G01 X0.0000000000 Y0.0000000000 Z0.6084643118 F52.3251130601
G01 X0.0000000000 Y0.0000000000 Z0.6139086929 F19.5997717991
G01 X0.0000000000 Y0.0000000000 Z0.6901300277 F39.1995435982
G01 X0.0000000000 Y0.0000000000 Z0.6955744087 F19.5997717991
G01 X0.0000000000 Y0.0000000000 Z0.7700650211 F52.3251130601
G01 X0.0000000000 Y0.0000000000 Z0.7973176841 F52.3251130601
G01 X0.0000000000 Y0.0000000000 Z0.8045850609 F26.1625565301
G01 X0.0000000000 Y0.0000000000 Z0.9187880262 F58.7329535835
G01 X0.0000000000 Y0.0000000000 Z0.9260554030 F26.1625565301
G01 X0.0000000000 Y0.0000000000 Z0.9940376183 F46.6163761518
G01 X0.0000000000 Y0.0000000000 Z1.0166983567 F46.6163761518
G01 X0.0000000000 Y0.0000000000 Z1.0199356050 F11.6540940380
G01 X0.0000000000 Y0.0000000000 Z1.0878410945 F34.9228231433
G01 X0.0000000000 Y0.0000000000 Z1.0910783428 F11.6540940380
G01 X0.0000000000 Y0.0000000000 Z1.1817212964 F46.6163761518
G01 X0.0000000000 Y0.0000000000 Z1.1849585448 F11.6540940380
G01 X0.0000000000 Y0.0000000000 Z1.2991615101 F58.7329535835
G01 X0.0000000000 Y0.0000000000 Z1.3023987584 F11.6540940380
G01 X0.0000000000 Y0.0000000000 Z1.3719995978 F46.6163761518
G01 X0.0000000000 Y0.0000000000 Z1.3930417120 F46.6163761518
G01 X0.0000000000 Y0.0000000000 Z1.3978921042 F17.4614115717
G01 X0.0000000000 Y0.0000000000 Z1.4657975936 F34.9228231433
G01 X0.0000000000 Y0.0000000000 Z1.4706479857 F17.4614115717
G01 X0.0000000000 Y0.0000000000 Z1.5418674493 F46.6163761518
G01 X0.0000000000 Y0.0000000000 Z1.5612909393 F46.6163761518
G01 X0.0000000000 Y0.0000000000 Z1.5677654360 F23.3081880759
G01 X0.0000000000 Y0.0000000000 Z1.6584083896 F46.6163761518
G01 X0.0000000000 Y0.0000000000 Z1.6648828863 F23.3081880759
G01 X0.0000000000 Y0.0000000000 Z1.7261321732 F39.1995435982
G01 X0.0000000000 Y0.0000000000 Z1.7411042211 F39.1995435982
G01 X0.0000000000 Y0.0000000000 Z1.7438264116 F9.7998858995
G01 X0.0000000000 Y0.0000000000 Z1.8009278943 F29.3664767917
G01 X0.0000000000 Y0.0000000000 Z1.8036500848 F9.7998858995
G01 X0.0000000000 Y0.0000000000 Z1.8798714196 F39.1995435982
G01 X0.0000000000 Y0.0000000000 Z1.8825936101 F9.7998858995
G01 X0.0000000000 Y0.0000000000 Z1.9732365637 F46.6163761518
G01 X0.0000000000 Y0.0000000000 Z1.9759587543 F9.7998858995
G01 X0.0000000000 Y0.0000000000 Z2.0385691364 F39.1995435982
G01 X0.0000000000 Y0.0000000000 Z2.0521800890 F39.1995435982
G01 X0.0000000000 Y0.0000000000 Z2.0576244701 F19.5997717991
G01 X0.0000000000 Y0.0000000000 Z2.1147259528 F29.3664767917
G01 X0.0000000000 Y0.0000000000 Z2.1201703338 F19.5997717991
G01 X0.0000000000 Y0.0000000000 Z2.1963916686 F39.1995435982
G01 X0.0000000000 Y0.0000000000 Z2.2018360496 F19.5997717991
G01 X0.0000000000 Y0.0000000000 Z2.2780573844 F39.1995435982
G01 X0.0000000000 Y0.0000000000 Z2.2835017655 F19.5997717991
G01 X0.0000000000 Y0.0000000000 Z2.3342759607 F31.1126983722
G01 X0.0000000000 Y0.0000000000 Z2.3439986790 F31.1126983722
G01 X0.0000000000 Y0.0000000000 Z2.3483198871 F15.5563491861
G01 X0.0000000000 Y0.0000000000 Z2.3936413639 F23.3081880759
G01 X0.0000000000 Y0.0000000000 Z2.3979625720 F15.5563491861
G01 X0.0000000000 Y0.0000000000 Z2.4584594855 F31.1126983722
G01 X0.0000000000 Y0.0000000000 Z2.4627806936 F15.5563491861
G01 X0.0000000000 Y0.0000000000 Z2.5390020284 F39.1995435982
G01 X0.0000000000 Y0.0000000000 Z2.5433232365 F15.5563491861
G01 X0.0000000000 Y0.0000000000 Z2.5951777338 F31.1126983722
G01 X0.0000000000 Y0.0000000000 Z2.6038201500 F31.1126983722
G01 X0.0000000000 Y0.0000000000 Z2.6092645310 F19.5997717991
G01 X0.0000000000 Y0.0000000000 Z2.6545860079 F23.3081880759
G01 X0.0000000000 Y0.0000000000 Z2.6600303889 F19.5997717991
G01 X0.0000000000 Y0.0000000000 Z2.7129651882 F31.1126983722
G01 X0.0000000000 Y0.0000000000 Z2.7205273024 F31.1126983722
G01 X0.0000000000 Y0.0000000000 Z2.7270017991 F23.3081880759
G01 X0.0000000000 Y0.0000000000 Z2.8125573547 F44.0000000000
G01 X0.0000000000 Y0.0000000000 Z2.8190318513 F23.3081880759
G01 X0.0000000000 Y0.0000000000 Z2.8796617526 F34.9228231433
G01 X0.0000000000 Y0.0000000000 Z2.8869373408 F34.9228231433
G01 X0.0000000000 Y0.0000000000 Z2.8893625368 F8.7307057858
G01 X0.0000000000 Y0.0000000000 Z2.9402341745 F26.1625565301
G01 X0.0000000000 Y0.0000000000 Z2.9426593706 F8.7307057858
G01 X0.0000000000 Y0.0000000000 Z3.0105648600 F34.9228231433
G01 X0.0000000000 Y0.0000000000 Z3.0129900561 F8.7307057858
G01 X0.0000000000 Y0.0000000000 Z3.0985456116 F44.0000000000
G01 X0.0000000000 Y0.0000000000 Z3.1009708077 F8.7307057858
G01 X0.0000000000 Y0.0000000000 Z3.1628133070 F34.9228231433
G01 X0.0000000000 Y0.0000000000 Z3.1688762971 F34.9228231433
G01 X0.0000000000 Y0.0000000000 Z3.1737266892 F17.4614115717
G01 X0.0000000000 Y0.0000000000 Z3.2245983269 F26.1625565301
G01 X0.0000000000 Y0.0000000000 Z3.2294487190 F17.4614115717
G01 X0.0000000000 Y0.0000000000 Z3.2973542085 F34.9228231433
G01 X0.0000000000 Y0.0000000000 Z3.3725352861 F17.4614115717
G01 X0.0000000000 Y0.0000000000 Z3.4164306083 F9.7998858995
G01 X0.0000000000 Y0.0000000000 Z3.5042212529 F19.5997717991
G01 X0.0000000000 Y0.0000000000 Z3.5824338255 F17.4614115717
G01 X0.0000000000 Y0.0000000000 Z3.6702244700 F19.5997717991
G01 X0.0000000000 Y0.0000000000 Z3.7746257291 F23.3081880759
G01 X0.0000000000 Y0.0000000000 Z3.7307304069 F9.7998858995
G01 X0.0000000000 Y0.0000000000 Z3.6525178342 F17.4614115717
G01 X0.0000000000 Y0.0000000000 Z3.5647271897 F19.5997717991
G01 X0.0000000000 Y0.0000000000 Z3.5208318674 F9.7998858995
G01 X0.0000000000 Y0.0000000000 Z3.4330412229 F19.5997717991
G01 X0.0000000000 Y0.0000000000 Z3.3548286503 F17.4614115717
G01 X0.0000000000 Y0.0000000000 Z3.2670380057 F19.5997717991
G01 X0.0000000000 Y0.0000000000 Z3.0335735256 F26.1625565301
G01 X0.0000000000 Y0.0000000000 Z2.8255803195 F23.3081880759
G01 X0.0000000000 Y0.0000000000 Z2.7816849972 F9.7998858995
G01 X0.0000000000 Y0.0000000000 Z2.6938943527 F19.5997717991
G01 X0.0000000000 Y0.0000000000 Z2.6156817801 F17.4614115717
G01 X0.0000000000 Y0.0000000000 Z2.5278911355 F19.5997717991
G01 X0.0000000000 Y0.0000000000 Z2.4234898765 F23.3081880759
G01 X0.0000000000 Y0.0000000000 Z2.3795945542 F9.7998858995
G01 X0.0000000000 Y0.0000000000 Z2.3013819815 F17.4614115717
G01 X0.0000000000 Y0.0000000000 Z2.2135913370 F19.5997717991
G01 X0.0000000000 Y0.0000000000 Z2.1696960148 F9.7998858995
G01 X0.0000000000 Y0.0000000000 Z2.0819053702 F19.5997717991
G01 X0.0000000000 Y0.0000000000 Z2.0036927976 F17.4614115717
G01 X0.0000000000 Y0.0000000000 Z1.6563756960 F15.5563491861
G01 X0.0000000000 Y0.0000000000 Z1.6124803737 F9.7998858995
G01 X0.0000000000 Y0.0000000000 Z1.5246897292 F19.5997717991
G01 X0.0000000000 Y0.0000000000 Z1.4464771565 F17.4614115717
G01 X0.0000000000 Y0.0000000000 Z1.3586865120 F19.5997717991
G01 X0.0000000000 Y0.0000000000 Z1.2542852529 F23.3081880759
G01 X0.0000000000 Y0.0000000000 Z1.2103899306 F9.7998858995
G01 X0.0000000000 Y0.0000000000 Z1.1321773580 F17.4614115717
G01 X0.0000000000 Y0.0000000000 Z1.0443867135 F19.5997717991
G01 X0.0000000000 Y0.0000000000 Z1.0004913912 F9.7998858995
G01 X0.0000000000 Y0.0000000000 Z0.9127007467 F19.5997717991
G01 X0.0000000000 Y0.0000000000 Z0.8344881740 F17.4614115717
G01 X0.0000000000 Y0.0000000000 Z0.7466975295 F19.5997717991
G01 X0.0000000000 Y0.0000000000 Z0.5132330494 F26.1625565301
G01 X0.0000000000 Y0.0000000000 Z0.3052398433 F23.3081880759
G01 X0.0000000000 Y0.0000000000 Z0.2613445210 F9.7998858995
G01 X0.0000000000 Y0.0000000000 Z0.1735538765 F19.5997717991
G01 X0.0000000000 Y0.0000000000 Z0.2517664492 F17.4614115717
G01 X0.0000000000 Y0.0000000000 Z0.3395570937 F19.5997717991
G01 X0.0000000000 Y0.0000000000 Z0.4439583528 F23.3081880759
G01 X0.0000000000 Y0.0000000000 Z0.4878536750 F9.7998858995
G01 X0.0000000000 Y0.0000000000 Z0.5660662477 F17.4614115717
G01 X0.0000000000 Y0.0000000000 Z0.6538568922 F19.5997717991
G01 X0.0000000000 Y0.0000000000 Z0.6977522145 F9.7998858995
G01 X0.0000000000 Y0.0000000000 Z0.7635208864 F14.6832383959
G01 X0.0000000000 Y0.0000000000 Z0.8221141120 F13.0812782650
G01 X0.0000000000 Y0.0000000000 Z0.9783113446 F11.6540940380
G01 X0.0000000000 Y0.0000000000 Z1.0222066669 F9.7998858995
G01 X0.0000000000 Y0.0000000000 Z1.0744072964 F11.6540940380
G01 X0.0000000000 Y0.0000000000 Z1.2497327620 F13.0812782650
G01 X0.0000000000 Y0.0000000000 Z1.3019333916 F11.6540940380
G01 X0.0000000000 Y0.0000000000 Z1.3263778360 F11.0000000000
G01 X0.0000000000 Y0.0000000000 Z1.3522758228 F11.6540940380
G01 X0.0000000000 Y0.0000000000 Z1.3767202672 F11.0000000000
G01 X0.0000000000 Y0.0000000000 Z1.3984977914 F9.7998858995
G01 X0.0000000000 Y0.0000000000 Z1.5543166378 F8.7307057858
G04 P0.5350
G01 X0.0000000000 Y0.0000000000 Z1.6417670085 F9.7998858995
G01 X0.0000000000 Y0.0000000000 Z1.8166677499 F19.5997717991
G01 X0.0000000000 Y0.0000000000 Z1.8605630721 F9.7998858995
G01 X0.0000000000 Y0.0000000000 Z1.9044583944 F9.7998858995
G01 X0.0000000000 Y0.0000000000 Z2.0793591358 F19.5997717991
G01 X0.0000000000 Y0.0000000000 Z2.1014769338 F9.7998858995
G01 X0.0000000000 Y0.0000000000 Z2.1532729073 F23.3081880759
G01 X0.0000000000 Y0.0000000000 Z2.1968279558 F19.5997717991
G01 X0.0000000000 Y0.0000000000 Z2.2486239293 F23.3081880759
G01 X0.0000000000 Y0.0000000000 Z2.4048211619 F23.3081880759
G01 X0.0000000000 Y0.0000000000 Z2.4483762103 F19.5997717991
G01 X0.0000000000 Y0.0000000000 Z2.4922715326 F9.7998858995
G01 X0.0000000000 Y0.0000000000 Z2.5140490568 F9.7998858995
G01 X0.0000000000 Y0.0000000000 Z2.5534584926 F17.4614115717
G01 X0.0000000000 Y0.0000000000 Z2.5970135411 F19.5997717991
G01 X0.0000000000 Y0.0000000000 Z2.6848041856 F19.5997717991
G01 X0.0000000000 Y0.0000000000 Z2.7366001591 F23.3081880759
G01 X0.0000000000 Y0.0000000000 Z2.8243908036 F19.5997717991
G01 X0.0000000000 Y0.0000000000 Z2.8679458520 F19.5997717991
G01 X0.0000000000 Y0.0000000000 Z2.9197418255 F23.3081880759
G01 X0.0000000000 Y0.0000000000 Z2.9204223732 F19.5997717991
G01 X0.0000000000 Y0.0000000000 Z3.0248236323 F23.3081880759
G01 X0.0000000000 Y0.0000000000 Z3.0676981331 F19.5997717991
G01 X0.0000000000 Y0.0000000000 Z3.1211127307 F23.3081880759
G01 X0.0000000000 Y0.0000000000 Z3.2756913392 F23.3081880759
G01 X0.0000000000 Y0.0000000000 Z3.3261080058 F22.0000000000
G01 X0.0000000000 Y0.0000000000 Z3.3833385982 F26.1625565301
G01 X0.0000000000 Y0.0000000000 Z3.5005250494 F26.1625565301
G01 X0.0000000000 Y0.0000000000 Z3.5595724860 F26.1625565301
G01 X0.0000000000 Y0.0000000000 Z3.6374819091 F8.7307057858
G01 X0.0000000000 Y0.0000000000 Z3.7538913196 F17.4614115717
G01 X0.0000000000 Y0.0000000000 Z3.6876128130 F29.3664767917
G01 X0.0000000000 Y0.0000000000 Z3.5560754690 F29.3664767917
G01 X0.0000000000 Y0.0000000000 Z3.4918363010 F29.3664767917
G01 X0.0000000000 Y0.0000000000 Z3.4118048313 F34.9228231433
G01 X0.0000000000 Y0.0000000000 Z3.1801986084 F34.9228231433
G01 X0.0000000000 Y0.0000000000 Z3.1216715120 F39.1995435982
G01 X0.0000000000 Y0.0000000000 Z3.0937817575 F34.9228231433
G01 X0.0000000000 Y0.0000000000 Z3.0695297969 F34.9228231433
G01 X0.0000000000 Y0.0000000000 Z3.0110027006 F39.1995435982
G01 X0.0000000000 Y0.0000000000 Z2.9453082561 F44.0000000000
G01 X0.0000000000 Y0.0000000000 Z2.8867811598 F39.1995435982
G01 X0.0000000000 Y0.0000000000 Z2.8346394447 F34.9228231433
G01 X0.0000000000 Y0.0000000000 Z2.7294288735 F46.6163761518
G01 X0.0000000000 Y0.0000000000 Z2.6258369265 F46.6163761518
G01 X0.0000000000 Y0.0000000000 Z2.5482306529 F34.9228231433
G01 X0.0000000000 Y0.0000000000 Z2.4611205560 F39.1995435982
G01 X0.0000000000 Y0.0000000000 Z2.3633427782 F44.0000000000
G01 X0.0000000000 Y0.0000000000 Z2.3619816829 F39.1995435982
G01 X0.0000000000 Y0.0000000000 Z2.2762326813 F39.1995435982
G01 X0.0000000000 Y0.0000000000 Z2.1986264077 F34.9228231433
G01 X0.0000000000 Y0.0000000000 Z2.1953891593 F46.6163761518
G01 X0.0000000000 Y0.0000000000 Z2.0950344607 F46.6163761518
G01 X0.0000000000 Y0.0000000000 Z2.0446739359 F39.1995435982
G01 X0.0000000000 Y0.0000000000 Z2.0082959951 F34.9228231433
G01 X0.0000000000 Y0.0000000000 Z1.9998078089 F34.9228231433
G01 X0.0000000000 Y0.0000000000 Z1.9494472842 F39.1995435982
G01 X0.0000000000 Y0.0000000000 Z1.8929195064 F44.0000000000
G01 X0.0000000000 Y0.0000000000 Z1.8425589816 F39.1995435982
G01 X0.0000000000 Y0.0000000000 Z1.7976928547 F34.9228231433
G01 X0.0000000000 Y0.0000000000 Z1.7378037603 F46.6163761518
G01 X0.0000000000 Y0.0000000000 Z1.6792766640 F39.1995435982
G01 X0.0000000000 Y0.0000000000 Z1.6643046161 F19.5997717991
G01 X0.0000000000 Y0.0000000000 Z1.6571588659 F9.7998858995
G01 X0.0000000000 Y0.0000000000 Z1.5986317696 F39.1995435982
G01 X0.0000000000 Y0.0000000000 Z1.5329373252 F44.0000000000
G01 X0.0000000000 Y0.0000000000 Z1.4744102288 F39.1995435982
G01 X0.0000000000 Y0.0000000000 Z1.4597784547 F9.7998858995
G01 X0.0000000000 Y0.0000000000 Z1.3561865077 F46.6163761518
G01 X0.0000000000 Y0.0000000000 Z1.2509759365 F46.6163761518
G01 X0.0000000000 Y0.0000000000 Z1.1924488402 F39.1995435982
G01 X0.0000000000 Y0.0000000000 Z1.1486030589 F29.3664767917
G01 X0.0000000000 Y0.0000000000 Z1.0900759625 F39.1995435982
G01 X0.0000000000 Y0.0000000000 Z1.0472014617 F19.5997717991
G01 X0.0000000000 Y0.0000000000 Z1.0033061395 F9.7998858995
G01 X0.0000000000 Y0.0000000000 Z0.9594108172 F9.7998858995
G01 X0.0000000000 Y0.0000000000 Z0.7845100758 F19.5997717991
G01 X0.0000000000 Y0.0000000000 Z0.6662170039 F15.5563491861
G01 X0.0000000000 Y0.0000000000 Z0.6201382789 F34.9228231433
G01 X0.0000000000 Y0.0000000000 Z0.5619335736 F34.9228231433
G01 X0.0000000000 Y0.0000000000 Z0.4793403577 F29.3664767917
G01 X0.0000000000 Y0.0000000000 Z0.4742420110 F29.3664767917
G01 X0.0000000000 Y0.0000000000 Z0.3961177103 F26.1625565301
G01 X0.0000000000 Y0.0000000000 Z0.3653638510 F23.3081880759
G01 X0.0000000000 Y0.0000000000 Z0.3535543637 F13.0812782650
G01 X0.0000000000 Y0.0000000000 Z0.2954153492 F26.1625565301
G01 X0.0000000000 Y0.0000000000 Z0.2436193757 F23.3081880759
G01 X0.0000000000 Y0.0000000000 Z0.1649388201 F22.0000000000
G01 X0.0000000000 Y0.0000000000 Z0.2466968093 F26.1625565301
G01 X0.0000000000 Y0.0000000000 Z0.3048358238 F26.1625565301
G01 X0.0000000000 Y0.0000000000 Z0.3984033002 F26.1625565301
G01 X0.0000000000 Y0.0000000000 Z0.5202537855 F14.6832383959
G01 X0.0000000000 Y0.0000000000 Z0.5348214031 F23.3081880759
G01 X0.0000000000 Y0.0000000000 Z0.6510637071 F29.3664767917
G01 X0.0000000000 Y0.0000000000 Z0.7968764217 F29.3664767917
G01 X0.0000000000 Y0.0000000000 Z0.8626450937 F14.6832383959
G01 X0.0000000000 Y0.0000000000 Z0.9284137656 F14.6832383959
G01 X0.0000000000 Y0.0000000000 Z1.1904687842 F29.3664767917
G01 X0.0000000000 Y0.0000000000 Z1.2779191549 F9.7998858995
G01 X0.0000000000 Y0.0000000000 Z1.3786402045 F19.5997717991
G01 X0.0000000000 Y0.0000000000 Z1.4897841618 F29.3664767917
G01 X0.0000000000 Y0.0000000000 Z1.5101775484 F29.3664767917
G01 X0.0000000000 Y0.0000000000 Z1.5472673944 F9.7998858995
G01 X0.0000000000 Y0.0000000000 Z1.5911627166 F9.7998858995
G01 X0.0000000000 Y0.0000000000 Z1.7034530759 F19.5997717991
G01 X0.0000000000 Y0.0000000000 Z1.8150120943 F34.9228231433
G01 X0.0000000000 Y0.0000000000 Z1.8598782212 F34.9228231433
G01 X0.0000000000 Y0.0000000000 Z2.2159755390 F46.6163761518
G01 X0.0000000000 Y0.0000000000 Z2.2758646334 F46.6163761518
G01 X0.0000000000 Y0.0000000000 Z2.3629747303 F39.1995435982
G01 X0.0000000000 Y0.0000000000 Z2.4405810039 F34.9228231433
G01 X0.0000000000 Y0.0000000000 Z2.5894944278 F46.6163761518
G01 X0.0000000000 Y0.0000000000 Z2.6493835221 F46.6163761518
G01 X0.0000000000 Y0.0000000000 Z2.7364936190 F39.1995435982
G01 X0.0000000000 Y0.0000000000 Z2.7704463637 F34.9228231433
G01 X0.0000000000 Y0.0000000000 Z2.8140998927 F34.9228231433
G01 X0.0000000000 Y0.0000000000 Z2.9646319407 F46.6163761518
G01 X0.0000000000 Y0.0000000000 Z3.0229024108 F46.6163761518
G01 X0.0000000000 Y0.0000000000 Z3.1100125077 F39.1995435982
G01 X0.0000000000 Y0.0000000000 Z3.1876187814 F34.9228231433
G01 X0.0000000000 Y0.0000000000 Z3.2509097111 F19.5997717991
G01 X0.0000000000 Y0.0000000000 Z3.3897285216 F15.5563491861
G01 X0.0000000000 Y0.0000000000 Z3.4142282363 F19.5997717991
G01 X0.0000000000 Y0.0000000000 Z3.5178201833 F46.6163761518
G01 X0.0000000000 Y0.0000000000 Z3.5705086652 F52.3251130601
G01 X0.0000000000 Y0.0000000000 Z3.6340982124 F52.3251130601
G01 X0.0000000000 Y0.0000000000 Z3.6858941859 F46.6163761518
G01 X0.0000000000 Y0.0000000000 Z3.7440332004 F52.3251130601
G01 X0.0000000000 Y0.0000000000 Z3.7197538378 F23.3081880759
G01 X0.0000000000 Y0.0000000000 Z3.7179369936 F13.0812782650
G01 X0.0000000000 Y0.0000000000 Z3.6690481047 F44.0000000000
G01 X0.0000000000 Y0.0000000000 Z3.5994472653 F46.6163761518
G01 X0.0000000000 Y0.0000000000 Z3.5337528209 F44.0000000000
G01 X0.0000000000 Y0.0000000000 Z3.4752257245 F39.1995435982
G01 X0.0000000000 Y0.0000000000 Z3.4364225877 F34.9228231433
G01 X0.0000000000 Y0.0000000000 Z3.3928675393 F39.1995435982
G01 X0.0000000000 Y0.0000000000 Z3.3589147945 F34.9228231433
G01 X0.0000000000 Y0.0000000000 Z3.3540644024 F34.9228231433
G01 X0.0000000000 Y0.0000000000 Z3.3214349838 F29.3664767917
G01 X0.0000000000 Y0.0000000000 Z3.2823728334 F26.1625565301
G01 X0.0000000000 Y0.0000000000 Z3.2385270521 F29.3664767917
G01 X0.0000000000 Y0.0000000000 Z3.1994649017 F26.1625565301
G01 X0.0000000000 Y0.0000000000 Z3.1556191204 F29.3664767917
G01 X0.0000000000 Y0.0000000000 Z3.1165569700 F26.1625565301
G01 X0.0000000000 Y0.0000000000 Z3.1104389540 F29.3664767917
G01 X0.0000000000 Y0.0000000000 Z3.0727111887 F29.3664767917
G01 X0.0000000000 Y0.0000000000 Z3.0209152152 F23.3081880759
G01 X0.0000000000 Y0.0000000000 Z2.9627762007 F26.1625565301
G01 X0.0000000000 Y0.0000000000 Z2.9109802272 F23.3081880759
G01 X0.0000000000 Y0.0000000000 Z2.8883194888 F23.3081880759
G01 X0.0000000000 Y0.0000000000 Z2.8591842537 F23.3081880759
G01 X0.0000000000 Y0.0000000000 Z2.8202259203 F22.0000000000
G01 X0.0000000000 Y0.0000000000 Z2.7789510040 F23.3081880759
G01 X0.0000000000 Y0.0000000000 Z2.7399926706 F22.0000000000
G01 X0.0000000000 Y0.0000000000 Z2.7052847414 F19.5997717991
G01 X0.0000000000 Y0.0000000000 Z2.6922986303 F22.0000000000
G01 X0.0000000000 Y0.0000000000 Z2.6663264081 F22.0000000000
G01 X0.0000000000 Y0.0000000000 Z2.6016743830 F19.5997717991
G01 X0.0000000000 Y0.0000000000 Z2.5785357635 F19.5997717991
G01 X0.0000000000 Y0.0000000000 Z2.5059663191 F22.0000000000
G01 X0.0000000000 Y0.0000000000 Z2.4799940969 F22.0000000000
G01 X0.0000000000 Y0.0000000000 Z2.4017815242 F17.4614115717
G01 X0.0000000000 Y0.0000000000 Z2.3163898466 F26.1625565301
G01 X0.0000000000 Y0.0000000000 Z2.2845950731 F26.1625565301
G01 X0.0000000000 Y0.0000000000 Z2.2090542859 F9.7998858995
G01 X0.0000000000 Y0.0000000000 Z2.1791101901 F19.5997717991
G01 X0.0000000000 Y0.0000000000 Z2.0747089310 F23.3081880759
G01 X0.0000000000 Y0.0000000000 Z1.9603769289 F39.1995435982
G01 X0.0000000000 Y0.0000000000 Z1.8991276420 F39.1995435982
G01 X0.0000000000 Y0.0000000000 Z1.8773501178 F9.7998858995
G01 X0.0000000000 Y0.0000000000 Z1.8569567311 F29.3664767917
G01 X0.0000000000 Y0.0000000000 Z1.8120912805 F29.3664767917
G01 X0.0000000000 Y0.0000000000 Z1.7344850068 F34.9228231433
G01 X0.0000000000 Y0.0000000000 Z1.7104496641 F32.9627556913
G01 X0.0000000000 Y0.0000000000 Z1.6612344386 F32.9627556913
G01 X0.0000000000 Y0.0000000000 Z1.5741243417 F39.1995435982
G01 X0.0000000000 Y0.0000000000 Z1.5088655044 F29.3664767917
G01 X0.0000000000 Y0.0000000000 Z1.3774766155 F44.0000000000
G01 X0.0000000000 Y0.0000000000 Z1.3117821711 F44.0000000000
G01 X0.0000000000 Y0.0000000000 Z1.2292323383 F46.6163761518
G01 X0.0000000000 Y0.0000000000 Z1.1513156717 F44.0000000000
G01 X0.0000000000 Y0.0000000000 Z1.0818998132 F39.1995435982
G01 X0.0000000000 Y0.0000000000 Z1.0200573139 F34.9228231433
G01 X0.0000000000 Y0.0000000000 Z1.0098606206 F29.3664767917
G01 X0.0000000000 Y0.0000000000 Z0.9680541779 F29.3664767917
G01 X0.0000000000 Y0.0000000000 Z0.8702764001 F44.0000000000
G01 X0.0000000000 Y0.0000000000 Z0.7926701265 F34.9228231433
G01 X0.0000000000 Y0.0000000000 Z0.7274112892 F29.3664767917
G01 X0.0000000000 Y0.0000000000 Z0.6947450028 F39.1995435982
G01 X0.0000000000 Y0.0000000000 Z0.6403011923 F39.1995435982
G01 X0.0000000000 Y0.0000000000 Z0.6185236680 F9.7998858995
G01 X0.0000000000 Y0.0000000000 Z0.5803292236 F44.0000000000
G01 X0.0000000000 Y0.0000000000 Z0.5207458903 F44.0000000000
G01 X0.0000000000 Y0.0000000000 Z0.4989683660 F9.7998858995
G01 X0.0000000000 Y0.0000000000 Z0.4568841376 F46.6163761518
G01 X0.0000000000 Y0.0000000000 Z0.3953764190 F46.6163761518
G01 X0.0000000000 Y0.0000000000 Z0.1741578570 F49.3883301256
G01 X0.0000000000 Y0.0000000000 Z0.2230467459 F44.0000000000
G01 X0.0000000000 Y0.0000000000 Z0.2748427194 F46.6163761518
G01 X0.0000000000 Y0.0000000000 Z0.3145649416 F44.0000000000
G01 X0.0000000000 Y0.0000000000 Z0.3237316083 F44.0000000000
G01 X0.0000000000 Y0.0000000000 Z0.3672866567 F39.1995435982
G01 X0.0000000000 Y0.0000000000 Z0.4452033234 F44.0000000000
G01 X0.0000000000 Y0.0000000000 Z0.5277531562 F46.6163761518
G01 X0.0000000000 Y0.0000000000 Z0.6056698228 F44.0000000000
G01 X0.0000000000 Y0.0000000000 Z0.6332175245 F15.5563491861
G01 X0.0000000000 Y0.0000000000 Z0.6514064949 F34.9228231433
G01 X0.0000000000 Y0.0000000000 Z0.6950600238 F34.9228231433
G01 X0.0000000000 Y0.0000000000 Z0.7583509536 F19.5997717991
G01 X0.0000000000 Y0.0000000000 Z0.8627522127 F23.3081880759
G01 X0.0000000000 Y0.0000000000 Z0.8822832879 F13.0812782650
G01 X0.0000000000 Y0.0000000000 Z1.1735576744 F39.1995435982
G01 X0.0000000000 Y0.0000000000 Z1.2320847707 F39.1995435982
G01 X0.0000000000 Y0.0000000000 Z1.3885099160 F34.9228231433
G01 X0.0000000000 Y0.0000000000 Z1.4756200129 F39.1995435982
G01 X0.0000000000 Y0.0000000000 Z1.5010845715 F34.9228231433
G01 X0.0000000000 Y0.0000000000 Z1.5532262866 F34.9228231433
G01 X0.0000000000 Y0.0000000000 Z1.6260448832 F9.7998858995
G01 X0.0000000000 Y0.0000000000 Z1.8009456246 F19.5997717991
G01 X0.0000000000 Y0.0000000000 Z1.8883959953 F9.7998858995
G01 X0.0000000000 Y0.0000000000 Z1.9666589729 F19.5997717991
G01 X0.0000000000 Y0.0000000000 Z1.9880478618 F44.0000000000
G01 X0.0000000000 Y0.0000000000 Z2.0522145285 F44.0000000000
G01 X0.0000000000 Y0.0000000000 Z2.0570649206 F17.4614115717
G01 X0.0000000000 Y0.0000000000 Z2.1249704101 F34.9228231433
G01 X0.0000000000 Y0.0000000000 Z2.1298208022 F17.4614115717
G01 X0.0000000000 Y0.0000000000 Z2.1451158422 F29.3664767917
G01 X0.0000000000 Y0.0000000000 Z2.1869222848 F29.3664767917
G01 X0.0000000000 Y0.0000000000 Z2.1910009621 F14.6832383959
G01 X0.0000000000 Y0.0000000000 Z2.2589064516 F34.9228231433
G01 X0.0000000000 Y0.0000000000 Z2.2629851289 F14.6832383959
G01 X0.0000000000 Y0.0000000000 Z2.3485406845 F44.0000000000
G01 X0.0000000000 Y0.0000000000 Z2.3526193618 F14.6832383959
G01 X0.0000000000 Y0.0000000000 Z2.4205248513 F34.9228231433
G01 X0.0000000000 Y0.0000000000 Z2.4246035286 F14.6832383959
G01 X0.0000000000 Y0.0000000000 Z2.4409182379 F29.3664767917
G01 X0.0000000000 Y0.0000000000 Z2.4817050112 F29.3664767917
G01 X0.0000000000 Y0.0000000000 Z2.4878161223 F22.0000000000
G01 X0.0000000000 Y0.0000000000 Z2.5557216118 F34.9228231433
G01 X0.0000000000 Y0.0000000000 Z2.5618327229 F22.0000000000
G01 X0.0000000000 Y0.0000000000 Z2.6473882785 F44.0000000000
G01 X0.0000000000 Y0.0000000000 Z2.6534993896 F22.0000000000
G01 X0.0000000000 Y0.0000000000 Z2.7214048790 F34.9228231433
G01 X0.0000000000 Y0.0000000000 Z2.7275159901 F22.0000000000
G01 X0.0000000000 Y0.0000000000 Z2.7448503688 F29.3664767917
G01 X0.0000000000 Y0.0000000000 Z2.7846174728 F29.3664767917
G04 P0.0160
G01 X0.0000000000 Y0.0000000000 Z2.8525229622 F34.9228231433
G04 P0.0160
G01 X0.0000000000 Y0.0000000000 Z2.9380785178 F44.0000000000
G04 P0.0160
G01 X0.0000000000 Y0.0000000000 Z3.0059840072 F34.9228231433
G04 P0.0160
G01 X0.0000000000 Y0.0000000000 Z3.0243380552 F29.3664767917
G01 X0.0000000000 Y0.0000000000 Z3.0533658330 F22.0000000000
G01 X0.0000000000 Y0.0000000000 Z3.0594769441 F22.0000000000
G01 X0.0000000000 Y0.0000000000 Z3.1273824335 F34.9228231433
G01 X0.0000000000 Y0.0000000000 Z3.1334935447 F22.0000000000
G01 X0.0000000000 Y0.0000000000 Z3.2241364983 F46.6163761518
G01 X0.0000000000 Y0.0000000000 Z3.2302476094 F22.0000000000
G01 X0.0000000000 Y0.0000000000 Z3.2981530988 F34.9228231433
G01 X0.0000000000 Y0.0000000000 Z3.3042642100 F22.0000000000
G01 X0.0000000000 Y0.0000000000 Z3.3236379273 F29.3664767917
G01 X0.0000000000 Y0.0000000000 Z3.3613656926 F29.3664767917
G01 X0.0000000000 Y0.0000000000 Z3.3646029410 F11.6540940380
G01 X0.0000000000 Y0.0000000000 Z3.4325084304 F34.9228231433
G01 X0.0000000000 Y0.0000000000 Z3.4357456787 F11.6540940380
G01 X0.0000000000 Y0.0000000000 Z3.5263886324 F46.6163761518
G01 X0.0000000000 Y0.0000000000 Z3.5296258807 F11.6540940380
G01 X0.0000000000 Y0.0000000000 Z3.5975313702 F34.9228231433
G01 X0.0000000000 Y0.0000000000 Z3.6007686185 F11.6540940380
G01 X0.0000000000 Y0.0000000000 Z3.6211620052 F29.3664767917
G01 X0.0000000000 Y0.0000000000 Z3.6578701012 F29.3664767917
G01 X0.0000000000 Y0.0000000000 Z3.6627204933 F17.4614115717
G01 X0.0000000000 Y0.0000000000 Z3.7306259827 F34.9228231433
G01 X0.0000000000 Y0.0000000000 Z3.7257755906 F17.4614115717
G01 X0.0000000000 Y0.0000000000 Z3.6351326370 F46.6163761518
G01 X0.0000000000 Y0.0000000000 Z3.6302822449 F17.4614115717
G01 X0.0000000000 Y0.0000000000 Z3.5623767554 F34.9228231433
G01 X0.0000000000 Y0.0000000000 Z3.5575263633 F17.4614115717
G01 X0.0000000000 Y0.0000000000 Z3.5361133073 F29.3664767917
G01 X0.0000000000 Y0.0000000000 Z3.5004248807 F29.3664767917
G01 X0.0000000000 Y0.0000000000 Z3.4939503840 F23.3081880759
G01 X0.0000000000 Y0.0000000000 Z3.4260448945 F34.9228231433
G01 X0.0000000000 Y0.0000000000 Z3.4195703978 F23.3081880759
G01 X0.0000000000 Y0.0000000000 Z3.3289274442 F46.6163761518
G01 X0.0000000000 Y0.0000000000 Z3.3224529475 F23.3081880759
G01 X0.0000000000 Y0.0000000000 Z3.2545474581 F34.9228231433
G01 X0.0000000000 Y0.0000000000 Z3.2480729614 F23.3081880759
G01 X0.0000000000 Y0.0000000000 Z3.2256402361 F29.3664767917
G01 X0.0000000000 Y0.0000000000 Z3.1909714787 F29.3664767917
G01 X0.0000000000 Y0.0000000000 Z3.1861210866 F17.4614115717
G01 X0.0000000000 Y0.0000000000 Z3.1182155972 F34.9228231433
G01 X0.0000000000 Y0.0000000000 Z3.1133652051 F17.4614115717
G01 X0.0000000000 Y0.0000000000 Z3.0278096495 F44.0000000000
G01 X0.0000000000 Y0.0000000000 Z3.0229592574 F17.4614115717
G01 X0.0000000000 Y0.0000000000 Z2.9550537680 F34.9228231433
G01 X0.0000000000 Y0.0000000000 Z2.9502033759 F17.4614115717
G01 X0.0000000000 Y0.0000000000 Z2.9267509812 F29.3664767917
G01 X0.0000000000 Y0.0000000000 Z2.8931018932 F29.3664767917
G01 X0.0000000000 Y0.0000000000 Z2.8890232159 F14.6832383959
G01 X0.0000000000 Y0.0000000000 Z2.8211177265 F34.9228231433
G01 X0.0000000000 Y0.0000000000 Z2.8170390491 F14.6832383959
G01 X0.0000000000 Y0.0000000000 Z2.7314834936 F44.0000000000
G01 X0.0000000000 Y0.0000000000 Z2.7274048162 F14.6832383959
G01 X0.0000000000 Y0.0000000000 Z2.6594993268 F34.9228231433
G01 X0.0000000000 Y0.0000000000 Z2.6554206495 F14.6832383959
G01 X0.0000000000 Y0.0000000000 Z2.6309485855 F29.3664767917
G01 X0.0000000000 Y0.0000000000 Z2.5983191668 F29.3664767917
G01 X0.0000000000 Y0.0000000000 Z2.5922080557 F22.0000000000
G01 X0.0000000000 Y0.0000000000 Z2.5243025663 F34.9228231433
G01 X0.0000000000 Y0.0000000000 Z2.5181914551 F22.0000000000
G01 X0.0000000000 Y0.0000000000 Z2.4326358996 F44.0000000000
G01 X0.0000000000 Y0.0000000000 Z2.4265247885 F22.0000000000
G01 X0.0000000000 Y0.0000000000 Z2.3586192990 F34.9228231433
G01 X0.0000000000 Y0.0000000000 Z2.3525081879 F22.0000000000
G01 X0.0000000000 Y0.0000000000 Z2.3270164546 F29.3664767917
G01 X0.0000000000 Y0.0000000000 Z2.2954067053 F29.3664767917
G04 P0.0160
G01 X0.0000000000 Y0.0000000000 Z2.2275012158 F34.9228231433
G04 P0.0160
G01 X0.0000000000 Y0.0000000000 Z2.1419456603 F44.0000000000
G04 P0.0160
G01 X0.0000000000 Y0.0000000000 Z2.0740401708 F34.9228231433
G04 P0.0160
G01 X0.0000000000 Y0.0000000000 Z2.0475287682 F29.3664767917
G01 X0.0000000000 Y0.0000000000 Z2.0246121015 F22.0000000000
G01 X0.0000000000 Y0.0000000000 Z2.0185009904 F22.0000000000
G01 X0.0000000000 Y0.0000000000 Z1.9505955009 F34.9228231433
G01 X0.0000000000 Y0.0000000000 Z1.9444843898 F22.0000000000
G01 X0.0000000000 Y0.0000000000 Z1.8427411144 F52.3251130601
G01 X0.0000000000 Y0.0000000000 Z1.8366300033 F22.0000000000
G01 X0.0000000000 Y0.0000000000 Z1.7510744478 F44.0000000000
G01 X0.0000000000 Y0.0000000000 Z1.7449633367 F22.0000000000
G01 X0.0000000000 Y0.0000000000 Z1.7140607532 F32.9627556913
G01 X0.0000000000 Y0.0000000000 Z1.6808690895 F32.9627556913
G01 X0.0000000000 Y0.0000000000 Z1.6778135339 F11.0000000000
G01 X0.0000000000 Y0.0000000000 Z1.5922579784 F44.0000000000
G01 X0.0000000000 Y0.0000000000 Z1.5892024228 F11.0000000000
G01 X0.0000000000 Y0.0000000000 Z1.4874591474 F52.3251130601
G01 X0.0000000000 Y0.0000000000 Z1.4844035919 F11.0000000000
G01 X0.0000000000 Y0.0000000000 Z1.3988480363 F44.0000000000
G01 X0.0000000000 Y0.0000000000 Z1.3957924808 F11.0000000000
G01 X0.0000000000 Y0.0000000000 Z1.3637453572 F32.9627556913
G01 X0.0000000000 Y0.0000000000 Z1.3316982336 F32.9627556913
G01 X0.0000000000 Y0.0000000000 Z1.3271200731 F16.4813778456
G01 X0.0000000000 Y0.0000000000 Z1.2415645175 F44.0000000000
G01 X0.0000000000 Y0.0000000000 Z1.2369863570 F16.4813778456
G01 X0.0000000000 Y0.0000000000 Z1.1352430816 F52.3251130601
G01 X0.0000000000 Y0.0000000000 Z1.1306649211 F16.4813778456
G01 X0.0000000000 Y0.0000000000 Z1.0451093655 F44.0000000000
G01 X0.0000000000 Y0.0000000000 Z1.0405312050 F16.4813778456
G01 X0.0000000000 Y0.0000000000 Z1.0073395413 F32.9627556913
G01 X0.0000000000 Y0.0000000000 Z0.9764369578 F32.9627556913
G01 X0.0000000000 Y0.0000000000 Z0.9703258467 F22.0000000000
G01 X0.0000000000 Y0.0000000000 Z0.8847702912 F44.0000000000
G01 X0.0000000000 Y0.0000000000 Z0.8786591801 F22.0000000000
G01 X0.0000000000 Y0.0000000000 Z0.7769159047 F52.3251130601
G01 X0.0000000000 Y0.0000000000 Z0.7708047936 F22.0000000000
G01 X0.0000000000 Y0.0000000000 Z0.6852492380 F44.0000000000
G01 X0.0000000000 Y0.0000000000 Z0.6791381269 F22.0000000000
G01 X0.0000000000 Y0.0000000000 Z0.6448019230 F32.9627556913
G01 X0.0000000000 Y0.0000000000 Z0.6150438797 F32.9627556913
G01 X0.0000000000 Y0.0000000000 Z0.6104657192 F16.4813778456
G01 X0.0000000000 Y0.0000000000 Z0.5249101636 F44.0000000000
G01 X0.0000000000 Y0.0000000000 Z0.5203320031 F16.4813778456
G01 X0.0000000000 Y0.0000000000 Z0.4061290378 F58.7329535835
G01 X0.0000000000 Y0.0000000000 Z0.4015508773 F16.4813778456
G01 X0.0000000000 Y0.0000000000 Z0.3109079237 F46.6163761518
G01 X0.0000000000 Y0.0000000000 Z0.3063297632 F16.4813778456
G01 X0.0000000000 Y0.0000000000 Z0.2687392244 F34.9228231433
G01 X0.0000000000 Y0.0000000000 Z0.2384242737 F34.9228231433
G01 X0.0000000000 Y0.0000000000 Z0.2351870254 F11.6540940380
G01 X0.0000000000 Y0.0000000000 Z0.1445440718 F46.6163761518
G01 X0.0000000000 Y0.0000000000 Z0.1477813201 F11.6540940380
G01 X0.0000000000 Y0.0000000000 Z0.2619842854 F58.7329535835
G01 X0.0000000000 Y0.0000000000 Z0.2652215337 F11.6540940380
G01 X0.0000000000 Y0.0000000000 Z0.3558644874 F46.6163761518
G01 X0.0000000000 Y0.0000000000 Z0.3591017357 F11.6540940380
G01 X0.0000000000 Y0.0000000000 Z0.3979048725 F34.9228231433
G01 X0.0000000000 Y0.0000000000 Z0.4270072252 F34.9228231433
G01 X0.0000000000 Y0.0000000000 Z0.4318576173 F17.4614115717
G01 X0.0000000000 Y0.0000000000 Z0.5225005709 F46.6163761518
G01 X0.0000000000 Y0.0000000000 Z0.5273509630 F17.4614115717
G01 X0.0000000000 Y0.0000000000 Z0.5986508968 F62.2253967444
G01 X0.0000000000 Y0.0000000000 Z0.6483447900 F62.2253967444
G01 X0.0000000000 Y0.0000000000 Z0.6548192867 F23.3081880759
G01 X0.0000000000 Y0.0000000000 Z0.7565625621 F52.3251130601
G01 X0.0000000000 Y0.0000000000 Z0.7630370588 F23.3081880759
G01 X0.0000000000 Y0.0000000000 Z0.8093142977 F39.1995435982
G01 X0.0000000000 Y0.0000000000 Z0.8392583935 F39.1995435982
G01 X0.0000000000 Y0.0000000000 Z0.8428920820 F13.0812782650
G01 X0.0000000000 Y0.0000000000 Z0.9446353573 F52.3251130601
G01 X0.0000000000 Y0.0000000000 Z0.9482690458 F13.0812782650
G01 X0.0000000000 Y0.0000000000 Z1.0692628728 F62.2253967444
G01 X0.0000000000 Y0.0000000000 Z1.0728965612 F13.0812782650
G01 X0.0000000000 Y0.0000000000 Z1.1746398366 F52.3251130601
G01 X0.0000000000 Y0.0000000000 Z1.1782735250 F13.0812782650
G01 X0.0000000000 Y0.0000000000 Z1.2259118592 F39.1995435982
G01 X0.0000000000 Y0.0000000000 Z1.2544948597 F39.1995435982
G01 X0.0000000000 Y0.0000000000 Z1.2599392408 F19.5997717991
G01 X0.0000000000 Y0.0000000000 Z1.3616825162 F52.3251130601
G01 X0.0000000000 Y0.0000000000 Z1.3671268972 F19.5997717991
G01 X0.0000000000 Y0.0000000000 Z1.4405430892 F58.7329535835
G01 X0.0000000000 Y0.0000000000 Z1.4813298625 F58.7329535835
G01 X0.0000000000 Y0.0000000000 Z1.4885972394 F26.1625565301
G01 X0.0000000000 Y0.0000000000 Z1.5792401930 F46.6163761518
G01 X0.0000000000 Y0.0000000000 Z1.5865075698 F26.1625565301
G01 X0.0000000000 Y0.0000000000 Z1.6313736968 F34.9228231433
G01 X0.0000000000 Y0.0000000000 Z1.6544130593 F34.9228231433
G01 X0.0000000000 Y0.0000000000 Z1.6576503076 F11.6540940380
G01 X0.0000000000 Y0.0000000000 Z1.7482932612 F46.6163761518
G01 X0.0000000000 Y0.0000000000 Z1.7515305096 F11.6540940380
G01 X0.0000000000 Y0.0000000000 Z1.8657334749 F58.7329535835
G01 X0.0000000000 Y0.0000000000 Z1.8689707232 F11.6540940380
G01 X0.0000000000 Y0.0000000000 Z1.9596136768 F46.6163761518
G01 X0.0000000000 Y0.0000000000 Z1.9628509252 F11.6540940380
G01 X0.0000000000 Y0.0000000000 Z2.0089296502 F34.9228231433
G01 X0.0000000000 Y0.0000000000 Z2.0307564146 F34.9228231433
G01 X0.0000000000 Y0.0000000000 Z2.0356068067 F17.4614115717
G01 X0.0000000000 Y0.0000000000 Z2.1262497604 F46.6163761518
G01 X0.0000000000 Y0.0000000000 Z2.1311001525 F17.4614115717
G01 X0.0000000000 Y0.0000000000 Z2.1942264952 F46.6163761518
G01 X0.0000000000 Y0.0000000000 Z2.2217431061 F46.6163761518
G01 X0.0000000000 Y0.0000000000 Z2.2282176028 F23.3081880759
G01 X0.0000000000 Y0.0000000000 Z2.3044389376 F39.1995435982
G01 X0.0000000000 Y0.0000000000 Z2.3109134342 F23.3081880759
G01 X0.0000000000 Y0.0000000000 Z2.3517002076 F29.3664767917
G01 X0.0000000000 Y0.0000000000 Z2.3680149169 F29.3664767917
G01 X0.0000000000 Y0.0000000000 Z2.3707371074 F9.7998858995
G01 X0.0000000000 Y0.0000000000 Z2.4469584422 F39.1995435982
G01 X0.0000000000 Y0.0000000000 Z2.4496806327 F9.7998858995
G01 X0.0000000000 Y0.0000000000 Z2.5403235864 F46.6163761518
G01 X0.0000000000 Y0.0000000000 Z2.5430457769 F9.7998858995
G01 X0.0000000000 Y0.0000000000 Z2.6192671117 F39.1995435982
G01 X0.0000000000 Y0.0000000000 Z2.6219893022 F9.7998858995
G01 X0.0000000000 Y0.0000000000 Z2.6637957448 F29.3664767917
G01 X0.0000000000 Y0.0000000000 Z2.6790907848 F29.3664767917
G01 X0.0000000000 Y0.0000000000 Z2.6845351659 F19.5997717991
G01 X0.0000000000 Y0.0000000000 Z2.7607565007 F39.1995435982
G01 X0.0000000000 Y0.0000000000 Z2.7662008817 F19.5997717991
G01 X0.0000000000 Y0.0000000000 Z2.8424222165 F39.1995435982
G01 X0.0000000000 Y0.0000000000 Z2.8478665975 F19.5997717991
G01 X0.0000000000 Y0.0000000000 Z2.9083635110 F31.1126983722
G01 X0.0000000000 Y0.0000000000 Z2.9138078921 F19.5997717991
G01 X0.0000000000 Y0.0000000000 Z2.9477989997 F23.3081880759
G01 X0.0000000000 Y0.0000000000 Z2.9591293689 F23.3081880759
G01 X0.0000000000 Y0.0000000000 Z2.9634505770 F15.5563491861
G01 X0.0000000000 Y0.0000000000 Z3.0239474905 F31.1126983722
G01 X0.0000000000 Y0.0000000000 Z3.0282686986 F15.5563491861
G01 X0.0000000000 Y0.0000000000 Z3.1044900334 F39.1995435982
G01 X0.0000000000 Y0.0000000000 Z3.1088112415 F15.5563491861
G01 X0.0000000000 Y0.0000000000 Z3.1693081550 F31.1126983722
G01 X0.0000000000 Y0.0000000000 Z3.1736293631 F15.5563491861
G01 X0.0000000000 Y0.0000000000 Z3.2084297828 F23.3081880759
G01 X0.0000000000 Y0.0000000000 Z3.2189508399 F23.3081880759
G01 X0.0000000000 Y0.0000000000 Z3.2243952210 F19.5997717991
G01 X0.0000000000 Y0.0000000000 Z3.2848921345 F31.1126983722
G01 X0.0000000000 Y0.0000000000 Z3.2903365156 F19.5997717991
G01 X0.0000000000 Y0.0000000000 Z3.3575587378 F44.0000000000
G01 X0.0000000000 Y0.0000000000 Z3.3758920711 F44.0000000000
G01 X0.0000000000 Y0.0000000000 Z3.3823665678 F23.3081880759
G01 X0.0000000000 Y0.0000000000 Z3.4502720572 F34.9228231433
G01 X0.0000000000 Y0.0000000000 Z3.4567465539 F23.3081880759
G01 X0.0000000000 Y0.0000000000 Z3.4976255485 F26.1625565301
G01 X0.0000000000 Y0.0000000000 Z3.5076181916 F26.1625565301
G01 X0.0000000000 Y0.0000000000 Z3.5100433877 F8.7307057858
G01 X0.0000000000 Y0.0000000000 Z3.5779488771 F34.9228231433
G01 X0.0000000000 Y0.0000000000 Z3.5803740732 F8.7307057858
G01 X0.0000000000 Y0.0000000000 Z3.6659296287 F44.0000000000
G01 X0.0000000000 Y0.0000000000 Z3.6683548248 F8.7307057858
G01 X0.0000000000 Y0.0000000000 Z3.7362603142 F34.9228231433
G01 X0.0000000000 Y0.0000000000 Z3.7338351182 F8.7307057858
G01 X0.0000000000 Y0.0000000000 Z3.6920477015 F26.1625565301
G01 X0.0000000000 Y0.0000000000 Z3.6829634805 F26.1625565301
G01 X0.0000000000 Y0.0000000000 Z3.6781130884 F17.4614115717
G01 X0.0000000000 Y0.0000000000 Z3.6102075989 F34.9228231433
G01 X0.0000000000 Y0.0000000000 Z3.4992548796 F17.4614115717
G01 X0.0000000000 Y0.0000000000 Z3.4553595573 F9.7998858995
G01 X0.0000000000 Y0.0000000000 Z3.3675689128 F19.5997717991
G01 X0.0000000000 Y0.0000000000 Z3.2893563401 F17.4614115717
G01 X0.0000000000 Y0.0000000000 Z3.2015656956 F19.5997717991
G01 X0.0000000000 Y0.0000000000 Z3.0971644365 F23.3081880759
G01 X0.0000000000 Y0.0000000000 Z3.0532691143 F9.7998858995
G01 X0.0000000000 Y0.0000000000 Z2.9750565416 F17.4614115717
G01 X0.0000000000 Y0.0000000000 Z2.8872658971 F19.5997717991
G01 X0.0000000000 Y0.0000000000 Z2.8433705748 F9.7998858995
G01 X0.0000000000 Y0.0000000000 Z2.7555799303 F19.5997717991
G01 X0.0000000000 Y0.0000000000 Z2.6773673576 F17.4614115717
G01 X0.0000000000 Y0.0000000000 Z2.5895767131 F19.5997717991
G01 X0.0000000000 Y0.0000000000 Z2.3561122330 F26.1625565301
G01 X0.0000000000 Y0.0000000000 Z2.1481190269 F23.3081880759
G01 X0.0000000000 Y0.0000000000 Z2.1042237046 F9.7998858995
G01 X0.0000000000 Y0.0000000000 Z2.0164330601 F19.5997717991
G01 X0.0000000000 Y0.0000000000 Z1.9382204874 F17.4614115717
G01 X0.0000000000 Y0.0000000000 Z1.8504298429 F19.5997717991
G01 X0.0000000000 Y0.0000000000 Z1.7460285838 F23.3081880759
G01 X0.0000000000 Y0.0000000000 Z1.7021332616 F9.7998858995
G01 X0.0000000000 Y0.0000000000 Z1.6239206889 F17.4614115717
G01 X0.0000000000 Y0.0000000000 Z1.5361300444 F19.5997717991
G01 X0.0000000000 Y0.0000000000 Z1.4922347221 F9.7998858995
G01 X0.0000000000 Y0.0000000000 Z1.4044440776 F19.5997717991
G01 X0.0000000000 Y0.0000000000 Z1.3262315050 F17.4614115717
G01 X0.0000000000 Y0.0000000000 Z0.9789144033 F15.5563491861
G01 X0.0000000000 Y0.0000000000 Z0.9350190811 F9.7998858995
G01 X0.0000000000 Y0.0000000000 Z0.8472284366 F19.5997717991
G01 X0.0000000000 Y0.0000000000 Z0.7690158639 F17.4614115717
G01 X0.0000000000 Y0.0000000000 Z0.6812252194 F19.5997717991
G01 X0.0000000000 Y0.0000000000 Z0.5768239603 F23.3081880759
G01 X0.0000000000 Y0.0000000000 Z0.5329286380 F9.7998858995
G01 X0.0000000000 Y0.0000000000 Z0.4547160654 F17.4614115717
G01 X0.0000000000 Y0.0000000000 Z0.3669254208 F19.5997717991
G01 X0.0000000000 Y0.0000000000 Z0.3230300986 F9.7998858995
G01 X0.0000000000 Y0.0000000000 Z0.2352394541 F19.5997717991
G01 X0.0000000000 Y0.0000000000 Z0.1570268814 F17.4614115717
G01 X0.0000000000 Y0.0000000000 Z0.2448175259 F19.5997717991
G01 X0.0000000000 Y0.0000000000 Z0.4782820061 F26.1625565301
G01 X0.0000000000 Y0.0000000000 Z0.6862752122 F23.3081880759
G01 X0.0000000000 Y0.0000000000 Z0.7301705344 F9.7998858995
G01 X0.0000000000 Y0.0000000000 Z0.8179611789 F19.5997717991
G01 X0.0000000000 Y0.0000000000 Z0.8961737516 F17.4614115717
G01 X0.0000000000 Y0.0000000000 Z0.9839643961 F19.5997717991
G01 X0.0000000000 Y0.0000000000 Z1.0883656552 F23.3081880759
G01 X0.0000000000 Y0.0000000000 Z1.1322609775 F9.7998858995
G01 X0.0000000000 Y0.0000000000 Z1.2104735501 F17.4614115717
G01 X0.0000000000 Y0.0000000000 Z1.2982641947 F19.5997717991
G01 X0.0000000000 Y0.0000000000 Z1.3421595169 F9.7998858995
G01 X0.0000000000 Y0.0000000000 Z1.4299501614 F19.5997717991
G01 X0.0000000000 Y0.0000000000 Z1.5081627341 F17.4614115717
G01 X0.0000000000 Y0.0000000000 Z1.8554798357 F15.5563491861
G01 X0.0000000000 Y0.0000000000 Z1.8993751580 F9.7998858995
G01 X0.0000000000 Y0.0000000000 Z1.9871658025 F19.5997717991
G01 X0.0000000000 Y0.0000000000 Z2.0653783752 F17.4614115717
G01 X0.0000000000 Y0.0000000000 Z2.1531690197 F19.5997717991
G01 X0.0000000000 Y0.0000000000 Z2.2575702788 F23.3081880759
G01 X0.0000000000 Y0.0000000000 Z2.3014656010 F9.7998858995
G01 X0.0000000000 Y0.0000000000 Z2.3796781737 F17.4614115717
G01 X0.0000000000 Y0.0000000000 Z2.4674688182 F19.5997717991
G01 X0.0000000000 Y0.0000000000 Z2.5113641405 F9.7998858995
G01 X0.0000000000 Y0.0000000000 Z2.5991547850 F19.5997717991
G01 X0.0000000000 Y0.0000000000 Z2.6773673576 F17.4614115717
G01 X0.0000000000 Y0.0000000000 Z2.7651580022 F19.5997717991
G01 X0.0000000000 Y0.0000000000 Z2.9986224823 F26.1625565301
G01 X0.0000000000 Y0.0000000000 Z3.2066156884 F23.3081880759
G01 X0.0000000000 Y0.0000000000 Z3.2505110107 F9.7998858995
G01 X0.0000000000 Y0.0000000000 Z3.3383016552 F19.5997717991
G01 X0.0000000000 Y0.0000000000 Z3.4165142278 F17.4614115717
G01 X0.0000000000 Y0.0000000000 Z3.5043048724 F19.5997717991
G01 X0.0000000000 Y0.0000000000 Z3.6087061314 F23.3081880759
G01 X0.0000000000 Y0.0000000000 Z3.6526014537 F9.7998858995
G01 X0.0000000000 Y0.0000000000 Z3.7308140264 F17.4614115717
G01 X0.0000000000 Y0.0000000000 Z3.6430233818 F19.5997717991
G01 X0.0000000000 Y0.0000000000 Z3.5991280596 F9.7998858995
G01 X0.0000000000 Y0.0000000000 Z3.5113374151 F19.5997717991
G01 X0.0000000000 Y0.0000000000 Z3.4331248424 F17.4614115717
G01 X0.0000000000 Y0.0000000000 Z3.0858077408 F15.5563491861
G01 X0.0000000000 Y0.0000000000 Z3.0419124185 F9.7998858995
G01 X0.0000000000 Y0.0000000000 Z2.9541217740 F19.5997717991
G01 X0.0000000000 Y0.0000000000 Z2.8759092014 F17.4614115717
G01 X0.0000000000 Y0.0000000000 Z2.7881185568 F19.5997717991
G01 X0.0000000000 Y0.0000000000 Z2.6837172977 F23.3081880759
G01 X0.0000000000 Y0.0000000000 Z2.6398219755 F9.7998858995
G01 X0.0000000000 Y0.0000000000 Z2.5616094028 F17.4614115717
G01 X0.0000000000 Y0.0000000000 Z2.4738187583 F19.5997717991
G01 X0.0000000000 Y0.0000000000 Z2.4299234360 F9.7998858995
G01 X0.0000000000 Y0.0000000000 Z2.3421327915 F19.5997717991
G01 X0.0000000000 Y0.0000000000 Z2.2639202189 F17.4614115717
G01 X0.0000000000 Y0.0000000000 Z2.1761295743 F19.5997717991
G01 X0.0000000000 Y0.0000000000 Z1.9426650942 F26.1625565301
G01 X0.0000000000 Y0.0000000000 Z1.7346718881 F23.3081880759
G01 X0.0000000000 Y0.0000000000 Z1.6907765658 F9.7998858995
G01 X0.0000000000 Y0.0000000000 Z1.6029859213 F19.5997717991
G01 X0.0000000000 Y0.0000000000 Z1.5247733487 F17.4614115717
G01 X0.0000000000 Y0.0000000000 Z1.4369827041 F19.5997717991
G01 X0.0000000000 Y0.0000000000 Z1.3325814451 F23.3081880759
G01 X0.0000000000 Y0.0000000000 Z1.2886861228 F9.7998858995
G01 X0.0000000000 Y0.0000000000 Z1.2104735501 F17.4614115717
G01 X0.0000000000 Y0.0000000000 Z1.1226829056 F19.5997717991
G01 X0.0000000000 Y0.0000000000 Z1.0787875834 F9.7998858995
G01 X0.0000000000 Y0.0000000000 Z0.9909969388 F19.5997717991
G01 X0.0000000000 Y0.0000000000 Z0.9127843662 F17.4614115717
G01 X0.0000000000 Y0.0000000000 Z0.5654672646 F15.5563491861
G01 X0.0000000000 Y0.0000000000 Z0.5215719423 F9.7998858995
G01 X0.0000000000 Y0.0000000000 Z0.4337812978 F19.5997717991
G01 X0.0000000000 Y0.0000000000 Z0.3555687251 F17.4614115717
G01 X0.0000000000 Y0.0000000000 Z0.2677780806 F19.5997717991
G01 X0.0000000000 Y0.0000000000 Z0.1633768215 F23.3081880759
G01 X0.0000000000 Y0.0000000000 Z0.2072721438 F9.7998858995
G01 X0.0000000000 Y0.0000000000 Z0.2854847164 F17.4614115717
G01 X0.0000000000 Y0.0000000000 Z0.3732753610 F19.5997717991
G01 X0.0000000000 Y0.0000000000 Z0.4171706832 F9.7998858995
G01 X0.0000000000 Y0.0000000000 Z0.5049613277 F19.5997717991
G01 X0.0000000000 Y0.0000000000 Z0.5831739004 F17.4614115717
G01 X0.0000000000 Y0.0000000000 Z0.6709645449 F19.5997717991
G01 X0.0000000000 Y0.0000000000 Z0.9044290251 F26.1625565301
G01 X0.0000000000 Y0.0000000000 Z1.1124222312 F23.3081880759
G01 X0.0000000000 Y0.0000000000 Z1.1563175534 F9.7998858995
G01 X0.0000000000 Y0.0000000000 Z1.2441081979 F19.5997717991
G01 X0.0000000000 Y0.0000000000 Z1.3223207706 F17.4614115717
G01 X0.0000000000 Y0.0000000000 Z1.4101114151 F19.5997717991
G01 X0.0000000000 Y0.0000000000 Z1.5145126742 F23.3081880759
G01 X0.0000000000 Y0.0000000000 Z1.5584079965 F9.7998858995
G01 X0.0000000000 Y0.0000000000 Z1.6366205691 F17.4614115717
G01 X0.0000000000 Y0.0000000000 Z1.7244112136 F19.5997717991
G01 X0.0000000000 Y0.0000000000 Z1.7683065359 F9.7998858995
G01 X0.0000000000 Y0.0000000000 Z1.8560971804 F19.5997717991
G01 X0.0000000000 Y0.0000000000 Z1.9343097531 F17.4614115717
G01 X0.0000000000 Y0.0000000000 Z2.2816268547 F15.5563491861
